score of 320i\non_flipped\stylegan_gen_class_320i\tick55_kimg5000\0_0_320i.jpeg is:
-129233.31560256286
score of 320i\non_flipped\stylegan_gen_class_320i\tick55_kimg5000\0_10_320i.jpeg is:
-88313.4471423684
score of 320i\non_flipped\stylegan_gen_class_320i\tick55_kimg5000\0_11_320i.jpeg is:
-77695.86261481841
score of 320i\non_flipped\stylegan_gen_class_320i\tick55_kimg5000\0_12_320i.jpeg is:
-104416.95395533285
score of 320i\non_flipped\stylegan_gen_class_320i\tick55_kimg5000\0_13_320i.jpeg is:
-175414.57931862443
score of 320i\non_flipped\stylegan_gen_class_320i\tick55_kimg5000\0_14_320i.jpeg is:
-39787.65497472276
score of 320i\non_flipped\stylegan_gen_class_320i\tick55_kimg5000\0_15_320i.jpeg is:
-202180.1579803769
score of 320i\non_flipped\stylegan_gen_class_320i\tick55_kimg5000\0_16_320i.jpeg is:
-67920.8648801781
score of 320i\non_flipped\stylegan_gen_class_320i\tick55_kimg5000\0_17_320i.jpeg is:
-106274.17540742284
score of 320i\non_flipped\stylegan_gen_class_320i\tick55_kimg5000\0_18_320i.jpeg is:
-167827.09707232422
score of 320i\non_flipped\stylegan_gen_class_320i\tick55_kimg5000\0_19_320i.jpeg is:
-77695.86261481841
score of 320i\non_flipped\stylegan_gen_class_320i\tick55_kimg5000\0_1_320i.jpeg is:
-82672.3522290356
score of 320i\non_flipped\stylegan_gen_class_320i\tick55_kimg5000\0_20_320i.jpeg is:
-130639.17532426103
score of 320i\non_flipped\stylegan_gen_class_320i\tick55_kimg5000\0_21_320i.jpeg is:
-100789.18100806874
score of 320i\non_flipped\stylegan_gen_class_320i\tick55_kimg5000\0_22_320i.jpeg is:
-124025.61847094941
score of 320i\non_flipped\stylegan_gen_class_320i\tick55_kimg5000\0_23_320i.jpeg is:
-36304.1086097441
score of 320i\non_flipped\stylegan_gen_class_320i\tick55_kimg5000\0_24_320i.jpeg is:
-56524.684819547125
score of 320i\non_flipped\stylegan_gen_class_320i\tick55_kimg5000\0_25_320i.jpeg is:
-87307.81995133994
score of 320i\non_flipped\stylegan_gen_class_320i\tick55_kimg5000\0_26_320i.jpeg is:
-170257.58212769768
score of 320i\non_flipped\stylegan_gen_class_320i\tick55_kimg5000\0_27_320i.jpeg is:
-172689.61012003844
score of 320i\non_flipped\stylegan_gen_class_320i\tick55_kimg5000\0_28_320i.jpeg is:
-109937.98510980596
score of 320i\non_flipped\stylegan_gen_class_320i\tick55_kimg5000\0_29_320i.jpeg is:
-102716.81319190867
score of 320i\non_flipped\stylegan_gen_class_320i\tick55_kimg5000\0_2_320i.jpeg is:
-222620.2466719113
score of 320i\non_flipped\stylegan_gen_class_320i\tick55_kimg5000\0_30_320i.jpeg is:
-91628.87387004623
score of 320i\non_flipped\stylegan_gen_class_320i\tick55_kimg5000\0_31_320i.jpeg is:
-172067.12748726225
score of 320i\non_flipped\stylegan_gen_class_320i\tick55_kimg5000\0_32_320i.jpeg is:
-97167.2318144802
score of 320i\non_flipped\stylegan_gen_class_320i\tick55_kimg5000\0_33_320i.jpeg is:
-159299.3259179875
score of 320i\non_flipped\stylegan_gen_class_320i\tick55_kimg5000\0_34_320i.jpeg is:
-77029.70625524204
score of 320i\non_flipped\stylegan_gen_class_320i\tick55_kimg5000\0_35_320i.jpeg is:
-68017.89391432838
score of 320i\non_flipped\stylegan_gen_class_320i\tick55_kimg5000\0_36_320i.jpeg is:
-154095.52079962983
score of 320i\non_flipped\stylegan_gen_class_320i\tick55_kimg5000\0_37_320i.jpeg is:
-133481.27015100146
score of 320i\non_flipped\stylegan_gen_class_320i\tick55_kimg5000\0_38_320i.jpeg is:
-31811.620046280277
score of 320i\non_flipped\stylegan_gen_class_320i\tick55_kimg5000\0_39_320i.jpeg is:
-78904.32774420266
score of 320i\non_flipped\stylegan_gen_class_320i\tick55_kimg5000\0_3_320i.jpeg is:
-19324.800751886618
score of 320i\non_flipped\stylegan_gen_class_320i\tick55_kimg5000\0_40_320i.jpeg is:
-161976.12194636115
score of 320i\non_flipped\stylegan_gen_class_320i\tick55_kimg5000\0_41_320i.jpeg is:
-228911.16654482292
score of 320i\non_flipped\stylegan_gen_class_320i\tick55_kimg5000\0_42_320i.jpeg is:
-56276.536454535184
score of 320i\non_flipped\stylegan_gen_class_320i\tick55_kimg5000\0_43_320i.jpeg is:
-98865.82430511268
score of 320i\non_flipped\stylegan_gen_class_320i\tick55_kimg5000\0_44_320i.jpeg is:
-97337.24435656957
score of 320i\non_flipped\stylegan_gen_class_320i\tick55_kimg5000\0_45_320i.jpeg is:
-149233.80961119413
score of 320i\non_flipped\stylegan_gen_class_320i\tick55_kimg5000\0_46_320i.jpeg is:
-18306.258424122843
score of 320i\non_flipped\stylegan_gen_class_320i\tick55_kimg5000\0_47_320i.jpeg is:
-48828.48831659704
score of 320i\non_flipped\stylegan_gen_class_320i\tick55_kimg5000\0_48_320i.jpeg is:
-88621.58833295344
score of 320i\non_flipped\stylegan_gen_class_320i\tick55_kimg5000\0_49_320i.jpeg is:
-86963.2510140997
score of 320i\non_flipped\stylegan_gen_class_320i\tick55_kimg5000\0_4_320i.jpeg is:
-226504.73921621556
score of 320i\non_flipped\stylegan_gen_class_320i\tick55_kimg5000\0_50_320i.jpeg is:
-116510.05875715092
score of 320i\non_flipped\stylegan_gen_class_320i\tick55_kimg5000\0_51_320i.jpeg is:
-238224.4917937449
score of 320i\non_flipped\stylegan_gen_class_320i\tick55_kimg5000\0_52_320i.jpeg is:
-28510.125099585443
score of 320i\non_flipped\stylegan_gen_class_320i\tick55_kimg5000\0_53_320i.jpeg is:
-164576.88487026992
score of 320i\non_flipped\stylegan_gen_class_320i\tick55_kimg5000\0_54_320i.jpeg is:
-73491.66146776786
score of 320i\non_flipped\stylegan_gen_class_320i\tick55_kimg5000\0_55_320i.jpeg is:
-117889.90251157418
score of 320i\non_flipped\stylegan_gen_class_320i\tick55_kimg5000\0_56_320i.jpeg is:
-105344.47361474748
score of 320i\non_flipped\stylegan_gen_class_320i\tick55_kimg5000\0_57_320i.jpeg is:
-124260.65792324489
score of 320i\non_flipped\stylegan_gen_class_320i\tick55_kimg5000\0_58_320i.jpeg is:
-98357.44987588443
score of 320i\non_flipped\stylegan_gen_class_320i\tick55_kimg5000\0_59_320i.jpeg is:
-58312.08520829832
score of 320i\non_flipped\stylegan_gen_class_320i\tick55_kimg5000\0_5_320i.jpeg is:
-31811.620046280277
score of 320i\non_flipped\stylegan_gen_class_320i\tick55_kimg5000\0_60_320i.jpeg is:
-169595.53015343574
score of 320i\non_flipped\stylegan_gen_class_320i\tick55_kimg5000\0_61_320i.jpeg is:
-201366.14376312454
score of 320i\non_flipped\stylegan_gen_class_320i\tick55_kimg5000\0_62_320i.jpeg is:
-107079.7329896777
score of 320i\non_flipped\stylegan_gen_class_320i\tick55_kimg5000\0_63_320i.jpeg is:
-46453.16703021807
score of 320i\non_flipped\stylegan_gen_class_320i\tick55_kimg5000\0_64_320i.jpeg is:
-38786.909745402714
score of 320i\non_flipped\stylegan_gen_class_320i\tick55_kimg5000\0_65_320i.jpeg is:
-60385.12686822538
score of 320i\non_flipped\stylegan_gen_class_320i\tick55_kimg5000\0_66_320i.jpeg is:
-39333.70004620243
score of 320i\non_flipped\stylegan_gen_class_320i\tick55_kimg5000\0_67_320i.jpeg is:
-113273.7647637364
score of 320i\non_flipped\stylegan_gen_class_320i\tick55_kimg5000\0_68_320i.jpeg is:
-107831.87161001668
score of 320i\non_flipped\stylegan_gen_class_320i\tick55_kimg5000\0_69_320i.jpeg is:
-129682.20382730632
score of 320i\non_flipped\stylegan_gen_class_320i\tick55_kimg5000\0_6_320i.jpeg is:
-140984.12468824556
score of 320i\non_flipped\stylegan_gen_class_320i\tick55_kimg5000\0_70_320i.jpeg is:
-34864.72560341786
score of 320i\non_flipped\stylegan_gen_class_320i\tick55_kimg5000\0_71_320i.jpeg is:
-145619.47181487142
score of 320i\non_flipped\stylegan_gen_class_320i\tick55_kimg5000\0_72_320i.jpeg is:
-168778.9622225667
score of 320i\non_flipped\stylegan_gen_class_320i\tick55_kimg5000\0_73_320i.jpeg is:
-47552.6355227336
score of 320i\non_flipped\stylegan_gen_class_320i\tick55_kimg5000\0_74_320i.jpeg is:
-146093.46742607927
score of 320i\non_flipped\stylegan_gen_class_320i\tick55_kimg5000\0_75_320i.jpeg is:
-170483.96675183676
score of 320i\non_flipped\stylegan_gen_class_320i\tick55_kimg5000\0_76_320i.jpeg is:
-49662.93730187631
score of 320i\non_flipped\stylegan_gen_class_320i\tick55_kimg5000\0_77_320i.jpeg is:
-18306.258424122843
score of 320i\non_flipped\stylegan_gen_class_320i\tick55_kimg5000\0_78_320i.jpeg is:
-149412.41540438004
score of 320i\non_flipped\stylegan_gen_class_320i\tick55_kimg5000\0_79_320i.jpeg is:
-115098.60188147776
score of 320i\non_flipped\stylegan_gen_class_320i\tick55_kimg5000\0_7_320i.jpeg is:
-131440.99634424757
score of 320i\non_flipped\stylegan_gen_class_320i\tick55_kimg5000\0_80_320i.jpeg is:
-126125.1608541966
score of 320i\non_flipped\stylegan_gen_class_320i\tick55_kimg5000\0_81_320i.jpeg is:
-154963.6196155247
score of 320i\non_flipped\stylegan_gen_class_320i\tick55_kimg5000\0_82_320i.jpeg is:
-38387.9842786644
score of 320i\non_flipped\stylegan_gen_class_320i\tick55_kimg5000\0_83_320i.jpeg is:
-21309.322401329875
score of 320i\non_flipped\stylegan_gen_class_320i\tick55_kimg5000\0_84_320i.jpeg is:
-245467.75327569645
score of 320i\non_flipped\stylegan_gen_class_320i\tick55_kimg5000\0_85_320i.jpeg is:
-92605.35643679736
score of 320i\non_flipped\stylegan_gen_class_320i\tick55_kimg5000\0_86_320i.jpeg is:
-75557.1196317201
score of 320i\non_flipped\stylegan_gen_class_320i\tick55_kimg5000\0_87_320i.jpeg is:
-75087.4208442828
score of 320i\non_flipped\stylegan_gen_class_320i\tick55_kimg5000\0_88_320i.jpeg is:
-114004.8035401401
score of 320i\non_flipped\stylegan_gen_class_320i\tick55_kimg5000\0_89_320i.jpeg is:
-104470.15638800761
score of 320i\non_flipped\stylegan_gen_class_320i\tick55_kimg5000\0_8_320i.jpeg is:
-127796.11307465933
score of 320i\non_flipped\stylegan_gen_class_320i\tick55_kimg5000\0_90_320i.jpeg is:
-34496.92901681632
score of 320i\non_flipped\stylegan_gen_class_320i\tick55_kimg5000\0_91_320i.jpeg is:
-101051.16378073444
score of 320i\non_flipped\stylegan_gen_class_320i\tick55_kimg5000\0_92_320i.jpeg is:
-56761.8419303165
score of 320i\non_flipped\stylegan_gen_class_320i\tick55_kimg5000\0_93_320i.jpeg is:
-159299.3259179875
score of 320i\non_flipped\stylegan_gen_class_320i\tick55_kimg5000\0_94_320i.jpeg is:
-30264.930155953887
score of 320i\non_flipped\stylegan_gen_class_320i\tick55_kimg5000\0_95_320i.jpeg is:
-73544.43930460903
score of 320i\non_flipped\stylegan_gen_class_320i\tick55_kimg5000\0_96_320i.jpeg is:
-145797.1534892651
score of 320i\non_flipped\stylegan_gen_class_320i\tick55_kimg5000\0_97_320i.jpeg is:
-39333.70004620243
score of 320i\non_flipped\stylegan_gen_class_320i\tick55_kimg5000\0_98_320i.jpeg is:
-172202.24768310937
score of 320i\non_flipped\stylegan_gen_class_320i\tick55_kimg5000\0_99_320i.jpeg is:
-36875.28222302289
score of 320i\non_flipped\stylegan_gen_class_320i\tick55_kimg5000\0_9_320i.jpeg is:
-126125.16085419635
score of 320i\non_flipped\stylegan_gen_class_320i\tick55_kimg5000\1_0_320i.jpeg is:
-66664.17240128986
score of 320i\non_flipped\stylegan_gen_class_320i\tick55_kimg5000\1_10_320i.jpeg is:
-67085.13123953834
score of 320i\non_flipped\stylegan_gen_class_320i\tick55_kimg5000\1_11_320i.jpeg is:
-101862.56903798149
score of 320i\non_flipped\stylegan_gen_class_320i\tick55_kimg5000\1_12_320i.jpeg is:
-126206.11988122194
score of 320i\non_flipped\stylegan_gen_class_320i\tick55_kimg5000\1_13_320i.jpeg is:
-117765.99283690506
score of 320i\non_flipped\stylegan_gen_class_320i\tick55_kimg5000\1_14_320i.jpeg is:
-16803.208718960603
score of 320i\non_flipped\stylegan_gen_class_320i\tick55_kimg5000\1_15_320i.jpeg is:
-296587.04458029586
score of 320i\non_flipped\stylegan_gen_class_320i\tick55_kimg5000\1_16_320i.jpeg is:
-36403.600561089006
score of 320i\non_flipped\stylegan_gen_class_320i\tick55_kimg5000\1_17_320i.jpeg is:
-102450.70656623256
score of 320i\non_flipped\stylegan_gen_class_320i\tick55_kimg5000\1_18_320i.jpeg is:
-163928.10584691179
score of 320i\non_flipped\stylegan_gen_class_320i\tick55_kimg5000\1_19_320i.jpeg is:
-101862.56903798149
score of 320i\non_flipped\stylegan_gen_class_320i\tick55_kimg5000\1_1_320i.jpeg is:
-42244.708884981206
score of 320i\non_flipped\stylegan_gen_class_320i\tick55_kimg5000\1_20_320i.jpeg is:
-82701.77128328886
score of 320i\non_flipped\stylegan_gen_class_320i\tick55_kimg5000\1_21_320i.jpeg is:
-237280.94727471654
score of 320i\non_flipped\stylegan_gen_class_320i\tick55_kimg5000\1_22_320i.jpeg is:
-60783.64941812159
score of 320i\non_flipped\stylegan_gen_class_320i\tick55_kimg5000\1_23_320i.jpeg is:
-46256.67438976775
score of 320i\non_flipped\stylegan_gen_class_320i\tick55_kimg5000\1_24_320i.jpeg is:
-73005.11663247512
score of 320i\non_flipped\stylegan_gen_class_320i\tick55_kimg5000\1_25_320i.jpeg is:
-298735.7586078798
score of 320i\non_flipped\stylegan_gen_class_320i\tick55_kimg5000\1_26_320i.jpeg is:
-94635.02058743477
score of 320i\non_flipped\stylegan_gen_class_320i\tick55_kimg5000\1_27_320i.jpeg is:
-157309.96801222503
score of 320i\non_flipped\stylegan_gen_class_320i\tick55_kimg5000\1_28_320i.jpeg is:
-66015.41068026876
score of 320i\non_flipped\stylegan_gen_class_320i\tick55_kimg5000\1_29_320i.jpeg is:
-236555.45388559025
score of 320i\non_flipped\stylegan_gen_class_320i\tick55_kimg5000\1_2_320i.jpeg is:
-195254.93101933095
score of 320i\non_flipped\stylegan_gen_class_320i\tick55_kimg5000\1_30_320i.jpeg is:
-86999.02515869634
score of 320i\non_flipped\stylegan_gen_class_320i\tick55_kimg5000\1_31_320i.jpeg is:
-213833.9701980999
score of 320i\non_flipped\stylegan_gen_class_320i\tick55_kimg5000\1_32_320i.jpeg is:
-148527.81511224527
score of 320i\non_flipped\stylegan_gen_class_320i\tick55_kimg5000\1_33_320i.jpeg is:
-148851.3586421713
score of 320i\non_flipped\stylegan_gen_class_320i\tick55_kimg5000\1_34_320i.jpeg is:
-58205.57209606763
score of 320i\non_flipped\stylegan_gen_class_320i\tick55_kimg5000\1_35_320i.jpeg is:
-63098.34599647245
score of 320i\non_flipped\stylegan_gen_class_320i\tick55_kimg5000\1_36_320i.jpeg is:
-145616.0972617539
score of 320i\non_flipped\stylegan_gen_class_320i\tick55_kimg5000\1_37_320i.jpeg is:
-143223.30628819682
score of 320i\non_flipped\stylegan_gen_class_320i\tick55_kimg5000\1_38_320i.jpeg is:
-40046.634526804926
score of 320i\non_flipped\stylegan_gen_class_320i\tick55_kimg5000\1_39_320i.jpeg is:
-25763.231776126446
score of 320i\non_flipped\stylegan_gen_class_320i\tick55_kimg5000\1_3_320i.jpeg is:
-10608.919177871949
score of 320i\non_flipped\stylegan_gen_class_320i\tick55_kimg5000\1_40_320i.jpeg is:
-147436.8506777824
score of 320i\non_flipped\stylegan_gen_class_320i\tick55_kimg5000\1_41_320i.jpeg is:
-97105.64700822557
score of 320i\non_flipped\stylegan_gen_class_320i\tick55_kimg5000\1_42_320i.jpeg is:
-51306.296674531106
score of 320i\non_flipped\stylegan_gen_class_320i\tick55_kimg5000\1_43_320i.jpeg is:
-67573.95995129526
score of 320i\non_flipped\stylegan_gen_class_320i\tick55_kimg5000\1_44_320i.jpeg is:
-110115.21673457841
score of 320i\non_flipped\stylegan_gen_class_320i\tick55_kimg5000\1_45_320i.jpeg is:
-149599.18228319776
score of 320i\non_flipped\stylegan_gen_class_320i\tick55_kimg5000\1_46_320i.jpeg is:
-34088.6032096609
score of 320i\non_flipped\stylegan_gen_class_320i\tick55_kimg5000\1_47_320i.jpeg is:
-207311.26927615362
score of 320i\non_flipped\stylegan_gen_class_320i\tick55_kimg5000\1_48_320i.jpeg is:
-32936.63242502271
score of 320i\non_flipped\stylegan_gen_class_320i\tick55_kimg5000\1_49_320i.jpeg is:
-69096.215951678
score of 320i\non_flipped\stylegan_gen_class_320i\tick55_kimg5000\1_4_320i.jpeg is:
-233607.68882958172
score of 320i\non_flipped\stylegan_gen_class_320i\tick55_kimg5000\1_50_320i.jpeg is:
-31009.339587506016
score of 320i\non_flipped\stylegan_gen_class_320i\tick55_kimg5000\1_51_320i.jpeg is:
-169349.17994222706
score of 320i\non_flipped\stylegan_gen_class_320i\tick55_kimg5000\1_52_320i.jpeg is:
-41774.928341209874
score of 320i\non_flipped\stylegan_gen_class_320i\tick55_kimg5000\1_53_320i.jpeg is:
-109087.12187992246
score of 320i\non_flipped\stylegan_gen_class_320i\tick55_kimg5000\1_54_320i.jpeg is:
-80532.58220542475
score of 320i\non_flipped\stylegan_gen_class_320i\tick55_kimg5000\1_55_320i.jpeg is:
-90494.515174928
score of 320i\non_flipped\stylegan_gen_class_320i\tick55_kimg5000\1_56_320i.jpeg is:
-51102.46803538014
score of 320i\non_flipped\stylegan_gen_class_320i\tick55_kimg5000\1_57_320i.jpeg is:
-65767.12139029393
score of 320i\non_flipped\stylegan_gen_class_320i\tick55_kimg5000\1_58_320i.jpeg is:
-163297.08204713752
score of 320i\non_flipped\stylegan_gen_class_320i\tick55_kimg5000\1_59_320i.jpeg is:
-181401.47836080447
score of 320i\non_flipped\stylegan_gen_class_320i\tick55_kimg5000\1_5_320i.jpeg is:
-40046.634526804926
score of 320i\non_flipped\stylegan_gen_class_320i\tick55_kimg5000\1_60_320i.jpeg is:
-141252.72760717038
score of 320i\non_flipped\stylegan_gen_class_320i\tick55_kimg5000\1_61_320i.jpeg is:
-66848.30663069502
score of 320i\non_flipped\stylegan_gen_class_320i\tick55_kimg5000\1_62_320i.jpeg is:
-77799.7085216973
score of 320i\non_flipped\stylegan_gen_class_320i\tick55_kimg5000\1_63_320i.jpeg is:
-42043.6304502352
score of 320i\non_flipped\stylegan_gen_class_320i\tick55_kimg5000\1_64_320i.jpeg is:
-35098.87651696022
score of 320i\non_flipped\stylegan_gen_class_320i\tick55_kimg5000\1_65_320i.jpeg is:
-49014.52053276372
score of 320i\non_flipped\stylegan_gen_class_320i\tick55_kimg5000\1_66_320i.jpeg is:
-32306.45375603122
score of 320i\non_flipped\stylegan_gen_class_320i\tick55_kimg5000\1_67_320i.jpeg is:
-112282.31929391525
score of 320i\non_flipped\stylegan_gen_class_320i\tick55_kimg5000\1_68_320i.jpeg is:
-61582.457815485286
score of 320i\non_flipped\stylegan_gen_class_320i\tick55_kimg5000\1_69_320i.jpeg is:
-128905.10352556354
score of 320i\non_flipped\stylegan_gen_class_320i\tick55_kimg5000\1_6_320i.jpeg is:
-127229.84412623564
score of 320i\non_flipped\stylegan_gen_class_320i\tick55_kimg5000\1_70_320i.jpeg is:
-66354.4260737287
score of 320i\non_flipped\stylegan_gen_class_320i\tick55_kimg5000\1_71_320i.jpeg is:
-192513.33735758174
score of 320i\non_flipped\stylegan_gen_class_320i\tick55_kimg5000\1_72_320i.jpeg is:
-161120.2358710331
score of 320i\non_flipped\stylegan_gen_class_320i\tick55_kimg5000\1_73_320i.jpeg is:
-50898.406799881595
score of 320i\non_flipped\stylegan_gen_class_320i\tick55_kimg5000\1_74_320i.jpeg is:
-122241.80228680676
score of 320i\non_flipped\stylegan_gen_class_320i\tick55_kimg5000\1_75_320i.jpeg is:
-113437.92906723623
score of 320i\non_flipped\stylegan_gen_class_320i\tick55_kimg5000\1_76_320i.jpeg is:
-83996.63474119958
score of 320i\non_flipped\stylegan_gen_class_320i\tick55_kimg5000\1_77_320i.jpeg is:
-34088.6032096609
score of 320i\non_flipped\stylegan_gen_class_320i\tick55_kimg5000\1_78_320i.jpeg is:
-106920.61296688623
score of 320i\non_flipped\stylegan_gen_class_320i\tick55_kimg5000\1_79_320i.jpeg is:
-73377.10008130298
score of 320i\non_flipped\stylegan_gen_class_320i\tick55_kimg5000\1_7_320i.jpeg is:
-74707.0455580264
score of 320i\non_flipped\stylegan_gen_class_320i\tick55_kimg5000\1_80_320i.jpeg is:
-211400.10178276084
score of 320i\non_flipped\stylegan_gen_class_320i\tick55_kimg5000\1_81_320i.jpeg is:
-85263.69998711388
score of 320i\non_flipped\stylegan_gen_class_320i\tick55_kimg5000\1_82_320i.jpeg is:
-33594.021310411896
score of 320i\non_flipped\stylegan_gen_class_320i\tick55_kimg5000\1_83_320i.jpeg is:
-19001.772996540625
score of 320i\non_flipped\stylegan_gen_class_320i\tick55_kimg5000\1_84_320i.jpeg is:
-190137.47462897844
score of 320i\non_flipped\stylegan_gen_class_320i\tick55_kimg5000\1_85_320i.jpeg is:
-102502.63658920598
score of 320i\non_flipped\stylegan_gen_class_320i\tick55_kimg5000\1_86_320i.jpeg is:
-43091.81885965779
score of 320i\non_flipped\stylegan_gen_class_320i\tick55_kimg5000\1_87_320i.jpeg is:
-114449.501371261
score of 320i\non_flipped\stylegan_gen_class_320i\tick55_kimg5000\1_88_320i.jpeg is:
-127763.03645963657
score of 320i\non_flipped\stylegan_gen_class_320i\tick55_kimg5000\1_89_320i.jpeg is:
-236173.1368880905
score of 320i\non_flipped\stylegan_gen_class_320i\tick55_kimg5000\1_8_320i.jpeg is:
-57507.378972755076
score of 320i\non_flipped\stylegan_gen_class_320i\tick55_kimg5000\1_90_320i.jpeg is:
-96261.98324206076
score of 320i\non_flipped\stylegan_gen_class_320i\tick55_kimg5000\1_91_320i.jpeg is:
-106595.301255826
score of 320i\non_flipped\stylegan_gen_class_320i\tick55_kimg5000\1_92_320i.jpeg is:
-58051.38084009994
score of 320i\non_flipped\stylegan_gen_class_320i\tick55_kimg5000\1_93_320i.jpeg is:
-148851.3586421713
score of 320i\non_flipped\stylegan_gen_class_320i\tick55_kimg5000\1_94_320i.jpeg is:
-63105.73609343476
score of 320i\non_flipped\stylegan_gen_class_320i\tick55_kimg5000\1_95_320i.jpeg is:
-118360.65603216861
score of 320i\non_flipped\stylegan_gen_class_320i\tick55_kimg5000\1_96_320i.jpeg is:
-206455.75616210073
score of 320i\non_flipped\stylegan_gen_class_320i\tick55_kimg5000\1_97_320i.jpeg is:
-32306.45375603122
score of 320i\non_flipped\stylegan_gen_class_320i\tick55_kimg5000\1_98_320i.jpeg is:
-87687.48453364657
score of 320i\non_flipped\stylegan_gen_class_320i\tick55_kimg5000\1_99_320i.jpeg is:
-23679.845062093096
score of 320i\non_flipped\stylegan_gen_class_320i\tick55_kimg5000\1_9_320i.jpeg is:
-211400.10178276096
score of 320i\non_flipped\stylegan_gen_class_320i\tick55_kimg5000\2_0_320i.jpeg is:
-41422.23444513627
score of 320i\non_flipped\stylegan_gen_class_320i\tick55_kimg5000\2_10_320i.jpeg is:
-77284.54826920452
score of 320i\non_flipped\stylegan_gen_class_320i\tick55_kimg5000\2_11_320i.jpeg is:
-151539.05168956917
score of 320i\non_flipped\stylegan_gen_class_320i\tick55_kimg5000\2_12_320i.jpeg is:
-145140.0962532619
score of 320i\non_flipped\stylegan_gen_class_320i\tick55_kimg5000\2_13_320i.jpeg is:
-97928.8819795582
score of 320i\non_flipped\stylegan_gen_class_320i\tick55_kimg5000\2_14_320i.jpeg is:
-29883.640642418326
score of 320i\non_flipped\stylegan_gen_class_320i\tick55_kimg5000\2_15_320i.jpeg is:
-55740.051756912086
score of 320i\non_flipped\stylegan_gen_class_320i\tick55_kimg5000\2_16_320i.jpeg is:
-68027.38491511288
score of 320i\non_flipped\stylegan_gen_class_320i\tick55_kimg5000\2_17_320i.jpeg is:
-203943.6208884883
score of 320i\non_flipped\stylegan_gen_class_320i\tick55_kimg5000\2_18_320i.jpeg is:
-112179.87057530553
score of 320i\non_flipped\stylegan_gen_class_320i\tick55_kimg5000\2_19_320i.jpeg is:
-151539.05168956917
score of 320i\non_flipped\stylegan_gen_class_320i\tick55_kimg5000\2_1_320i.jpeg is:
-27064.18200378445
score of 320i\non_flipped\stylegan_gen_class_320i\tick55_kimg5000\2_20_320i.jpeg is:
-81676.21119211391
score of 320i\non_flipped\stylegan_gen_class_320i\tick55_kimg5000\2_21_320i.jpeg is:
-93969.44316007635
score of 320i\non_flipped\stylegan_gen_class_320i\tick55_kimg5000\2_22_320i.jpeg is:
-77108.8894197644
score of 320i\non_flipped\stylegan_gen_class_320i\tick55_kimg5000\2_23_320i.jpeg is:
-51093.49011584781
score of 320i\non_flipped\stylegan_gen_class_320i\tick55_kimg5000\2_24_320i.jpeg is:
-59196.66033834489
score of 320i\non_flipped\stylegan_gen_class_320i\tick55_kimg5000\2_25_320i.jpeg is:
-197577.40354548584
score of 320i\non_flipped\stylegan_gen_class_320i\tick55_kimg5000\2_26_320i.jpeg is:
-196739.4027231542
score of 320i\non_flipped\stylegan_gen_class_320i\tick55_kimg5000\2_27_320i.jpeg is:
-103568.69579471998
score of 320i\non_flipped\stylegan_gen_class_320i\tick55_kimg5000\2_28_320i.jpeg is:
-175642.80808232073
score of 320i\non_flipped\stylegan_gen_class_320i\tick55_kimg5000\2_29_320i.jpeg is:
-298312.696064852
score of 320i\non_flipped\stylegan_gen_class_320i\tick55_kimg5000\2_2_320i.jpeg is:
-219608.99952641912
score of 320i\non_flipped\stylegan_gen_class_320i\tick55_kimg5000\2_30_320i.jpeg is:
-86349.83956253779
score of 320i\non_flipped\stylegan_gen_class_320i\tick55_kimg5000\2_31_320i.jpeg is:
-212185.55926784629
score of 320i\non_flipped\stylegan_gen_class_320i\tick55_kimg5000\2_32_320i.jpeg is:
-192247.72795364386
score of 320i\non_flipped\stylegan_gen_class_320i\tick55_kimg5000\2_33_320i.jpeg is:
-117851.99211057714
score of 320i\non_flipped\stylegan_gen_class_320i\tick55_kimg5000\2_34_320i.jpeg is:
-66504.61310838169
score of 320i\non_flipped\stylegan_gen_class_320i\tick55_kimg5000\2_35_320i.jpeg is:
-33598.5532967144
score of 320i\non_flipped\stylegan_gen_class_320i\tick55_kimg5000\2_36_320i.jpeg is:
-48794.030450128594
score of 320i\non_flipped\stylegan_gen_class_320i\tick55_kimg5000\2_37_320i.jpeg is:
-144548.60403154185
score of 320i\non_flipped\stylegan_gen_class_320i\tick55_kimg5000\2_38_320i.jpeg is:
-38639.08788361139
score of 320i\non_flipped\stylegan_gen_class_320i\tick55_kimg5000\2_39_320i.jpeg is:
-24507.82402746108
score of 320i\non_flipped\stylegan_gen_class_320i\tick55_kimg5000\2_3_320i.jpeg is:
-14407.837730821951
score of 320i\non_flipped\stylegan_gen_class_320i\tick55_kimg5000\2_40_320i.jpeg is:
-118822.17380514514
score of 320i\non_flipped\stylegan_gen_class_320i\tick55_kimg5000\2_41_320i.jpeg is:
-85292.83924593571
score of 320i\non_flipped\stylegan_gen_class_320i\tick55_kimg5000\2_42_320i.jpeg is:
-58754.93546129137
score of 320i\non_flipped\stylegan_gen_class_320i\tick55_kimg5000\2_43_320i.jpeg is:
-156355.3631748467
score of 320i\non_flipped\stylegan_gen_class_320i\tick55_kimg5000\2_44_320i.jpeg is:
-226544.4289260287
score of 320i\non_flipped\stylegan_gen_class_320i\tick55_kimg5000\2_45_320i.jpeg is:
-59276.52322022604
score of 320i\non_flipped\stylegan_gen_class_320i\tick55_kimg5000\2_46_320i.jpeg is:
-52719.217766688766
score of 320i\non_flipped\stylegan_gen_class_320i\tick55_kimg5000\2_47_320i.jpeg is:
-192341.58749695274
score of 320i\non_flipped\stylegan_gen_class_320i\tick55_kimg5000\2_48_320i.jpeg is:
-28298.471124906755
score of 320i\non_flipped\stylegan_gen_class_320i\tick55_kimg5000\2_49_320i.jpeg is:
-58606.57956379225
score of 320i\non_flipped\stylegan_gen_class_320i\tick55_kimg5000\2_4_320i.jpeg is:
-208005.73760856193
score of 320i\non_flipped\stylegan_gen_class_320i\tick55_kimg5000\2_50_320i.jpeg is:
-26275.404644564576
score of 320i\non_flipped\stylegan_gen_class_320i\tick55_kimg5000\2_51_320i.jpeg is:
-102708.60516652843
score of 320i\non_flipped\stylegan_gen_class_320i\tick55_kimg5000\2_52_320i.jpeg is:
-64435.08576275129
score of 320i\non_flipped\stylegan_gen_class_320i\tick55_kimg5000\2_53_320i.jpeg is:
-181088.69358473507
score of 320i\non_flipped\stylegan_gen_class_320i\tick55_kimg5000\2_54_320i.jpeg is:
-65199.12727150052
score of 320i\non_flipped\stylegan_gen_class_320i\tick55_kimg5000\2_55_320i.jpeg is:
-49211.75389080311
score of 320i\non_flipped\stylegan_gen_class_320i\tick55_kimg5000\2_56_320i.jpeg is:
-24219.627199260354
score of 320i\non_flipped\stylegan_gen_class_320i\tick55_kimg5000\2_57_320i.jpeg is:
-224606.4738122096
score of 320i\non_flipped\stylegan_gen_class_320i\tick55_kimg5000\2_58_320i.jpeg is:
-149164.3045234317
score of 320i\non_flipped\stylegan_gen_class_320i\tick55_kimg5000\2_59_320i.jpeg is:
-188202.6645568601
score of 320i\non_flipped\stylegan_gen_class_320i\tick55_kimg5000\2_5_320i.jpeg is:
-38639.08788361139
score of 320i\non_flipped\stylegan_gen_class_320i\tick55_kimg5000\2_60_320i.jpeg is:
-71023.82766321028
score of 320i\non_flipped\stylegan_gen_class_320i\tick55_kimg5000\2_61_320i.jpeg is:
-92284.59527203102
score of 320i\non_flipped\stylegan_gen_class_320i\tick55_kimg5000\2_62_320i.jpeg is:
-239854.53077070683
score of 320i\non_flipped\stylegan_gen_class_320i\tick55_kimg5000\2_63_320i.jpeg is:
-39857.81419779142
score of 320i\non_flipped\stylegan_gen_class_320i\tick55_kimg5000\2_64_320i.jpeg is:
-56384.56703265216
score of 320i\non_flipped\stylegan_gen_class_320i\tick55_kimg5000\2_65_320i.jpeg is:
-55176.964625871595
score of 320i\non_flipped\stylegan_gen_class_320i\tick55_kimg5000\2_66_320i.jpeg is:
-48953.9768506388
score of 320i\non_flipped\stylegan_gen_class_320i\tick55_kimg5000\2_67_320i.jpeg is:
-210598.55757940054
score of 320i\non_flipped\stylegan_gen_class_320i\tick55_kimg5000\2_68_320i.jpeg is:
-163380.8340952016
score of 320i\non_flipped\stylegan_gen_class_320i\tick55_kimg5000\2_69_320i.jpeg is:
-115105.35976741012
score of 320i\non_flipped\stylegan_gen_class_320i\tick55_kimg5000\2_6_320i.jpeg is:
-111806.35911195297
score of 320i\non_flipped\stylegan_gen_class_320i\tick55_kimg5000\2_70_320i.jpeg is:
-81630.87782390261
score of 320i\non_flipped\stylegan_gen_class_320i\tick55_kimg5000\2_71_320i.jpeg is:
-197691.68142054774
score of 320i\non_flipped\stylegan_gen_class_320i\tick55_kimg5000\2_72_320i.jpeg is:
-130800.71773362828
score of 320i\non_flipped\stylegan_gen_class_320i\tick55_kimg5000\2_73_320i.jpeg is:
-42730.53647568728
score of 320i\non_flipped\stylegan_gen_class_320i\tick55_kimg5000\2_74_320i.jpeg is:
-132571.65608081387
score of 320i\non_flipped\stylegan_gen_class_320i\tick55_kimg5000\2_75_320i.jpeg is:
-132141.9030102293
score of 320i\non_flipped\stylegan_gen_class_320i\tick55_kimg5000\2_76_320i.jpeg is:
-64755.49086086274
score of 320i\non_flipped\stylegan_gen_class_320i\tick55_kimg5000\2_77_320i.jpeg is:
-52719.217766688766
score of 320i\non_flipped\stylegan_gen_class_320i\tick55_kimg5000\2_78_320i.jpeg is:
-27904.85184859428
score of 320i\non_flipped\stylegan_gen_class_320i\tick55_kimg5000\2_79_320i.jpeg is:
-82599.23966049374
score of 320i\non_flipped\stylegan_gen_class_320i\tick55_kimg5000\2_7_320i.jpeg is:
-226524.2263416831
score of 320i\non_flipped\stylegan_gen_class_320i\tick55_kimg5000\2_80_320i.jpeg is:
-232892.77268204445
score of 320i\non_flipped\stylegan_gen_class_320i\tick55_kimg5000\2_81_320i.jpeg is:
-80896.26300801321
score of 320i\non_flipped\stylegan_gen_class_320i\tick55_kimg5000\2_82_320i.jpeg is:
-73326.37797641392
score of 320i\non_flipped\stylegan_gen_class_320i\tick55_kimg5000\2_83_320i.jpeg is:
-26483.987900249467
score of 320i\non_flipped\stylegan_gen_class_320i\tick55_kimg5000\2_84_320i.jpeg is:
-193472.994508998
score of 320i\non_flipped\stylegan_gen_class_320i\tick55_kimg5000\2_85_320i.jpeg is:
-88305.1629473347
score of 320i\non_flipped\stylegan_gen_class_320i\tick55_kimg5000\2_86_320i.jpeg is:
-77883.95914063316
score of 320i\non_flipped\stylegan_gen_class_320i\tick55_kimg5000\2_87_320i.jpeg is:
-137668.96381544493
score of 320i\non_flipped\stylegan_gen_class_320i\tick55_kimg5000\2_88_320i.jpeg is:
-130199.10492755761
score of 320i\non_flipped\stylegan_gen_class_320i\tick55_kimg5000\2_89_320i.jpeg is:
-221227.3847555797
score of 320i\non_flipped\stylegan_gen_class_320i\tick55_kimg5000\2_8_320i.jpeg is:
-85288.90208973791
score of 320i\non_flipped\stylegan_gen_class_320i\tick55_kimg5000\2_90_320i.jpeg is:
-55967.278010618174
score of 320i\non_flipped\stylegan_gen_class_320i\tick55_kimg5000\2_91_320i.jpeg is:
-109564.36545151212
score of 320i\non_flipped\stylegan_gen_class_320i\tick55_kimg5000\2_92_320i.jpeg is:
-43831.02513552873
score of 320i\non_flipped\stylegan_gen_class_320i\tick55_kimg5000\2_93_320i.jpeg is:
-117851.99211057714
score of 320i\non_flipped\stylegan_gen_class_320i\tick55_kimg5000\2_94_320i.jpeg is:
-49510.81083911304
score of 320i\non_flipped\stylegan_gen_class_320i\tick55_kimg5000\2_95_320i.jpeg is:
-194106.23655201186
score of 320i\non_flipped\stylegan_gen_class_320i\tick55_kimg5000\2_96_320i.jpeg is:
-197492.86649847307
score of 320i\non_flipped\stylegan_gen_class_320i\tick55_kimg5000\2_97_320i.jpeg is:
-48953.9768506388
score of 320i\non_flipped\stylegan_gen_class_320i\tick55_kimg5000\2_98_320i.jpeg is:
-116796.42895274839
score of 320i\non_flipped\stylegan_gen_class_320i\tick55_kimg5000\2_99_320i.jpeg is:
-31019.66509010731
score of 320i\non_flipped\stylegan_gen_class_320i\tick55_kimg5000\2_9_320i.jpeg is:
-232892.77268204433
score of 320i\non_flipped\stylegan_gen_class_320i\tick55_kimg5000\3_0_320i.jpeg is:
-25344.580648749852
score of 320i\non_flipped\stylegan_gen_class_320i\tick55_kimg5000\3_10_320i.jpeg is:
-25344.58064874985
score of 320i\non_flipped\stylegan_gen_class_320i\tick55_kimg5000\3_11_320i.jpeg is:
-25344.580648749852
score of 320i\non_flipped\stylegan_gen_class_320i\tick55_kimg5000\3_12_320i.jpeg is:
-25344.58064874985
score of 320i\non_flipped\stylegan_gen_class_320i\tick55_kimg5000\3_13_320i.jpeg is:
-25344.580648749852
score of 320i\non_flipped\stylegan_gen_class_320i\tick55_kimg5000\3_14_320i.jpeg is:
-25344.58064874985
score of 320i\non_flipped\stylegan_gen_class_320i\tick55_kimg5000\3_15_320i.jpeg is:
-25344.580648749852
score of 320i\non_flipped\stylegan_gen_class_320i\tick55_kimg5000\3_16_320i.jpeg is:
-25344.58064874985
score of 320i\non_flipped\stylegan_gen_class_320i\tick55_kimg5000\3_17_320i.jpeg is:
-25344.580648749852
score of 320i\non_flipped\stylegan_gen_class_320i\tick55_kimg5000\3_18_320i.jpeg is:
-25344.58064874985
score of 320i\non_flipped\stylegan_gen_class_320i\tick55_kimg5000\3_19_320i.jpeg is:
-25344.580648749852
score of 320i\non_flipped\stylegan_gen_class_320i\tick55_kimg5000\3_1_320i.jpeg is:
-25344.58064874985
score of 320i\non_flipped\stylegan_gen_class_320i\tick55_kimg5000\3_20_320i.jpeg is:
-25344.580648749852
score of 320i\non_flipped\stylegan_gen_class_320i\tick55_kimg5000\3_21_320i.jpeg is:
-25344.58064874985
score of 320i\non_flipped\stylegan_gen_class_320i\tick55_kimg5000\3_22_320i.jpeg is:
-25344.580648749852
score of 320i\non_flipped\stylegan_gen_class_320i\tick55_kimg5000\3_23_320i.jpeg is:
-25344.58064874985
score of 320i\non_flipped\stylegan_gen_class_320i\tick55_kimg5000\3_24_320i.jpeg is:
-25344.580648749852
score of 320i\non_flipped\stylegan_gen_class_320i\tick55_kimg5000\3_25_320i.jpeg is:
-25344.58064874985
score of 320i\non_flipped\stylegan_gen_class_320i\tick55_kimg5000\3_26_320i.jpeg is:
-25344.580648749852
score of 320i\non_flipped\stylegan_gen_class_320i\tick55_kimg5000\3_27_320i.jpeg is:
-25344.58064874985
score of 320i\non_flipped\stylegan_gen_class_320i\tick55_kimg5000\3_28_320i.jpeg is:
-25344.580648749852
score of 320i\non_flipped\stylegan_gen_class_320i\tick55_kimg5000\3_29_320i.jpeg is:
-25344.58064874985
score of 320i\non_flipped\stylegan_gen_class_320i\tick55_kimg5000\3_2_320i.jpeg is:
-25344.580648749852
score of 320i\non_flipped\stylegan_gen_class_320i\tick55_kimg5000\3_30_320i.jpeg is:
-25344.58064874985
score of 320i\non_flipped\stylegan_gen_class_320i\tick55_kimg5000\3_31_320i.jpeg is:
-25344.580648749852
score of 320i\non_flipped\stylegan_gen_class_320i\tick55_kimg5000\3_32_320i.jpeg is:
-25344.58064874985
score of 320i\non_flipped\stylegan_gen_class_320i\tick55_kimg5000\3_33_320i.jpeg is:
-25344.580648749852
score of 320i\non_flipped\stylegan_gen_class_320i\tick55_kimg5000\3_34_320i.jpeg is:
-25344.58064874985
score of 320i\non_flipped\stylegan_gen_class_320i\tick55_kimg5000\3_35_320i.jpeg is:
-25344.580648749852
score of 320i\non_flipped\stylegan_gen_class_320i\tick55_kimg5000\3_36_320i.jpeg is:
-25344.58064874985
score of 320i\non_flipped\stylegan_gen_class_320i\tick55_kimg5000\3_37_320i.jpeg is:
-25344.580648749852
score of 320i\non_flipped\stylegan_gen_class_320i\tick55_kimg5000\3_38_320i.jpeg is:
-25344.58064874985
score of 320i\non_flipped\stylegan_gen_class_320i\tick55_kimg5000\3_39_320i.jpeg is:
-25344.580648749852
score of 320i\non_flipped\stylegan_gen_class_320i\tick55_kimg5000\3_3_320i.jpeg is:
-25344.58064874985
score of 320i\non_flipped\stylegan_gen_class_320i\tick55_kimg5000\3_40_320i.jpeg is:
-25344.580648749852
score of 320i\non_flipped\stylegan_gen_class_320i\tick55_kimg5000\3_41_320i.jpeg is:
-25344.58064874985
score of 320i\non_flipped\stylegan_gen_class_320i\tick55_kimg5000\3_42_320i.jpeg is:
-25344.580648749852
score of 320i\non_flipped\stylegan_gen_class_320i\tick55_kimg5000\3_43_320i.jpeg is:
-25344.58064874985
score of 320i\non_flipped\stylegan_gen_class_320i\tick55_kimg5000\3_44_320i.jpeg is:
-25344.580648749852
score of 320i\non_flipped\stylegan_gen_class_320i\tick55_kimg5000\3_45_320i.jpeg is:
-25344.58064874985
score of 320i\non_flipped\stylegan_gen_class_320i\tick55_kimg5000\3_46_320i.jpeg is:
-25344.580648749852
score of 320i\non_flipped\stylegan_gen_class_320i\tick55_kimg5000\3_47_320i.jpeg is:
-25344.58064874985
score of 320i\non_flipped\stylegan_gen_class_320i\tick55_kimg5000\3_48_320i.jpeg is:
-25344.580648749852
score of 320i\non_flipped\stylegan_gen_class_320i\tick55_kimg5000\3_49_320i.jpeg is:
-25344.58064874985
score of 320i\non_flipped\stylegan_gen_class_320i\tick55_kimg5000\3_4_320i.jpeg is:
-25344.580648749852
score of 320i\non_flipped\stylegan_gen_class_320i\tick55_kimg5000\3_50_320i.jpeg is:
-25344.58064874985
score of 320i\non_flipped\stylegan_gen_class_320i\tick55_kimg5000\3_51_320i.jpeg is:
-25344.580648749852
score of 320i\non_flipped\stylegan_gen_class_320i\tick55_kimg5000\3_52_320i.jpeg is:
-25344.58064874985
score of 320i\non_flipped\stylegan_gen_class_320i\tick55_kimg5000\3_53_320i.jpeg is:
-25344.58064874995
score of 320i\non_flipped\stylegan_gen_class_320i\tick55_kimg5000\3_54_320i.jpeg is:
-25344.580648749947
score of 320i\non_flipped\stylegan_gen_class_320i\tick55_kimg5000\3_55_320i.jpeg is:
-25344.580648749852
score of 320i\non_flipped\stylegan_gen_class_320i\tick55_kimg5000\3_56_320i.jpeg is:
-25344.58064874985
score of 320i\non_flipped\stylegan_gen_class_320i\tick55_kimg5000\3_57_320i.jpeg is:
-25344.580648749852
score of 320i\non_flipped\stylegan_gen_class_320i\tick55_kimg5000\3_58_320i.jpeg is:
-25344.58064874985
score of 320i\non_flipped\stylegan_gen_class_320i\tick55_kimg5000\3_59_320i.jpeg is:
-25344.580648749852
score of 320i\non_flipped\stylegan_gen_class_320i\tick55_kimg5000\3_5_320i.jpeg is:
-25344.58064874985
score of 320i\non_flipped\stylegan_gen_class_320i\tick55_kimg5000\3_60_320i.jpeg is:
-25344.580648749852
score of 320i\non_flipped\stylegan_gen_class_320i\tick55_kimg5000\3_61_320i.jpeg is:
-25344.58064874985
score of 320i\non_flipped\stylegan_gen_class_320i\tick55_kimg5000\3_62_320i.jpeg is:
-25344.580648749852
score of 320i\non_flipped\stylegan_gen_class_320i\tick55_kimg5000\3_63_320i.jpeg is:
-25344.58064874985
score of 320i\non_flipped\stylegan_gen_class_320i\tick55_kimg5000\3_64_320i.jpeg is:
-25344.580648749852
score of 320i\non_flipped\stylegan_gen_class_320i\tick55_kimg5000\3_65_320i.jpeg is:
-25344.58064874985
score of 320i\non_flipped\stylegan_gen_class_320i\tick55_kimg5000\3_66_320i.jpeg is:
-25344.580648749852
score of 320i\non_flipped\stylegan_gen_class_320i\tick55_kimg5000\3_67_320i.jpeg is:
-25344.58064874985
score of 320i\non_flipped\stylegan_gen_class_320i\tick55_kimg5000\3_68_320i.jpeg is:
-25344.580648749852
score of 320i\non_flipped\stylegan_gen_class_320i\tick55_kimg5000\3_69_320i.jpeg is:
-25344.58064874985
score of 320i\non_flipped\stylegan_gen_class_320i\tick55_kimg5000\3_6_320i.jpeg is:
-25344.580648749852
score of 320i\non_flipped\stylegan_gen_class_320i\tick55_kimg5000\3_70_320i.jpeg is:
-25344.58064874985
score of 320i\non_flipped\stylegan_gen_class_320i\tick55_kimg5000\3_71_320i.jpeg is:
-25344.580648749852
score of 320i\non_flipped\stylegan_gen_class_320i\tick55_kimg5000\3_72_320i.jpeg is:
-25344.58064874985
score of 320i\non_flipped\stylegan_gen_class_320i\tick55_kimg5000\3_73_320i.jpeg is:
-25344.580648749852
score of 320i\non_flipped\stylegan_gen_class_320i\tick55_kimg5000\3_74_320i.jpeg is:
-25344.58064874985
score of 320i\non_flipped\stylegan_gen_class_320i\tick55_kimg5000\3_75_320i.jpeg is:
-25344.580648749852
score of 320i\non_flipped\stylegan_gen_class_320i\tick55_kimg5000\3_76_320i.jpeg is:
-25344.58064874985
score of 320i\non_flipped\stylegan_gen_class_320i\tick55_kimg5000\3_77_320i.jpeg is:
-25344.580648749852
score of 320i\non_flipped\stylegan_gen_class_320i\tick55_kimg5000\3_78_320i.jpeg is:
-25344.58064874985
score of 320i\non_flipped\stylegan_gen_class_320i\tick55_kimg5000\3_79_320i.jpeg is:
-25344.580648749852
score of 320i\non_flipped\stylegan_gen_class_320i\tick55_kimg5000\3_7_320i.jpeg is:
-25344.58064874985
score of 320i\non_flipped\stylegan_gen_class_320i\tick55_kimg5000\3_80_320i.jpeg is:
-25344.580648749852
score of 320i\non_flipped\stylegan_gen_class_320i\tick55_kimg5000\3_81_320i.jpeg is:
-25344.58064874985
score of 320i\non_flipped\stylegan_gen_class_320i\tick55_kimg5000\3_82_320i.jpeg is:
-25344.580648749852
score of 320i\non_flipped\stylegan_gen_class_320i\tick55_kimg5000\3_83_320i.jpeg is:
-25344.58064874985
score of 320i\non_flipped\stylegan_gen_class_320i\tick55_kimg5000\3_84_320i.jpeg is:
-25344.580648749852
score of 320i\non_flipped\stylegan_gen_class_320i\tick55_kimg5000\3_85_320i.jpeg is:
-25344.58064874985
score of 320i\non_flipped\stylegan_gen_class_320i\tick55_kimg5000\3_86_320i.jpeg is:
-25344.580648749852
score of 320i\non_flipped\stylegan_gen_class_320i\tick55_kimg5000\3_87_320i.jpeg is:
-25344.58064874985
score of 320i\non_flipped\stylegan_gen_class_320i\tick55_kimg5000\3_88_320i.jpeg is:
-25344.580648749852
score of 320i\non_flipped\stylegan_gen_class_320i\tick55_kimg5000\3_89_320i.jpeg is:
-25344.58064874985
score of 320i\non_flipped\stylegan_gen_class_320i\tick55_kimg5000\3_8_320i.jpeg is:
-25344.580648749852
score of 320i\non_flipped\stylegan_gen_class_320i\tick55_kimg5000\3_90_320i.jpeg is:
-25344.58064874985
score of 320i\non_flipped\stylegan_gen_class_320i\tick55_kimg5000\3_91_320i.jpeg is:
-25344.580648749852
score of 320i\non_flipped\stylegan_gen_class_320i\tick55_kimg5000\3_92_320i.jpeg is:
-25344.58064874985
score of 320i\non_flipped\stylegan_gen_class_320i\tick55_kimg5000\3_93_320i.jpeg is:
-25344.580648749852
score of 320i\non_flipped\stylegan_gen_class_320i\tick55_kimg5000\3_94_320i.jpeg is:
-25344.58064874985
score of 320i\non_flipped\stylegan_gen_class_320i\tick55_kimg5000\3_95_320i.jpeg is:
-25344.580648749852
score of 320i\non_flipped\stylegan_gen_class_320i\tick55_kimg5000\3_96_320i.jpeg is:
-25344.58064874985
score of 320i\non_flipped\stylegan_gen_class_320i\tick55_kimg5000\3_97_320i.jpeg is:
-25344.580648749852
score of 320i\non_flipped\stylegan_gen_class_320i\tick55_kimg5000\3_98_320i.jpeg is:
-25344.58064874985
score of 320i\non_flipped\stylegan_gen_class_320i\tick55_kimg5000\3_99_320i.jpeg is:
-25344.58064874995
score of 320i\non_flipped\stylegan_gen_class_320i\tick55_kimg5000\3_9_320i.jpeg is:
-25344.580648749947
score of 320i\non_flipped\stylegan_gen_class_320i\tick55_kimg5000\4_0_320i.jpeg is:
-173916.68607122163
score of 320i\non_flipped\stylegan_gen_class_320i\tick55_kimg5000\4_10_320i.jpeg is:
-147948.3740311122
score of 320i\non_flipped\stylegan_gen_class_320i\tick55_kimg5000\4_11_320i.jpeg is:
-76097.09865652926
score of 320i\non_flipped\stylegan_gen_class_320i\tick55_kimg5000\4_12_320i.jpeg is:
-52354.37338484121
score of 320i\non_flipped\stylegan_gen_class_320i\tick55_kimg5000\4_13_320i.jpeg is:
-20442.33293278162
score of 320i\non_flipped\stylegan_gen_class_320i\tick55_kimg5000\4_14_320i.jpeg is:
-37139.78685861025
score of 320i\non_flipped\stylegan_gen_class_320i\tick55_kimg5000\4_15_320i.jpeg is:
-187388.6307241041
score of 320i\non_flipped\stylegan_gen_class_320i\tick55_kimg5000\4_16_320i.jpeg is:
-162632.91844410228
score of 320i\non_flipped\stylegan_gen_class_320i\tick55_kimg5000\4_17_320i.jpeg is:
-108267.92525763255
score of 320i\non_flipped\stylegan_gen_class_320i\tick55_kimg5000\4_18_320i.jpeg is:
-34569.32760006046
score of 320i\non_flipped\stylegan_gen_class_320i\tick55_kimg5000\4_19_320i.jpeg is:
-76047.24894906748
score of 320i\non_flipped\stylegan_gen_class_320i\tick55_kimg5000\4_1_320i.jpeg is:
-39720.3493849615
score of 320i\non_flipped\stylegan_gen_class_320i\tick55_kimg5000\4_20_320i.jpeg is:
-192296.55555697365
score of 320i\non_flipped\stylegan_gen_class_320i\tick55_kimg5000\4_21_320i.jpeg is:
-163354.65531692724
score of 320i\non_flipped\stylegan_gen_class_320i\tick55_kimg5000\4_22_320i.jpeg is:
-235906.81853964058
score of 320i\non_flipped\stylegan_gen_class_320i\tick55_kimg5000\4_23_320i.jpeg is:
-164250.86242039042
score of 320i\non_flipped\stylegan_gen_class_320i\tick55_kimg5000\4_24_320i.jpeg is:
-148123.29043323806
score of 320i\non_flipped\stylegan_gen_class_320i\tick55_kimg5000\4_25_320i.jpeg is:
-52411.38226548179
score of 320i\non_flipped\stylegan_gen_class_320i\tick55_kimg5000\4_26_320i.jpeg is:
-149661.19040571092
score of 320i\non_flipped\stylegan_gen_class_320i\tick55_kimg5000\4_27_320i.jpeg is:
-50934.6376505119
score of 320i\non_flipped\stylegan_gen_class_320i\tick55_kimg5000\4_28_320i.jpeg is:
-160759.84829663837
score of 320i\non_flipped\stylegan_gen_class_320i\tick55_kimg5000\4_29_320i.jpeg is:
-121784.15260695953
score of 320i\non_flipped\stylegan_gen_class_320i\tick55_kimg5000\4_2_320i.jpeg is:
-91641.2477916429
score of 320i\non_flipped\stylegan_gen_class_320i\tick55_kimg5000\4_30_320i.jpeg is:
-99952.03186303981
score of 320i\non_flipped\stylegan_gen_class_320i\tick55_kimg5000\4_31_320i.jpeg is:
-52225.054693098406
score of 320i\non_flipped\stylegan_gen_class_320i\tick55_kimg5000\4_32_320i.jpeg is:
-87529.5463633137
score of 320i\non_flipped\stylegan_gen_class_320i\tick55_kimg5000\4_33_320i.jpeg is:
-87425.7471426024
score of 320i\non_flipped\stylegan_gen_class_320i\tick55_kimg5000\4_34_320i.jpeg is:
-208526.21293804207
score of 320i\non_flipped\stylegan_gen_class_320i\tick55_kimg5000\4_35_320i.jpeg is:
-288255.26479221333
score of 320i\non_flipped\stylegan_gen_class_320i\tick55_kimg5000\4_36_320i.jpeg is:
-153171.89265496025
score of 320i\non_flipped\stylegan_gen_class_320i\tick55_kimg5000\4_37_320i.jpeg is:
-114031.1337748626
score of 320i\non_flipped\stylegan_gen_class_320i\tick55_kimg5000\4_38_320i.jpeg is:
-144460.85852333793
score of 320i\non_flipped\stylegan_gen_class_320i\tick55_kimg5000\4_39_320i.jpeg is:
-64723.60954755807
score of 320i\non_flipped\stylegan_gen_class_320i\tick55_kimg5000\4_3_320i.jpeg is:
-33704.47563579891
score of 320i\non_flipped\stylegan_gen_class_320i\tick55_kimg5000\4_40_320i.jpeg is:
-56948.448806618784
score of 320i\non_flipped\stylegan_gen_class_320i\tick55_kimg5000\4_41_320i.jpeg is:
-108397.20050848593
score of 320i\non_flipped\stylegan_gen_class_320i\tick55_kimg5000\4_42_320i.jpeg is:
-192664.83006761427
score of 320i\non_flipped\stylegan_gen_class_320i\tick55_kimg5000\4_43_320i.jpeg is:
-85078.18694630933
score of 320i\non_flipped\stylegan_gen_class_320i\tick55_kimg5000\4_44_320i.jpeg is:
-128467.369999824
score of 320i\non_flipped\stylegan_gen_class_320i\tick55_kimg5000\4_45_320i.jpeg is:
-167974.01679682435
score of 320i\non_flipped\stylegan_gen_class_320i\tick55_kimg5000\4_46_320i.jpeg is:
-121801.79729565082
score of 320i\non_flipped\stylegan_gen_class_320i\tick55_kimg5000\4_47_320i.jpeg is:
-40120.20649323175
score of 320i\non_flipped\stylegan_gen_class_320i\tick55_kimg5000\4_48_320i.jpeg is:
-20017.70900197239
score of 320i\non_flipped\stylegan_gen_class_320i\tick55_kimg5000\4_49_320i.jpeg is:
-152417.94157067698
score of 320i\non_flipped\stylegan_gen_class_320i\tick55_kimg5000\4_4_320i.jpeg is:
-49369.73066956551
score of 320i\non_flipped\stylegan_gen_class_320i\tick55_kimg5000\4_50_320i.jpeg is:
-35253.14685043592
score of 320i\non_flipped\stylegan_gen_class_320i\tick55_kimg5000\4_51_320i.jpeg is:
-135651.75200381252
score of 320i\non_flipped\stylegan_gen_class_320i\tick55_kimg5000\4_52_320i.jpeg is:
-122243.71661669652
score of 320i\non_flipped\stylegan_gen_class_320i\tick55_kimg5000\4_53_320i.jpeg is:
-59781.037227032495
score of 320i\non_flipped\stylegan_gen_class_320i\tick55_kimg5000\4_54_320i.jpeg is:
-81944.7080617036
score of 320i\non_flipped\stylegan_gen_class_320i\tick55_kimg5000\4_55_320i.jpeg is:
-184621.46276933802
score of 320i\non_flipped\stylegan_gen_class_320i\tick55_kimg5000\4_56_320i.jpeg is:
-17234.10814005043
score of 320i\non_flipped\stylegan_gen_class_320i\tick55_kimg5000\4_57_320i.jpeg is:
-68565.81282934574
score of 320i\non_flipped\stylegan_gen_class_320i\tick55_kimg5000\4_58_320i.jpeg is:
-31842.889408764808
score of 320i\non_flipped\stylegan_gen_class_320i\tick55_kimg5000\4_59_320i.jpeg is:
-114059.35830150566
score of 320i\non_flipped\stylegan_gen_class_320i\tick55_kimg5000\4_5_320i.jpeg is:
-144460.85852333793
score of 320i\non_flipped\stylegan_gen_class_320i\tick55_kimg5000\4_60_320i.jpeg is:
-32437.996554424742
score of 320i\non_flipped\stylegan_gen_class_320i\tick55_kimg5000\4_61_320i.jpeg is:
-123463.24758992184
score of 320i\non_flipped\stylegan_gen_class_320i\tick55_kimg5000\4_62_320i.jpeg is:
-86234.68073226679
score of 320i\non_flipped\stylegan_gen_class_320i\tick55_kimg5000\4_63_320i.jpeg is:
-41600.72996801893
score of 320i\non_flipped\stylegan_gen_class_320i\tick55_kimg5000\4_64_320i.jpeg is:
-189588.78835358066
score of 320i\non_flipped\stylegan_gen_class_320i\tick55_kimg5000\4_65_320i.jpeg is:
-174326.07265196
score of 320i\non_flipped\stylegan_gen_class_320i\tick55_kimg5000\4_66_320i.jpeg is:
-126665.05374712768
score of 320i\non_flipped\stylegan_gen_class_320i\tick55_kimg5000\4_67_320i.jpeg is:
-97572.99831536371
score of 320i\non_flipped\stylegan_gen_class_320i\tick55_kimg5000\4_68_320i.jpeg is:
-226258.99523602106
score of 320i\non_flipped\stylegan_gen_class_320i\tick55_kimg5000\4_69_320i.jpeg is:
-104144.51316136305
score of 320i\non_flipped\stylegan_gen_class_320i\tick55_kimg5000\4_6_320i.jpeg is:
-29601.867813887213
score of 320i\non_flipped\stylegan_gen_class_320i\tick55_kimg5000\4_70_320i.jpeg is:
-256630.5862640991
score of 320i\non_flipped\stylegan_gen_class_320i\tick55_kimg5000\4_71_320i.jpeg is:
-123301.86244894819
score of 320i\non_flipped\stylegan_gen_class_320i\tick55_kimg5000\4_72_320i.jpeg is:
-38750.15260075721
score of 320i\non_flipped\stylegan_gen_class_320i\tick55_kimg5000\4_73_320i.jpeg is:
-22899.231767990423
score of 320i\non_flipped\stylegan_gen_class_320i\tick55_kimg5000\4_74_320i.jpeg is:
-112584.34925269539
score of 320i\non_flipped\stylegan_gen_class_320i\tick55_kimg5000\4_75_320i.jpeg is:
-93376.07204611268
score of 320i\non_flipped\stylegan_gen_class_320i\tick55_kimg5000\4_76_320i.jpeg is:
-272836.6922846679
score of 320i\non_flipped\stylegan_gen_class_320i\tick55_kimg5000\4_77_320i.jpeg is:
-121801.79729565082
score of 320i\non_flipped\stylegan_gen_class_320i\tick55_kimg5000\4_78_320i.jpeg is:
-57890.086453657175
score of 320i\non_flipped\stylegan_gen_class_320i\tick55_kimg5000\4_79_320i.jpeg is:
-208853.26412762608
score of 320i\non_flipped\stylegan_gen_class_320i\tick55_kimg5000\4_7_320i.jpeg is:
-77309.71510898124
score of 320i\non_flipped\stylegan_gen_class_320i\tick55_kimg5000\4_80_320i.jpeg is:
-58405.366880340116
score of 320i\non_flipped\stylegan_gen_class_320i\tick55_kimg5000\4_81_320i.jpeg is:
-166227.18821080573
score of 320i\non_flipped\stylegan_gen_class_320i\tick55_kimg5000\4_82_320i.jpeg is:
-272233.23273235455
score of 320i\non_flipped\stylegan_gen_class_320i\tick55_kimg5000\4_83_320i.jpeg is:
-53320.75899102148
score of 320i\non_flipped\stylegan_gen_class_320i\tick55_kimg5000\4_84_320i.jpeg is:
-69609.18377025038
score of 320i\non_flipped\stylegan_gen_class_320i\tick55_kimg5000\4_85_320i.jpeg is:
-89306.31369985254
score of 320i\non_flipped\stylegan_gen_class_320i\tick55_kimg5000\4_86_320i.jpeg is:
-229372.99156617298
score of 320i\non_flipped\stylegan_gen_class_320i\tick55_kimg5000\4_87_320i.jpeg is:
-70667.52706014647
score of 320i\non_flipped\stylegan_gen_class_320i\tick55_kimg5000\4_88_320i.jpeg is:
-87510.49929721707
score of 320i\non_flipped\stylegan_gen_class_320i\tick55_kimg5000\4_89_320i.jpeg is:
-69457.69313487179
score of 320i\non_flipped\stylegan_gen_class_320i\tick55_kimg5000\4_8_320i.jpeg is:
-197301.5344687765
score of 320i\non_flipped\stylegan_gen_class_320i\tick55_kimg5000\4_90_320i.jpeg is:
-214435.42922153775
score of 320i\non_flipped\stylegan_gen_class_320i\tick55_kimg5000\4_91_320i.jpeg is:
-96212.49511597602
score of 320i\non_flipped\stylegan_gen_class_320i\tick55_kimg5000\4_92_320i.jpeg is:
-215071.45595828083
score of 320i\non_flipped\stylegan_gen_class_320i\tick55_kimg5000\4_93_320i.jpeg is:
-87425.7471426024
score of 320i\non_flipped\stylegan_gen_class_320i\tick55_kimg5000\4_94_320i.jpeg is:
-126690.70623885613
score of 320i\non_flipped\stylegan_gen_class_320i\tick55_kimg5000\4_95_320i.jpeg is:
-132250.28087799475
score of 320i\non_flipped\stylegan_gen_class_320i\tick55_kimg5000\4_96_320i.jpeg is:
-54722.053325969
score of 320i\non_flipped\stylegan_gen_class_320i\tick55_kimg5000\4_97_320i.jpeg is:
-126665.05374712768
score of 320i\non_flipped\stylegan_gen_class_320i\tick55_kimg5000\4_98_320i.jpeg is:
-12819.335366829777
score of 320i\non_flipped\stylegan_gen_class_320i\tick55_kimg5000\4_99_320i.jpeg is:
-14967.068084560835
score of 320i\non_flipped\stylegan_gen_class_320i\tick55_kimg5000\4_9_320i.jpeg is:
-58405.36688034019
score of 320i\non_flipped\stylegan_gen_class_320i\tick55_kimg5000\5_0_320i.jpeg is:
-212335.82742405555
score of 320i\non_flipped\stylegan_gen_class_320i\tick55_kimg5000\5_10_320i.jpeg is:
-126599.5839427863
score of 320i\non_flipped\stylegan_gen_class_320i\tick55_kimg5000\5_11_320i.jpeg is:
-149533.75559888093
score of 320i\non_flipped\stylegan_gen_class_320i\tick55_kimg5000\5_12_320i.jpeg is:
-103934.75599231673
score of 320i\non_flipped\stylegan_gen_class_320i\tick55_kimg5000\5_13_320i.jpeg is:
-68065.41834727202
score of 320i\non_flipped\stylegan_gen_class_320i\tick55_kimg5000\5_14_320i.jpeg is:
-187509.32712568826
score of 320i\non_flipped\stylegan_gen_class_320i\tick55_kimg5000\5_15_320i.jpeg is:
-162174.7512460794
score of 320i\non_flipped\stylegan_gen_class_320i\tick55_kimg5000\5_16_320i.jpeg is:
-124137.5234225915
score of 320i\non_flipped\stylegan_gen_class_320i\tick55_kimg5000\5_17_320i.jpeg is:
-187572.50225120128
score of 320i\non_flipped\stylegan_gen_class_320i\tick55_kimg5000\5_18_320i.jpeg is:
-52525.31627093848
score of 320i\non_flipped\stylegan_gen_class_320i\tick55_kimg5000\5_19_320i.jpeg is:
-149533.75559888093
score of 320i\non_flipped\stylegan_gen_class_320i\tick55_kimg5000\5_1_320i.jpeg is:
-193652.93407871175
score of 320i\non_flipped\stylegan_gen_class_320i\tick55_kimg5000\5_20_320i.jpeg is:
-147784.82911731358
score of 320i\non_flipped\stylegan_gen_class_320i\tick55_kimg5000\5_21_320i.jpeg is:
-124180.92280239791
score of 320i\non_flipped\stylegan_gen_class_320i\tick55_kimg5000\5_22_320i.jpeg is:
-107165.70219535238
score of 320i\non_flipped\stylegan_gen_class_320i\tick55_kimg5000\5_23_320i.jpeg is:
-203363.77069337375
score of 320i\non_flipped\stylegan_gen_class_320i\tick55_kimg5000\5_24_320i.jpeg is:
-203849.79859192314
score of 320i\non_flipped\stylegan_gen_class_320i\tick55_kimg5000\5_25_320i.jpeg is:
-50890.85285934207
score of 320i\non_flipped\stylegan_gen_class_320i\tick55_kimg5000\5_26_320i.jpeg is:
-164093.84537210202
score of 320i\non_flipped\stylegan_gen_class_320i\tick55_kimg5000\5_27_320i.jpeg is:
-24675.494394217858
score of 320i\non_flipped\stylegan_gen_class_320i\tick55_kimg5000\5_28_320i.jpeg is:
-191431.0321965493
score of 320i\non_flipped\stylegan_gen_class_320i\tick55_kimg5000\5_29_320i.jpeg is:
-72385.36919926139
score of 320i\non_flipped\stylegan_gen_class_320i\tick55_kimg5000\5_2_320i.jpeg is:
-64966.11163382609
score of 320i\non_flipped\stylegan_gen_class_320i\tick55_kimg5000\5_30_320i.jpeg is:
-45172.12298007955
score of 320i\non_flipped\stylegan_gen_class_320i\tick55_kimg5000\5_31_320i.jpeg is:
-46602.08947469894
score of 320i\non_flipped\stylegan_gen_class_320i\tick55_kimg5000\5_32_320i.jpeg is:
-64361.76220375788
score of 320i\non_flipped\stylegan_gen_class_320i\tick55_kimg5000\5_33_320i.jpeg is:
-50815.67373810375
score of 320i\non_flipped\stylegan_gen_class_320i\tick55_kimg5000\5_34_320i.jpeg is:
-220093.1064452656
score of 320i\non_flipped\stylegan_gen_class_320i\tick55_kimg5000\5_35_320i.jpeg is:
-189032.0843749273
score of 320i\non_flipped\stylegan_gen_class_320i\tick55_kimg5000\5_36_320i.jpeg is:
-160452.68621832805
score of 320i\non_flipped\stylegan_gen_class_320i\tick55_kimg5000\5_37_320i.jpeg is:
-112054.07022309676
score of 320i\non_flipped\stylegan_gen_class_320i\tick55_kimg5000\5_38_320i.jpeg is:
-193307.5415083824
score of 320i\non_flipped\stylegan_gen_class_320i\tick55_kimg5000\5_39_320i.jpeg is:
-175855.84027216563
score of 320i\non_flipped\stylegan_gen_class_320i\tick55_kimg5000\5_3_320i.jpeg is:
-37591.704389816616
score of 320i\non_flipped\stylegan_gen_class_320i\tick55_kimg5000\5_40_320i.jpeg is:
-50010.92859481662
score of 320i\non_flipped\stylegan_gen_class_320i\tick55_kimg5000\5_41_320i.jpeg is:
-290515.40571327106
score of 320i\non_flipped\stylegan_gen_class_320i\tick55_kimg5000\5_42_320i.jpeg is:
-127500.68744317978
score of 320i\non_flipped\stylegan_gen_class_320i\tick55_kimg5000\5_43_320i.jpeg is:
-246910.52572913637
score of 320i\non_flipped\stylegan_gen_class_320i\tick55_kimg5000\5_44_320i.jpeg is:
-241900.59213396988
score of 320i\non_flipped\stylegan_gen_class_320i\tick55_kimg5000\5_45_320i.jpeg is:
-212760.9179764584
score of 320i\non_flipped\stylegan_gen_class_320i\tick55_kimg5000\5_46_320i.jpeg is:
-191697.36683923326
score of 320i\non_flipped\stylegan_gen_class_320i\tick55_kimg5000\5_47_320i.jpeg is:
-84753.38158456577
score of 320i\non_flipped\stylegan_gen_class_320i\tick55_kimg5000\5_48_320i.jpeg is:
-48913.91079356363
score of 320i\non_flipped\stylegan_gen_class_320i\tick55_kimg5000\5_49_320i.jpeg is:
-198779.749740531
score of 320i\non_flipped\stylegan_gen_class_320i\tick55_kimg5000\5_4_320i.jpeg is:
-55347.19018422809
score of 320i\non_flipped\stylegan_gen_class_320i\tick55_kimg5000\5_50_320i.jpeg is:
-65404.42144636765
score of 320i\non_flipped\stylegan_gen_class_320i\tick55_kimg5000\5_51_320i.jpeg is:
-78647.26852072729
score of 320i\non_flipped\stylegan_gen_class_320i\tick55_kimg5000\5_52_320i.jpeg is:
-215727.65344541005
score of 320i\non_flipped\stylegan_gen_class_320i\tick55_kimg5000\5_53_320i.jpeg is:
-84416.3441888554
score of 320i\non_flipped\stylegan_gen_class_320i\tick55_kimg5000\5_54_320i.jpeg is:
-177646.88648828957
score of 320i\non_flipped\stylegan_gen_class_320i\tick55_kimg5000\5_55_320i.jpeg is:
-147435.30707998594
score of 320i\non_flipped\stylegan_gen_class_320i\tick55_kimg5000\5_56_320i.jpeg is:
-70218.84462621355
score of 320i\non_flipped\stylegan_gen_class_320i\tick55_kimg5000\5_57_320i.jpeg is:
-173511.7258936301
score of 320i\non_flipped\stylegan_gen_class_320i\tick55_kimg5000\5_58_320i.jpeg is:
-76750.0949740977
score of 320i\non_flipped\stylegan_gen_class_320i\tick55_kimg5000\5_59_320i.jpeg is:
-139611.18960148445
score of 320i\non_flipped\stylegan_gen_class_320i\tick55_kimg5000\5_5_320i.jpeg is:
-193307.5415083824
score of 320i\non_flipped\stylegan_gen_class_320i\tick55_kimg5000\5_60_320i.jpeg is:
-81246.84418385552
score of 320i\non_flipped\stylegan_gen_class_320i\tick55_kimg5000\5_61_320i.jpeg is:
-98387.78929737418
score of 320i\non_flipped\stylegan_gen_class_320i\tick55_kimg5000\5_62_320i.jpeg is:
-47079.7109037708
score of 320i\non_flipped\stylegan_gen_class_320i\tick55_kimg5000\5_63_320i.jpeg is:
-74418.57198683203
score of 320i\non_flipped\stylegan_gen_class_320i\tick55_kimg5000\5_64_320i.jpeg is:
-233385.55591880245
score of 320i\non_flipped\stylegan_gen_class_320i\tick55_kimg5000\5_65_320i.jpeg is:
-280376.3658034928
score of 320i\non_flipped\stylegan_gen_class_320i\tick55_kimg5000\5_66_320i.jpeg is:
-169116.27204544298
score of 320i\non_flipped\stylegan_gen_class_320i\tick55_kimg5000\5_67_320i.jpeg is:
-164387.06697122086
score of 320i\non_flipped\stylegan_gen_class_320i\tick55_kimg5000\5_68_320i.jpeg is:
-83888.96681876916
score of 320i\non_flipped\stylegan_gen_class_320i\tick55_kimg5000\5_69_320i.jpeg is:
-91210.55790126217
score of 320i\non_flipped\stylegan_gen_class_320i\tick55_kimg5000\5_6_320i.jpeg is:
-70950.36481420764
score of 320i\non_flipped\stylegan_gen_class_320i\tick55_kimg5000\5_70_320i.jpeg is:
-254431.67281021847
score of 320i\non_flipped\stylegan_gen_class_320i\tick55_kimg5000\5_71_320i.jpeg is:
-55615.30144957243
score of 320i\non_flipped\stylegan_gen_class_320i\tick55_kimg5000\5_72_320i.jpeg is:
-53340.95942527196
score of 320i\non_flipped\stylegan_gen_class_320i\tick55_kimg5000\5_73_320i.jpeg is:
-21645.715809303823
score of 320i\non_flipped\stylegan_gen_class_320i\tick55_kimg5000\5_74_320i.jpeg is:
-98142.03031714933
score of 320i\non_flipped\stylegan_gen_class_320i\tick55_kimg5000\5_75_320i.jpeg is:
-158088.4300385552
score of 320i\non_flipped\stylegan_gen_class_320i\tick55_kimg5000\5_76_320i.jpeg is:
-173664.92775506465
score of 320i\non_flipped\stylegan_gen_class_320i\tick55_kimg5000\5_77_320i.jpeg is:
-191697.36683923326
score of 320i\non_flipped\stylegan_gen_class_320i\tick55_kimg5000\5_78_320i.jpeg is:
-72616.86548071954
score of 320i\non_flipped\stylegan_gen_class_320i\tick55_kimg5000\5_79_320i.jpeg is:
-143485.91613034852
score of 320i\non_flipped\stylegan_gen_class_320i\tick55_kimg5000\5_7_320i.jpeg is:
-311028.4238609447
score of 320i\non_flipped\stylegan_gen_class_320i\tick55_kimg5000\5_80_320i.jpeg is:
-83303.48497709462
score of 320i\non_flipped\stylegan_gen_class_320i\tick55_kimg5000\5_81_320i.jpeg is:
-110896.1654805635
score of 320i\non_flipped\stylegan_gen_class_320i\tick55_kimg5000\5_82_320i.jpeg is:
-204014.87454914872
score of 320i\non_flipped\stylegan_gen_class_320i\tick55_kimg5000\5_83_320i.jpeg is:
-194186.78604846387
score of 320i\non_flipped\stylegan_gen_class_320i\tick55_kimg5000\5_84_320i.jpeg is:
-54440.651279946374
score of 320i\non_flipped\stylegan_gen_class_320i\tick55_kimg5000\5_85_320i.jpeg is:
-185887.46920659175
score of 320i\non_flipped\stylegan_gen_class_320i\tick55_kimg5000\5_86_320i.jpeg is:
-202885.45848601236
score of 320i\non_flipped\stylegan_gen_class_320i\tick55_kimg5000\5_87_320i.jpeg is:
-73270.33154697355
score of 320i\non_flipped\stylegan_gen_class_320i\tick55_kimg5000\5_88_320i.jpeg is:
-44585.38246555619
score of 320i\non_flipped\stylegan_gen_class_320i\tick55_kimg5000\5_89_320i.jpeg is:
-57898.233204715056
score of 320i\non_flipped\stylegan_gen_class_320i\tick55_kimg5000\5_8_320i.jpeg is:
-110943.4602059149
score of 320i\non_flipped\stylegan_gen_class_320i\tick55_kimg5000\5_90_320i.jpeg is:
-301241.4052370109
score of 320i\non_flipped\stylegan_gen_class_320i\tick55_kimg5000\5_91_320i.jpeg is:
-139511.50344657383
score of 320i\non_flipped\stylegan_gen_class_320i\tick55_kimg5000\5_92_320i.jpeg is:
-234042.85880332996
score of 320i\non_flipped\stylegan_gen_class_320i\tick55_kimg5000\5_93_320i.jpeg is:
-50815.67373810375
score of 320i\non_flipped\stylegan_gen_class_320i\tick55_kimg5000\5_94_320i.jpeg is:
-182737.70078209657
score of 320i\non_flipped\stylegan_gen_class_320i\tick55_kimg5000\5_95_320i.jpeg is:
-224928.79413577777
score of 320i\non_flipped\stylegan_gen_class_320i\tick55_kimg5000\5_96_320i.jpeg is:
-51727.82113180313
score of 320i\non_flipped\stylegan_gen_class_320i\tick55_kimg5000\5_97_320i.jpeg is:
-169116.27204544298
score of 320i\non_flipped\stylegan_gen_class_320i\tick55_kimg5000\5_98_320i.jpeg is:
-25588.573944008407
score of 320i\non_flipped\stylegan_gen_class_320i\tick55_kimg5000\5_99_320i.jpeg is:
-14883.416992948716
score of 320i\non_flipped\stylegan_gen_class_320i\tick55_kimg5000\5_9_320i.jpeg is:
-83303.48497709454
