score of 5_11_330e.jpeg is:
-6927522.343563981
score of 4_17_330e.jpeg is:
-7801622.818646883
score of 1_68_330e.jpeg is:
-6524083.569875147
score of 2_7_330e.jpeg is:
-9545797.258178795
score of 0_14_330e.jpeg is:
-9370486.044081029
score of 2_11_330e.jpeg is:
-12915285.024858871
score of 1_12_330e.jpeg is:
-7580557.509875941
score of 3_17_330e.jpeg is:
-10920687.688790934
score of 4_79_330e.jpeg is:
-10429873.308277668
score of 3_79_330e.jpeg is:
-10920687.688790934
score of 4_91_330e.jpeg is:
-10481249.597793333
score of 4_58_330e.jpeg is:
-9169600.851768203
score of 1_27_330e.jpeg is:
-6670547.5974337645
score of 3_22_330e.jpeg is:
-10920687.688790934
score of 0_21_330e.jpeg is:
-10028390.376328286
score of 2_24_330e.jpeg is:
-11243921.54212036
score of 0_4_330e.jpeg is:
-4587967.749541399
score of 5_97_330e.jpeg is:
-13604838.108879179
score of 1_94_330e.jpeg is:
-7773582.2821761295
score of 3_58_330e.jpeg is:
-10920687.688790934
score of 3_91_330e.jpeg is:
-10920687.688790934
score of 4_22_330e.jpeg is:
-18443745.373991285
score of 5_24_330e.jpeg is:
-9456574.242135024
score of 0_92_330e.jpeg is:
-13803647.389092475
score of 2_97_330e.jpeg is:
-7095456.594434494
score of 4_6_330e.jpeg is:
-6679992.58941607
score of 2_83_330e.jpeg is:
-6464965.346034872
score of 0_86_330e.jpeg is:
-7276134.746084488
score of 5_30_330e.jpeg is:
-7022876.932437204
score of 4_36_330e.jpeg is:
-4202535.781821305
score of 3_85_330e.jpeg is:
-10920687.688790934
score of 1_49_330e.jpeg is:
-8315937.8521117475
score of 1_80_330e.jpeg is:
-8404305.212053806
score of 5_83_330e.jpeg is:
-8134921.474467439
score of 2_30_330e.jpeg is:
-7049651.897917322
score of 0_35_330e.jpeg is:
-5825434.062951413
score of 3_36_330e.jpeg is:
-10920687.688790934
score of 1_33_330e.jpeg is:
-9821436.869014505
score of 4_85_330e.jpeg is:
-16667882.527094968
score of 3_60_330e.jpeg is:
-10920687.688790934
score of 1_65_330e.jpeg is:
-11787692.110681169
score of 2_66_330e.jpeg is:
-8575972.276883757
score of 1_0_330e.jpeg is:
-10960225.400387445
score of 0_63_330e.jpeg is:
-6731136.644655016
score of 4_60_330e.jpeg is:
-9461420.57829199
score of 0_19_330e.jpeg is:
-4767596.485712943
score of 5_66_330e.jpeg is:
-6557134.956271646
score of 5_2_330e.jpeg is:
-15171638.297266085
score of 5_72_330e.jpeg is:
-36696105.421077766
score of 4_74_330e.jpeg is:
-6595817.301869833
score of 0_77_330e.jpeg is:
-5869992.266973067
score of 2_72_330e.jpeg is:
-12375065.158265669
score of 1_71_330e.jpeg is:
-7038278.9290829515
score of 3_74_330e.jpeg is:
-10920687.688790934
score of 5_53_330e.jpeg is:
-15300344.206058454
score of 0_9_330e.jpeg is:
-7714916.183132816
score of 2_29_330e.jpeg is:
-7889781.421785656
score of 4_55_330e.jpeg is:
-9236432.929901002
score of 3_3_330e.jpeg is:
-10920687.688790934
score of 2_53_330e.jpeg is:
-9316286.633078802
score of 0_56_330e.jpeg is:
-5617463.553268511
score of 5_29_330e.jpeg is:
-6729691.30245255
score of 3_55_330e.jpeg is:
-10920687.688790938
score of 1_99_330e.jpeg is:
-4952483.648476519
score of 1_50_330e.jpeg is:
-13786437.848554838
score of 1_44_330e.jpeg is:
-9134812.401171645
score of 3_88_330e.jpeg is:
-10920687.688790934
score of 3_41_330e.jpeg is:
-10920687.688790934
score of 0_42_330e.jpeg is:
-12134926.871674621
score of 2_47_330e.jpeg is:
-9890019.01979477
score of 4_41_330e.jpeg is:
-7971946.082724722
score of 4_88_330e.jpeg is:
-10247132.94748703
score of 0_38_330e.jpeg is:
-12505474.786861189
score of 5_47_330e.jpeg is:
-7893175.342567512
score of 4_24_330e.jpeg is:
-9834898.461123098
score of 3_97_330e.jpeg is:
-10920687.688790934
score of 1_92_330e.jpeg is:
-9203902.77902018
score of 2_58_330e.jpeg is:
-8010779.187103819
score of 2_91_330e.jpeg is:
-5934553.009718645
score of 0_94_330e.jpeg is:
-9133584.953086093
score of 3_8_330e.jpeg is:
-10920687.688790934
score of 5_22_330e.jpeg is:
-10110700.987169657
score of 3_24_330e.jpeg is:
-10920687.688790934
score of 1_21_330e.jpeg is:
-8780714.703881402
score of 4_97_330e.jpeg is:
-14152437.118611692
score of 5_91_330e.jpeg is:
-12544324.992686361
score of 0_2_330e.jpeg is:
-5623731.846045601
score of 5_58_330e.jpeg is:
-16333719.904835252
score of 2_22_330e.jpeg is:
-6269737.657485395
score of 0_27_330e.jpeg is:
-9149599.693928137
score of 0_33_330e.jpeg is:
-6925345.128841348
score of 2_36_330e.jpeg is:
-13753656.984633178
score of 5_85_330e.jpeg is:
-15367361.00950112
score of 4_83_330e.jpeg is:
-7253789.728496348
score of 1_35_330e.jpeg is:
-8180665.548592435
score of 3_30_330e.jpeg is:
-10920687.688790934
score of 5_36_330e.jpeg is:
-9590007.067711499
score of 0_49_330e.jpeg is:
-7711887.762526561
score of 0_80_330e.jpeg is:
-19868349.495563954
score of 2_85_330e.jpeg is:
-5683291.939316724
score of 4_0_330e.jpeg is:
-5478519.116907546
score of 1_86_330e.jpeg is:
-5377507.214861473
score of 3_83_330e.jpeg is:
-10920687.688790934
score of 4_30_330e.jpeg is:
-7855442.408079302
score of 2_17_330e.jpeg is:
-14501567.059468634
score of 0_12_330e.jpeg is:
-6549915.624761185
score of 2_1_330e.jpeg is:
-7720369.888882767
score of 3_11_330e.jpeg is:
-10920687.688790934
score of 1_14_330e.jpeg is:
-5375652.928799604
score of 5_17_330e.jpeg is:
-10421946.929880146
score of 0_68_330e.jpeg is:
-8967915.46141132
score of 4_11_330e.jpeg is:
-5546699.461787563
score of 2_79_330e.jpeg is:
-7990264.592610635
score of 5_79_330e.jpeg is:
-10891733.870469587
score of 5_9_330e.jpeg is:
-12372392.848557057
score of 3_5_330e.jpeg is:
-10920687.688790934
score of 0_99_330e.jpeg is:
-9660725.056704976
score of 0_50_330e.jpeg is:
-8380473.299007425
score of 2_55_330e.jpeg is:
-6255408.103657162
score of 1_56_330e.jpeg is:
-7208071.094226199
score of 3_53_330e.jpeg is:
-10920687.688790934
score of 4_29_330e.jpeg is:
-8139140.6480604885
score of 5_55_330e.jpeg is:
-13144319.867415793
score of 4_53_330e.jpeg is:
-12588890.213527134
score of 3_29_330e.jpeg is:
-10920687.688790934
score of 1_38_330e.jpeg is:
-10206768.288331553
score of 4_47_330e.jpeg is:
-9034588.059628164
score of 5_41_330e.jpeg is:
-6844763.250077325
score of 5_88_330e.jpeg is:
-9543093.626695612
score of 3_47_330e.jpeg is:
-10920687.688790934
score of 1_42_330e.jpeg is:
-12177369.935512671
score of 2_88_330e.jpeg is:
-6461981.574972389
score of 2_41_330e.jpeg is:
-9040698.995115126
score of 0_44_330e.jpeg is:
-8975848.682803582
score of 1_19_330e.jpeg is:
-4533265.288311716
score of 4_66_330e.jpeg is:
-6130129.875043306
score of 5_60_330e.jpeg is:
-11094179.010039207
score of 1_63_330e.jpeg is:
-7657033.872915823
score of 3_66_330e.jpeg is:
-10920687.688790934
score of 0_65_330e.jpeg is:
-27571791.445716787
score of 1_6_330e.jpeg is:
-8996257.7205828
score of 2_60_330e.jpeg is:
-6291549.958493918
score of 2_74_330e.jpeg is:
-18143854.80095455
score of 0_71_330e.jpeg is:
-13513953.269063212
score of 3_72_330e.jpeg is:
-10920687.688790934
score of 1_77_330e.jpeg is:
-12209583.18187692
score of 5_74_330e.jpeg is:
-39444770.81256911
score of 5_4_330e.jpeg is:
-13687862.852440614
score of 4_72_330e.jpeg is:
-10654952.145611502
score of 4_78_330e.jpeg is:
-10093040.644400634
score of 3_78_330e.jpeg is:
-10920687.688790934
score of 5_10_330e.jpeg is:
-7502291.696574349
score of 1_69_330e.jpeg is:
-6862543.841571674
score of 4_16_330e.jpeg is:
-9447947.326221582
score of 0_15_330e.jpeg is:
-11332701.344158338
score of 2_10_330e.jpeg is:
-18525743.58848733
score of 2_6_330e.jpeg is:
-9488113.013550527
score of 1_13_330e.jpeg is:
-6191819.928366827
score of 3_16_330e.jpeg is:
-10920687.688790934
score of 5_31_330e.jpeg is:
-8443539.171562333
score of 2_82_330e.jpeg is:
-17318509.767655253
score of 4_7_330e.jpeg is:
-8703474.724802354
score of 0_87_330e.jpeg is:
-12746819.140020115
score of 3_84_330e.jpeg is:
-10920687.688790934
score of 1_48_330e.jpeg is:
-10575000.525277063
score of 1_81_330e.jpeg is:
-8988580.151431846
score of 4_37_330e.jpeg is:
-5708894.800350754
score of 2_31_330e.jpeg is:
-8022835.799090393
score of 0_34_330e.jpeg is:
-9120204.437533733
score of 5_82_330e.jpeg is:
-10580805.138383025
score of 4_84_330e.jpeg is:
-6696194.975108111
score of 3_37_330e.jpeg is:
-10920687.688790934
score of 1_32_330e.jpeg is:
-7887955.629423578
score of 1_26_330e.jpeg is:
-4763653.282611603
score of 3_23_330e.jpeg is:
-10920687.688790934
score of 4_90_330e.jpeg is:
-11980112.464844013
score of 4_59_330e.jpeg is:
-7647130.957860217
score of 0_5_330e.jpeg is:
-10209222.979597868
score of 5_96_330e.jpeg is:
-18005934.65648324
score of 0_20_330e.jpeg is:
-10039129.70835671
score of 2_25_330e.jpeg is:
-8698847.686149888
score of 4_23_330e.jpeg is:
-9603583.73297537
score of 1_95_330e.jpeg is:
-7678446.561179859
score of 3_59_330e.jpeg is:
-10920687.688790934
score of 3_90_330e.jpeg is:
-10920687.688790934
score of 0_93_330e.jpeg is:
-12057278.126487244
score of 2_96_330e.jpeg is:
-27228218.59071136
score of 5_25_330e.jpeg is:
-26876912.424653668
score of 5_3_330e.jpeg is:
-18005934.65648324
score of 5_73_330e.jpeg is:
-8099363.8613568405
score of 4_75_330e.jpeg is:
-9551283.724093132
score of 0_76_330e.jpeg is:
-7015740.438477215
score of 2_73_330e.jpeg is:
-8695214.154441424
score of 1_70_330e.jpeg is:
-7481946.983926383
score of 3_75_330e.jpeg is:
-10920687.688790934
score of 3_61_330e.jpeg is:
-10920687.688790934
score of 1_64_330e.jpeg is:
-8791683.164707221
score of 1_1_330e.jpeg is:
-6117813.638739457
score of 2_67_330e.jpeg is:
-11656154.274734996
score of 0_62_330e.jpeg is:
-5242119.767883226
score of 4_61_330e.jpeg is:
-11457354.272237161
score of 5_67_330e.jpeg is:
-4847297.328762151
score of 0_18_330e.jpeg is:
-12443764.213504162
score of 1_45_330e.jpeg is:
-6839004.791265129
score of 3_89_330e.jpeg is:
-10920687.688790934
score of 3_40_330e.jpeg is:
-10920687.688790934
score of 0_43_330e.jpeg is:
-6797864.076699943
score of 2_46_330e.jpeg is:
-14501567.059468634
score of 4_40_330e.jpeg is:
-6671147.975028286
score of 4_89_330e.jpeg is:
-8169662.880339036
score of 5_46_330e.jpeg is:
-10421946.929880146
score of 0_39_330e.jpeg is:
-13627650.715608573
score of 2_28_330e.jpeg is:
-8247284.791025575
score of 5_52_330e.jpeg is:
-8747656.428537251
score of 0_8_330e.jpeg is:
-10387461.164107414
score of 4_54_330e.jpeg is:
-4917714.274292434
score of 5_28_330e.jpeg is:
-4674756.515403826
score of 3_2_330e.jpeg is:
-10920687.688790934
score of 2_52_330e.jpeg is:
-10169005.988263475
score of 0_57_330e.jpeg is:
-8903652.79759629
score of 3_54_330e.jpeg is:
-10920687.688790934
score of 1_98_330e.jpeg is:
-5217485.861917374
score of 1_51_330e.jpeg is:
-5672664.742098006
score of 5_84_330e.jpeg is:
-6998154.280945609
score of 0_32_330e.jpeg is:
-10649520.671231594
score of 2_37_330e.jpeg is:
-8879464.252677396
score of 1_34_330e.jpeg is:
-5054230.56432898
score of 3_31_330e.jpeg is:
-10920687.688790934
score of 4_82_330e.jpeg is:
-4972900.040970897
score of 0_48_330e.jpeg is:
-10148289.028074933
score of 0_81_330e.jpeg is:
-7533779.091040715
score of 4_1_330e.jpeg is:
-9498106.742648523
score of 2_84_330e.jpeg is:
-7821995.297491096
score of 5_37_330e.jpeg is:
-10367765.11461168
score of 4_31_330e.jpeg is:
-5965543.622693883
score of 1_87_330e.jpeg is:
-12339956.270982357
score of 3_82_330e.jpeg is:
-10920687.688790934
score of 3_96_330e.jpeg is:
-10920687.688790938
score of 1_93_330e.jpeg is:
-6264804.052745746
score of 4_25_330e.jpeg is:
-13674916.703285333
score of 5_23_330e.jpeg is:
-10139868.124147542
score of 2_59_330e.jpeg is:
-9798624.144730141
score of 2_90_330e.jpeg is:
-15004393.653517181
score of 0_95_330e.jpeg is:
-4203531.572517801
score of 3_9_330e.jpeg is:
-10920687.688790934
score of 4_96_330e.jpeg is:
-5268140.143992011
score of 3_25_330e.jpeg is:
-10920687.688790934
score of 1_20_330e.jpeg is:
-8800730.271213679
score of 2_23_330e.jpeg is:
-7394817.665635105
score of 0_26_330e.jpeg is:
-5773022.68048826
score of 5_90_330e.jpeg is:
-13511565.800789788
score of 0_3_330e.jpeg is:
-8012714.430645032
score of 5_59_330e.jpeg is:
-10780599.136155432
score of 2_78_330e.jpeg is:
-15310822.250493728
score of 5_78_330e.jpeg is:
-6910491.78488718
score of 5_8_330e.jpeg is:
-6605470.408632983
score of 2_0_330e.jpeg is:
-11680742.029711807
score of 2_16_330e.jpeg is:
-10456039.590016874
score of 0_13_330e.jpeg is:
-6147204.611484537
score of 3_10_330e.jpeg is:
-10920687.688790934
score of 1_15_330e.jpeg is:
-11129330.603679016
score of 0_69_330e.jpeg is:
-7123603.953184372
score of 5_16_330e.jpeg is:
-7908947.135342503
score of 4_10_330e.jpeg is:
-7288007.99260895
score of 4_46_330e.jpeg is:
-7801622.818646883
score of 1_39_330e.jpeg is:
-13639869.2859444
score of 5_40_330e.jpeg is:
-9438335.52840403
score of 5_89_330e.jpeg is:
-12708758.94332027
score of 3_46_330e.jpeg is:
-10920687.688790934
score of 1_43_330e.jpeg is:
-5668232.0636769105
score of 2_89_330e.jpeg is:
-5790425.505915623
score of 2_40_330e.jpeg is:
-11657512.454120776
score of 0_45_330e.jpeg is:
-7029294.87235523
score of 3_4_330e.jpeg is:
-10920687.688790934
score of 0_98_330e.jpeg is:
-7338798.431204598
score of 0_51_330e.jpeg is:
-5963764.6652992675
score of 2_54_330e.jpeg is:
-8007231.241845495
score of 4_28_330e.jpeg is:
-9327993.74271998
score of 1_57_330e.jpeg is:
-9894849.115858676
score of 3_52_330e.jpeg is:
-10920687.688790934
score of 5_54_330e.jpeg is:
-12809983.943820242
score of 3_28_330e.jpeg is:
-10920687.688790934
score of 4_52_330e.jpeg is:
-6981802.78422838
score of 2_75_330e.jpeg is:
-9711625.86812801
score of 0_70_330e.jpeg is:
-6910428.097923375
score of 3_73_330e.jpeg is:
-10920687.688790934
score of 1_76_330e.jpeg is:
-10693005.301674241
score of 5_75_330e.jpeg is:
-10840591.234506104
score of 5_5_330e.jpeg is:
-18995914.505903892
score of 4_73_330e.jpeg is:
-7573152.426783215
score of 4_67_330e.jpeg is:
-6509972.374329569
score of 1_18_330e.jpeg is:
-11560024.100497864
score of 5_61_330e.jpeg is:
-20281844.301748842
score of 1_62_330e.jpeg is:
-8706165.131442022
score of 3_67_330e.jpeg is:
-10920687.688790934
score of 0_64_330e.jpeg is:
-10256125.878280418
score of 2_61_330e.jpeg is:
-13133170.60884127
score of 1_7_330e.jpeg is:
-9782049.605886621
score of 2_26_330e.jpeg is:
-4865899.031026021
score of 0_23_330e.jpeg is:
-7778534.144622632
score of 0_6_330e.jpeg is:
-8110235.344662393
score of 5_95_330e.jpeg is:
-11473206.37020159
score of 4_93_330e.jpeg is:
-7941229.352370957
score of 3_20_330e.jpeg is:
-10920687.688790934
score of 1_25_330e.jpeg is:
-6494345.859699963
score of 5_26_330e.jpeg is:
-7446487.033878527
score of 2_95_330e.jpeg is:
-6480721.903416245
score of 0_59_330e.jpeg is:
-7764270.114279934
score of 0_90_330e.jpeg is:
-16964610.201924138
score of 3_93_330e.jpeg is:
-10920687.688790934
score of 1_96_330e.jpeg is:
-10399042.929504665
score of 4_20_330e.jpeg is:
-9697707.77465811
score of 4_34_330e.jpeg is:
-9315817.930927001
score of 1_82_330e.jpeg is:
-35800020.78421776
score of 3_87_330e.jpeg is:
-10920687.688790934
score of 0_84_330e.jpeg is:
-8686336.602457402
score of 4_4_330e.jpeg is:
-9962502.712515382
score of 2_48_330e.jpeg is:
-13188595.322687447
score of 2_81_330e.jpeg is:
-8938055.09990738
score of 5_32_330e.jpeg is:
-7972048.684254651
score of 1_31_330e.jpeg is:
-15176520.032066911
score of 3_34_330e.jpeg is:
-10920687.688790934
score of 4_87_330e.jpeg is:
-5569154.364039651
score of 5_81_330e.jpeg is:
-8382134.940174103
score of 5_48_330e.jpeg is:
-15314431.5771331
score of 0_37_330e.jpeg is:
-6908599.7582983505
score of 2_32_330e.jpeg is:
-7744252.72391915
score of 4_15_330e.jpeg is:
-4298636.754942552
score of 2_69_330e.jpeg is:
-6125847.202500348
score of 5_13_330e.jpeg is:
-12649311.861592725
score of 3_15_330e.jpeg is:
-10920687.688790934
score of 1_10_330e.jpeg is:
-25912695.929468203
score of 5_69_330e.jpeg is:
-17878272.199037373
score of 2_5_330e.jpeg is:
-12083843.450945286
score of 2_13_330e.jpeg is:
-5895361.808213234
score of 0_16_330e.jpeg is:
-9471409.957286023
score of 0_78_330e.jpeg is:
-14130156.658456236
score of 1_28_330e.jpeg is:
-8184753.717111347
score of 4_57_330e.jpeg is:
-9203888.895473057
score of 5_51_330e.jpeg is:
-12664792.232448578
score of 5_98_330e.jpeg is:
-13088277.883335395
score of 1_52_330e.jpeg is:
-6804396.546612802
score of 3_57_330e.jpeg is:
-10920687.688790934
score of 3_1_330e.jpeg is:
-10920687.688790934
score of 0_54_330e.jpeg is:
-6063483.492184823
score of 2_98_330e.jpeg is:
-7041557.641566678
score of 2_51_330e.jpeg is:
-6318130.426813122
score of 4_9_330e.jpeg is:
-8018540.460871406
score of 2_45_330e.jpeg is:
-7159137.190621038
score of 0_89_330e.jpeg is:
-8894898.520713529
score of 0_40_330e.jpeg is:
-9764995.074067421
score of 3_43_330e.jpeg is:
-10920687.688790934
score of 1_46_330e.jpeg is:
-58941676.17581882
score of 4_39_330e.jpeg is:
-6362925.361751029
score of 5_45_330e.jpeg is:
-14212466.42461671
score of 4_43_330e.jpeg is:
-9344498.748362793
score of 3_39_330e.jpeg is:
-10920687.688790934
score of 0_61_330e.jpeg is:
-9858083.844631277
score of 2_64_330e.jpeg is:
-9452563.036415089
score of 1_2_330e.jpeg is:
-6067010.099237636
score of 1_67_330e.jpeg is:
-13864576.24052957
score of 3_62_330e.jpeg is:
-10920687.688790934
score of 4_18_330e.jpeg is:
-10384898.813003968
score of 2_8_330e.jpeg is:
-7757466.252770447
score of 5_64_330e.jpeg is:
-8615430.213807255
score of 4_62_330e.jpeg is:
-7504756.27679881
score of 3_18_330e.jpeg is:
-10920687.688790934
score of 4_76_330e.jpeg is:
-7668119.877415748
score of 5_0_330e.jpeg is:
-9098446.038472176
score of 5_70_330e.jpeg is:
-10829936.855445035
score of 3_76_330e.jpeg is:
-10920687.688790934
score of 1_73_330e.jpeg is:
-6120339.640471689
score of 2_70_330e.jpeg is:
-5645454.379831178
score of 0_75_330e.jpeg is:
-8190575.786856402
score of 4_69_330e.jpeg is:
-12892276.177767426
score of 1_16_330e.jpeg is:
-7679817.487051323
score of 3_13_330e.jpeg is:
-10920687.688790934
score of 0_10_330e.jpeg is:
-10121307.12133863
score of 2_15_330e.jpeg is:
-12033131.774845112
score of 2_3_330e.jpeg is:
-27228218.59071136
score of 3_69_330e.jpeg is:
-10920687.688790934
score of 4_13_330e.jpeg is:
-11825769.205888899
score of 5_15_330e.jpeg is:
-6776761.4849789385
score of 1_9_330e.jpeg is:
-9488834.236293167
score of 1_78_330e.jpeg is:
-13516816.179977264
score of 0_96_330e.jpeg is:
-8012714.430645032
score of 2_93_330e.jpeg is:
-6591760.9935723515
score of 5_20_330e.jpeg is:
-10572187.911753794
score of 4_26_330e.jpeg is:
-8382986.875779015
score of 1_59_330e.jpeg is:
-8387801.6326929005
score of 1_90_330e.jpeg is:
-18215062.358498737
score of 3_95_330e.jpeg is:
-10920687.688790934
score of 5_93_330e.jpeg is:
-8595418.245430557
score of 0_0_330e.jpeg is:
-9358701.784851996
score of 0_25_330e.jpeg is:
-8936643.698303971
score of 2_20_330e.jpeg is:
-8230869.022046011
score of 1_23_330e.jpeg is:
-7610720.495496106
score of 3_26_330e.jpeg is:
-10920687.688790934
score of 4_95_330e.jpeg is:
-8974290.273134021
score of 4_81_330e.jpeg is:
-3934989.445817098
score of 4_48_330e.jpeg is:
-11271356.874650158
score of 3_32_330e.jpeg is:
-10920687.688790934
score of 1_37_330e.jpeg is:
-7377624.247104839
score of 2_34_330e.jpeg is:
-4735821.823023034
score of 0_31_330e.jpeg is:
-7932896.900004189
score of 5_87_330e.jpeg is:
-5717785.688412618
score of 3_48_330e.jpeg is:
-10920687.688790934
score of 3_81_330e.jpeg is:
-10920687.688790934
score of 1_84_330e.jpeg is:
-8064418.467947105
score of 4_32_330e.jpeg is:
-7003448.317627165
score of 5_34_330e.jpeg is:
-11932263.471179985
score of 2_87_330e.jpeg is:
-11096127.25046279
score of 4_2_330e.jpeg is:
-8736015.5441215
score of 0_82_330e.jpeg is:
-12020269.136738807
score of 5_62_330e.jpeg is:
-12320100.68557988
score of 2_18_330e.jpeg is:
-8438809.419516176
score of 4_64_330e.jpeg is:
-7042568.516536493
score of 1_4_330e.jpeg is:
-5549163.922418327
score of 2_62_330e.jpeg is:
-8233440.700018793
score of 0_67_330e.jpeg is:
-42151101.48375407
score of 5_18_330e.jpeg is:
-11022691.445388597
score of 3_64_330e.jpeg is:
-10920687.688790934
score of 1_61_330e.jpeg is:
-6432279.141608188
score of 1_75_330e.jpeg is:
-9602289.816435128
score of 3_70_330e.jpeg is:
-10920687.688790934
score of 0_73_330e.jpeg is:
-8837120.138143077
score of 2_76_330e.jpeg is:
-8555963.505487561
score of 4_70_330e.jpeg is:
-15472091.555848742
score of 5_76_330e.jpeg is:
-13215386.665908024
score of 5_6_330e.jpeg is:
-12351313.528814014
score of 3_98_330e.jpeg is:
-10920687.688790934
score of 3_51_330e.jpeg is:
-10920687.688790934
score of 1_54_330e.jpeg is:
-6566797.249117239
score of 3_7_330e.jpeg is:
-10920687.688790934
score of 2_57_330e.jpeg is:
-9338309.09133494
score of 0_52_330e.jpeg is:
-6977348.379533042
score of 4_51_330e.jpeg is:
-8447777.979913693
score of 4_98_330e.jpeg is:
-9219531.631133625
score of 0_28_330e.jpeg is:
-8934613.45554024
score of 5_57_330e.jpeg is:
-9110796.50468058
score of 5_43_330e.jpeg is:
-13600335.551621523
score of 2_39_330e.jpeg is:
-10872471.786726864
score of 4_45_330e.jpeg is:
-8092596.621601869
score of 0_46_330e.jpeg is:
-11307981.59482082
score of 2_43_330e.jpeg is:
-8356173.362154737
score of 5_39_330e.jpeg is:
-9408803.507707905
score of 1_89_330e.jpeg is:
-9359537.3597221
score of 1_40_330e.jpeg is:
-8620326.156088183
score of 3_45_330e.jpeg is:
-10920687.688790934
score of 1_83_330e.jpeg is:
-6851816.668847059
score of 3_86_330e.jpeg is:
-10920687.688790934
score of 4_35_330e.jpeg is:
-5368069.664239529
score of 5_33_330e.jpeg is:
-9032909.300667942
score of 0_85_330e.jpeg is:
-9889540.445262074
score of 2_49_330e.jpeg is:
-9078295.152367542
score of 2_80_330e.jpeg is:
-9552149.593542857
score of 4_5_330e.jpeg is:
-9291051.916932961
score of 4_86_330e.jpeg is:
-10411995.090153106
score of 1_30_330e.jpeg is:
-8841666.847112369
score of 3_35_330e.jpeg is:
-10920687.688790934
score of 0_36_330e.jpeg is:
-10892450.698395615
score of 2_33_330e.jpeg is:
-10886565.113603456
score of 5_80_330e.jpeg is:
-5871927.72110599
score of 5_49_330e.jpeg is:
-8924984.05163951
score of 0_7_330e.jpeg is:
-8592930.147797886
score of 5_94_330e.jpeg is:
-8861138.52028525
score of 2_27_330e.jpeg is:
-5615489.761841878
score of 0_22_330e.jpeg is:
-11569512.51611678
score of 3_21_330e.jpeg is:
-10920687.688790934
score of 1_24_330e.jpeg is:
-10318961.672473237
score of 4_92_330e.jpeg is:
-11277414.204730347
score of 2_94_330e.jpeg is:
-7507113.179225093
score of 0_58_330e.jpeg is:
-6308545.615939229
score of 0_91_330e.jpeg is:
-5617463.553268511
score of 5_27_330e.jpeg is:
-11960021.673246864
score of 4_21_330e.jpeg is:
-4443560.767885638
score of 3_92_330e.jpeg is:
-10920687.688790934
score of 1_97_330e.jpeg is:
-9959498.472307313
score of 0_79_330e.jpeg is:
-9008848.354701515
score of 4_14_330e.jpeg is:
-7710807.00037532
score of 5_12_330e.jpeg is:
-14259834.839744603
score of 2_68_330e.jpeg is:
-12160700.78807245
score of 3_14_330e.jpeg is:
-10920687.688790934
score of 1_11_330e.jpeg is:
-13782714.764083726
score of 2_12_330e.jpeg is:
-9862842.221079623
score of 0_17_330e.jpeg is:
-11307981.59482082
score of 5_68_330e.jpeg is:
-10003620.904274158
score of 2_4_330e.jpeg is:
-4849894.582891546
score of 2_44_330e.jpeg is:
-8910594.440331152
score of 4_8_330e.jpeg is:
-5937815.255785359
score of 0_88_330e.jpeg is:
-9297088.993869765
score of 0_41_330e.jpeg is:
-11489398.03150391
score of 4_38_330e.jpeg is:
-11423199.022782743
score of 3_42_330e.jpeg is:
-10920687.688790934
score of 1_47_330e.jpeg is:
-10798915.018134316
score of 5_44_330e.jpeg is:
-9120372.763704874
score of 3_38_330e.jpeg is:
-10920687.688790934
score of 4_42_330e.jpeg is:
-5569776.181801953
score of 4_56_330e.jpeg is:
-10481249.597793333
score of 1_29_330e.jpeg is:
-6392377.807593449
score of 5_50_330e.jpeg is:
-9269477.526490225
score of 5_99_330e.jpeg is:
-54500924.220665425
score of 1_53_330e.jpeg is:
-6799713.63829218
score of 3_56_330e.jpeg is:
-10920687.688790934
score of 3_0_330e.jpeg is:
-10920687.688790934
score of 0_55_330e.jpeg is:
-7277288.542890794
score of 2_99_330e.jpeg is:
-7945618.270449687
score of 2_50_330e.jpeg is:
-7586629.916203726
score of 4_77_330e.jpeg is:
-13214062.149884911
score of 5_1_330e.jpeg is:
-8816302.698081005
score of 5_71_330e.jpeg is:
-8678154.510170622
score of 3_77_330e.jpeg is:
-10920687.688790934
score of 1_72_330e.jpeg is:
-7571534.005018435
score of 2_71_330e.jpeg is:
-6113975.082203489
score of 0_74_330e.jpeg is:
-11210865.354319667
score of 0_60_330e.jpeg is:
-6300894.0343165705
score of 1_3_330e.jpeg is:
-10399042.929504665
score of 2_65_330e.jpeg is:
-12792087.118559541
score of 4_19_330e.jpeg is:
-13652357.347098727
score of 1_66_330e.jpeg is:
-9206197.683032757
score of 3_63_330e.jpeg is:
-10920687.688790934
score of 2_9_330e.jpeg is:
-8561625.234881254
score of 5_65_330e.jpeg is:
-4307818.746332048
score of 3_19_330e.jpeg is:
-10920687.688790934
score of 4_63_330e.jpeg is:
-10191436.329771321
score of 1_79_330e.jpeg is:
-6745396.673901203
score of 1_17_330e.jpeg is:
-58941676.17581882
score of 3_12_330e.jpeg is:
-10920687.688790934
score of 4_68_330e.jpeg is:
-9741629.3459299
score of 2_2_330e.jpeg is:
-6329612.505318044
score of 0_11_330e.jpeg is:
-12949904.340459371
score of 2_14_330e.jpeg is:
-6742393.619889198
score of 4_12_330e.jpeg is:
-6191424.991960048
score of 3_68_330e.jpeg is:
-10920687.688790934
score of 1_8_330e.jpeg is:
-8345319.940550935
score of 5_14_330e.jpeg is:
-14175783.031327607
score of 3_33_330e.jpeg is:
-10920687.688790934
score of 1_36_330e.jpeg is:
-11435550.846046763
score of 4_80_330e.jpeg is:
-4820053.431422215
score of 4_49_330e.jpeg is:
-9355186.796040062
score of 5_86_330e.jpeg is:
-9443013.22397493
score of 2_35_330e.jpeg is:
-8920723.03989455
score of 0_30_330e.jpeg is:
-11015049.694389578
score of 4_33_330e.jpeg is:
-12060494.918951139
score of 3_49_330e.jpeg is:
-10920687.688790934
score of 3_80_330e.jpeg is:
-10920687.688790934
score of 1_85_330e.jpeg is:
-8180736.522990421
score of 4_3_330e.jpeg is:
-5268140.143992011
score of 2_86_330e.jpeg is:
-8080736.285055986
score of 0_83_330e.jpeg is:
-6799076.097732101
score of 5_35_330e.jpeg is:
-4504778.260343673
score of 5_21_330e.jpeg is:
-6296071.566864848
score of 0_97_330e.jpeg is:
-13018832.916804185
score of 2_92_330e.jpeg is:
-9429975.654430568
score of 1_58_330e.jpeg is:
-6598440.202578413
score of 1_91_330e.jpeg is:
-7208071.094226199
score of 3_94_330e.jpeg is:
-10920687.688790934
score of 4_27_330e.jpeg is:
-13469049.493150594
score of 0_24_330e.jpeg is:
-15368406.838391662
score of 2_21_330e.jpeg is:
-9825288.815883916
score of 5_92_330e.jpeg is:
-9143713.917313777
score of 0_1_330e.jpeg is:
-8035760.232503727
score of 4_94_330e.jpeg is:
-14434958.799160432
score of 1_22_330e.jpeg is:
-6397170.765947213
score of 3_27_330e.jpeg is:
-10920687.688790934
score of 1_74_330e.jpeg is:
-9715000.952295756
score of 3_71_330e.jpeg is:
-10920687.688790934
score of 0_72_330e.jpeg is:
-6967580.0353601165
score of 2_77_330e.jpeg is:
-7366789.954229547
score of 4_71_330e.jpeg is:
-12687279.1695231
score of 5_77_330e.jpeg is:
-10668007.772086231
score of 5_7_330e.jpeg is:
-9342247.213263012
score of 2_19_330e.jpeg is:
-6856745.826510469
score of 5_63_330e.jpeg is:
-9895350.31499681
score of 4_65_330e.jpeg is:
-6087570.636248413
score of 5_19_330e.jpeg is:
-7792977.363509422
score of 2_63_330e.jpeg is:
-6080599.887328402
score of 1_5_330e.jpeg is:
-13950290.007438194
score of 0_66_330e.jpeg is:
-11608997.13208702
score of 3_65_330e.jpeg is:
-10920687.688790934
score of 1_60_330e.jpeg is:
-6161464.61579996
score of 2_38_330e.jpeg is:
-9776982.509610595
score of 5_42_330e.jpeg is:
-7308611.712877756
score of 4_44_330e.jpeg is:
-11813840.925635189
score of 5_38_330e.jpeg is:
-17242218.506343327
score of 0_47_330e.jpeg is:
-9372929.70705606
score of 2_42_330e.jpeg is:
-14037212.06661127
score of 1_88_330e.jpeg is:
-11988818.147263376
score of 1_41_330e.jpeg is:
-11452300.447174152
score of 3_44_330e.jpeg is:
-10920687.688790934
score of 3_99_330e.jpeg is:
-10920687.688790934
score of 3_50_330e.jpeg is:
-10920687.688790934
score of 1_55_330e.jpeg is:
-8144645.167582187
score of 3_6_330e.jpeg is:
-10920687.688790934
score of 2_56_330e.jpeg is:
-5934553.009718645
score of 0_53_330e.jpeg is:
-6535954.872441774
score of 4_50_330e.jpeg is:
-12140363.514755586
score of 4_99_330e.jpeg is:
-15274708.940070925
score of 5_56_330e.jpeg is:
-12544324.992686361
score of 0_29_330e.jpeg is:
-9592621.798597114
