score of 1_57_740Li.jpeg is:
-38610739.27720051
score of 4_48_740Li.jpeg is:
-55293737.22958474
score of 5_29_740Li.jpeg is:
-47539246.83357975
score of 0_36_740Li.jpeg is:
-52685309.56877965
score of 1_7_740Li.jpeg is:
-37220517.95228194
score of 1_60_740Li.jpeg is:
-45519552.70765407
score of 3_99_740Li.jpeg is:
-46505441.57459461
score of 0_54_740Li.jpeg is:
-45118046.02420011
score of 1_35_740Li.jpeg is:
-44427202.831702635
score of 0_63_740Li.jpeg is:
-55111940.129943535
score of 5_83_740Li.jpeg is:
-53769880.13305172
score of 3_51_740Li.jpeg is:
-46505441.57459461
score of 2_30_740Li.jpeg is:
-47838769.044574276
score of 3_66_740Li.jpeg is:
-46505441.57459461
score of 4_80_740Li.jpeg is:
-42376150.39578065
score of 2_52_740Li.jpeg is:
-51295374.11354164
score of 3_33_740Li.jpeg is:
-46505441.57459461
score of 2_65_740Li.jpeg is:
-50194423.2299844
score of 4_4_740Li.jpeg is:
-47405902.43994129
score of 4_63_740Li.jpeg is:
-51133277.71186048
score of 4_54_740Li.jpeg is:
-42939422.199431986
score of 5_35_740Li.jpeg is:
-51909985.172260284
score of 2_86_740Li.jpeg is:
-46652445.91872814
score of 3_4_740Li.jpeg is:
-46505441.57459461
score of 5_60_740Li.jpeg is:
-46174750.76367816
score of 5_57_740Li.jpeg is:
-69615142.18635438
score of 0_48_740Li.jpeg is:
-61704382.75341384
score of 1_29_740Li.jpeg is:
-50936573.54906151
score of 4_36_740Li.jpeg is:
-48692480.94906779
score of 3_85_740Li.jpeg is:
-46505441.57459461
score of 0_80_740Li.jpeg is:
-47461048.00172685
score of 3_18_740Li.jpeg is:
-46505441.57459461
score of 2_79_740Li.jpeg is:
-50707633.675600186
score of 1_83_740Li.jpeg is:
-49760850.661681555
score of 1_92_740Li.jpeg is:
-47022895.274611324
score of 2_68_740Li.jpeg is:
-44144914.77696439
score of 0_91_740Li.jpeg is:
-57965827.6205401
score of 3_94_740Li.jpeg is:
-46505441.5745946
score of 2_1_740Li.jpeg is:
-61881180.19926338
score of 0_59_740Li.jpeg is:
-55814275.67233331
score of 5_46_740Li.jpeg is:
-51191233.95371002
score of 4_27_740Li.jpeg is:
-50169144.53734226
score of 1_38_740Li.jpeg is:
-47067222.61602326
score of 4_10_740Li.jpeg is:
-50050662.930668764
score of 5_71_740Li.jpeg is:
-55922305.16753173
score of 2_97_740Li.jpeg is:
-48067803.66870098
score of 5_1_740Li.jpeg is:
-41332943.623217836
score of 4_45_740Li.jpeg is:
-47031789.981115855
score of 5_24_740Li.jpeg is:
-53668095.728835925
score of 5_13_740Li.jpeg is:
-51097567.99027629
score of 4_72_740Li.jpeg is:
-48692480.94906779
score of 3_15_740Li.jpeg is:
-46505441.57459461
score of 2_74_740Li.jpeg is:
-48012860.855543934
score of 2_43_740Li.jpeg is:
-47360677.289640285
score of 3_22_740Li.jpeg is:
-46505441.57459461
score of 4_91_740Li.jpeg is:
-41561669.40506524
score of 2_16_740Li.jpeg is:
-53046671.385994054
score of 3_77_740Li.jpeg is:
-46505441.57459461
score of 3_40_740Li.jpeg is:
-46505441.57459461
score of 2_21_740Li.jpeg is:
-55787730.12325778
score of 5_92_740Li.jpeg is:
-39900359.47323548
score of 3_9_740Li.jpeg is:
-46505441.57459461
score of 1_13_740Li.jpeg is:
-55464091.360093325
score of 0_72_740Li.jpeg is:
-52685309.56877965
score of 0_45_740Li.jpeg is:
-52092845.12806077
score of 1_24_740Li.jpeg is:
-57573696.37125532
score of 3_88_740Li.jpeg is:
-46505441.57459461
score of 4_9_740Li.jpeg is:
-50626539.98286736
score of 0_10_740Li.jpeg is:
-48281859.30498207
score of 1_71_740Li.jpeg is:
-59886682.32328151
score of 4_59_740Li.jpeg is:
-47273304.85865199
score of 1_46_740Li.jpeg is:
-60821222.35678484
score of 0_27_740Li.jpeg is:
-54560713.928477466
score of 5_38_740Li.jpeg is:
-45848954.57061677
score of 0_2_740Li.jpeg is:
-52284883.642549455
score of 4_15_740Li.jpeg is:
-50284022.357652314
score of 5_74_740Li.jpeg is:
-48004432.721242785
score of 5_43_740Li.jpeg is:
-47239666.28656989
score of 4_22_740Li.jpeg is:
-55415420.75519151
score of 2_4_740Li.jpeg is:
-49273602.33690196
score of 3_91_740Li.jpeg is:
-46505441.57459461
score of 5_16_740Li.jpeg is:
-66771835.70245443
score of 1_68_740Li.jpeg is:
-40963009.86722708
score of 4_77_740Li.jpeg is:
-55306767.633153774
score of 4_40_740Li.jpeg is:
-45885698.18554205
score of 5_21_740Li.jpeg is:
-46870192.674193144
score of 5_4_740Li.jpeg is:
-48045200.57790422
score of 2_92_740Li.jpeg is:
-42961576.42588078
score of 1_97_740Li.jpeg is:
-47609941.47554283
score of 4_88_740Li.jpeg is:
-41528496.03459658
score of 3_59_740Li.jpeg is:
-46505441.57459461
score of 2_38_740Li.jpeg is:
-45521651.485514194
score of 0_94_740Li.jpeg is:
-41534016.781827666
score of 0_40_740Li.jpeg is:
-42776399.85916723
score of 1_21_740Li.jpeg is:
-57828545.72944665
score of 1_16_740Li.jpeg is:
-44774369.057391316
score of 5_68_740Li.jpeg is:
-49627952.22759874
score of 0_77_740Li.jpeg is:
-52439229.88768147
score of 0_7_740Li.jpeg is:
-38666276.38326067
score of 1_43_740Li.jpeg is:
-45279076.75333895
score of 0_22_740Li.jpeg is:
-52635756.39297803
score of 0_15_740Li.jpeg is:
-42372554.78544548
score of 1_74_740Li.jpeg is:
-49325052.52103955
score of 4_94_740Li.jpeg is:
-51772298.768716365
score of 2_46_740Li.jpeg is:
-57793408.03108186
score of 3_27_740Li.jpeg is:
-46505441.57459461
score of 3_10_740Li.jpeg is:
-46505441.57459461
score of 2_71_740Li.jpeg is:
-57250150.747711465
score of 5_97_740Li.jpeg is:
-47521435.94637722
score of 0_88_740Li.jpeg is:
-48416508.24452379
score of 3_45_740Li.jpeg is:
-46505441.57459461
score of 2_24_740Li.jpeg is:
-53723355.52417934
score of 2_13_740Li.jpeg is:
-53945282.03077502
score of 3_72_740Li.jpeg is:
-46505441.57459461
score of 3_63_740Li.jpeg is:
-46505441.57459461
score of 3_54_740Li.jpeg is:
-46505441.57459461
score of 2_35_740Li.jpeg is:
-45924170.09034616
score of 0_99_740Li.jpeg is:
-33844329.12820677
score of 5_86_740Li.jpeg is:
-52140523.50031584
score of 2_60_740Li.jpeg is:
-44892765.067313865
score of 2_57_740Li.jpeg is:
-44179376.18479343
score of 3_36_740Li.jpeg is:
-46505441.57459461
score of 4_85_740Li.jpeg is:
-46932633.41284795
score of 1_2_740Li.jpeg is:
-58934979.65738185
score of 1_65_740Li.jpeg is:
-64752503.33690908
score of 1_52_740Li.jpeg is:
-54744824.3703288
score of 0_33_740Li.jpeg is:
-55164860.443068594
score of 5_9_740Li.jpeg is:
-51120944.56872901
score of 4_18_740Li.jpeg is:
-52590474.88518416
score of 0_66_740Li.jpeg is:
-49468645.728542745
score of 5_79_740Li.jpeg is:
-64356555.82662471
score of 0_51_740Li.jpeg is:
-49168732.40089275
score of 1_30_740Li.jpeg is:
-45606407.2554383
score of 2_9_740Li.jpeg is:
-48209781.39208834
score of 0_85_740Li.jpeg is:
-44270774.14240235
score of 3_48_740Li.jpeg is:
-46505441.57459461
score of 2_29_740Li.jpeg is:
-52456871.49153998
score of 4_99_740Li.jpeg is:
-61154972.16108146
score of 1_86_740Li.jpeg is:
-42785516.47168429
score of 2_83_740Li.jpeg is:
-45002277.497088954
score of 4_51_740Li.jpeg is:
-47955348.62727501
score of 5_30_740Li.jpeg is:
-54303182.21154334
score of 4_1_740Li.jpeg is:
-51052494.69745091
score of 0_18_740Li.jpeg is:
-57855663.07819955
score of 4_66_740Li.jpeg is:
-50640268.962507606
score of 1_79_740Li.jpeg is:
-64184429.26087976
score of 3_80_740Li.jpeg is:
-46505441.57459461
score of 5_52_740Li.jpeg is:
-51654438.651383735
score of 4_33_740Li.jpeg is:
-46737530.96784677
score of 3_1_740Li.jpeg is:
-46505441.57459461
score of 5_65_740Li.jpeg is:
-57795273.420995265
score of 5_37_740Li.jpeg is:
-55166881.894634835
score of 0_28_740Li.jpeg is:
-48987568.13041098
score of 1_49_740Li.jpeg is:
-48213985.16830639
score of 4_56_740Li.jpeg is:
-39567511.34165701
score of 4_61_740Li.jpeg is:
-56264690.24477926
score of 4_6_740Li.jpeg is:
-50122517.18555475
score of 2_84_740Li.jpeg is:
-45677390.52127054
score of 4_34_740Li.jpeg is:
-44055785.419935614
score of 5_55_740Li.jpeg is:
-42421086.23025149
score of 5_62_740Li.jpeg is:
-46969573.06133801
score of 3_6_740Li.jpeg is:
-46505441.57459461
score of 3_87_740Li.jpeg is:
-46505441.5745946
score of 3_78_740Li.jpeg is:
-46505441.57459461
score of 2_19_740Li.jpeg is:
-46262532.48176915
score of 0_82_740Li.jpeg is:
-58712998.95362015
score of 1_81_740Li.jpeg is:
-44672212.103885576
score of 2_98_740Li.jpeg is:
-50540426.417151675
score of 1_62_740Li.jpeg is:
-65917514.65622567
score of 1_5_740Li.jpeg is:
-57009964.67625849
score of 0_34_740Li.jpeg is:
-52755436.08089581
score of 1_55_740Li.jpeg is:
-45204946.619326726
score of 0_61_740Li.jpeg is:
-59105737.36593652
score of 1_37_740Li.jpeg is:
-57260232.0558168
score of 4_28_740Li.jpeg is:
-45728110.08185862
score of 5_49_740Li.jpeg is:
-48378388.89744891
score of 0_56_740Li.jpeg is:
-44982354.51934718
score of 5_81_740Li.jpeg is:
-46159256.51836037
score of 3_64_740Li.jpeg is:
-46505441.57459461
score of 2_32_740Li.jpeg is:
-59304277.13335421
score of 3_53_740Li.jpeg is:
-46505441.57459461
score of 4_82_740Li.jpeg is:
-47732283.68117841
score of 2_67_740Li.jpeg is:
-52456871.49153998
score of 3_31_740Li.jpeg is:
-46505441.57459461
score of 2_50_740Li.jpeg is:
-50565322.63195251
score of 3_20_740Li.jpeg is:
-46505441.57459461
score of 2_41_740Li.jpeg is:
-59201945.73635964
score of 2_76_740Li.jpeg is:
-47369337.149201944
score of 3_17_740Li.jpeg is:
-46505441.57459461
score of 4_93_740Li.jpeg is:
-44500163.87083491
score of 2_23_740Li.jpeg is:
-52709680.629722506
score of 3_42_740Li.jpeg is:
-46505441.57459461
score of 3_75_740Li.jpeg is:
-46505441.57459461
score of 2_14_740Li.jpeg is:
-47029193.142145954
score of 5_90_740Li.jpeg is:
-49029694.27506136
score of 4_39_740Li.jpeg is:
-46389582.44005535
score of 1_26_740Li.jpeg is:
-54793005.270483494
score of 0_47_740Li.jpeg is:
-42669866.41531504
score of 5_58_740Li.jpeg is:
-45700333.1312014
score of 0_70_740Li.jpeg is:
-49006410.8700541
score of 1_11_740Li.jpeg is:
-49108456.179139376
score of 0_25_740Li.jpeg is:
-43033701.30824816
score of 1_44_740Li.jpeg is:
-52300408.531060755
score of 1_73_740Li.jpeg is:
-48361608.27200149
score of 0_12_740Li.jpeg is:
-50853090.55267278
score of 2_89_740Li.jpeg is:
-51759060.81338767
score of 0_0_740Li.jpeg is:
-44782719.29271476
score of 1_90_740Li.jpeg is:
-42868517.66980916
score of 0_93_740Li.jpeg is:
-46705702.39971177
score of 3_69_740Li.jpeg is:
-46505441.57459461
score of 2_3_740Li.jpeg is:
-58251553.49721709
score of 3_96_740Li.jpeg is:
-46505441.57459461
score of 5_73_740Li.jpeg is:
-47759166.06744932
score of 4_12_740Li.jpeg is:
-48962002.40626883
score of 4_25_740Li.jpeg is:
-49227073.11604134
score of 5_44_740Li.jpeg is:
-59867772.90928775
score of 5_3_740Li.jpeg is:
-54249786.61658301
score of 2_95_740Li.jpeg is:
-47370924.58871936
score of 4_70_740Li.jpeg is:
-50163538.63319333
score of 1_8_740Li.jpeg is:
-52333114.58648451
score of 5_11_740Li.jpeg is:
-47379031.917380854
score of 0_39_740Li.jpeg is:
-49338335.67403486
score of 5_26_740Li.jpeg is:
-53024574.476952344
score of 4_47_740Li.jpeg is:
-46224185.02471627
score of 1_58_740Li.jpeg is:
-39851443.55721482
score of 0_75_740Li.jpeg is:
-54492043.33982542
score of 1_14_740Li.jpeg is:
-48693070.292849146
score of 1_23_740Li.jpeg is:
-46525696.90722794
score of 0_42_740Li.jpeg is:
-40746349.250042886
score of 0_5_740Li.jpeg is:
-48894421.20532932
score of 1_76_740Li.jpeg is:
-48318576.38429274
score of 4_69_740Li.jpeg is:
-62939018.47276944
score of 0_17_740Li.jpeg is:
-62012380.79218939
score of 0_20_740Li.jpeg is:
-52067548.537483044
score of 1_41_740Li.jpeg is:
-58016958.91627549
score of 1_89_740Li.jpeg is:
-48783840.008507356
score of 4_96_740Li.jpeg is:
-43373326.50260656
score of 2_73_740Li.jpeg is:
-47063050.33411461
score of 3_12_740Li.jpeg is:
-46505441.57459461
score of 3_25_740Li.jpeg is:
-46505441.57459461
score of 2_44_740Li.jpeg is:
-52514228.77745621
score of 5_95_740Li.jpeg is:
-53496395.56749166
score of 3_70_740Li.jpeg is:
-46505441.57459461
score of 2_11_740Li.jpeg is:
-46983584.98832441
score of 2_26_740Li.jpeg is:
-59784973.43871623
score of 3_47_740Li.jpeg is:
-46505441.57459461
score of 4_20_740Li.jpeg is:
-47830508.91957496
score of 5_41_740Li.jpeg is:
-50441222.63664633
score of 5_76_740Li.jpeg is:
-56983579.727654055
score of 0_69_740Li.jpeg is:
-37751597.095121704
score of 4_17_740Li.jpeg is:
-51964358.641138956
score of 3_93_740Li.jpeg is:
-46505441.57459461
score of 2_6_740Li.jpeg is:
-47563676.97241142
score of 5_23_740Li.jpeg is:
-54765330.81208695
score of 4_42_740Li.jpeg is:
-49952402.9929771
score of 4_75_740Li.jpeg is:
-49109457.6164637
score of 5_14_740Li.jpeg is:
-41684708.16045639
score of 2_90_740Li.jpeg is:
-42751971.40248669
score of 5_6_740Li.jpeg is:
-51724628.81231862
score of 3_39_740Li.jpeg is:
-46505441.57459461
score of 2_58_740Li.jpeg is:
-43411678.722864814
score of 1_95_740Li.jpeg is:
-49612898.35219415
score of 5_89_740Li.jpeg is:
-63081063.52205094
score of 0_96_740Li.jpeg is:
-52292009.916450925
score of 0_87_740Li.jpeg is:
-51166643.784697086
score of 5_98_740Li.jpeg is:
-48405692.93345092
score of 1_84_740Li.jpeg is:
-48490872.48261526
score of 3_28_740Li.jpeg is:
-46505441.57459461
score of 2_49_740Li.jpeg is:
-49762098.989337675
score of 0_8_740Li.jpeg is:
-49337639.87353537
score of 2_81_740Li.jpeg is:
-47568296.018955
score of 4_64_740Li.jpeg is:
-48574118.3361882
score of 4_3_740Li.jpeg is:
-50805833.56272915
score of 5_32_740Li.jpeg is:
-44985304.95558668
score of 4_53_740Li.jpeg is:
-51982118.941792116
score of 3_82_740Li.jpeg is:
-46505441.57459461
score of 0_78_740Li.jpeg is:
-46930067.93849533
score of 5_67_740Li.jpeg is:
-47539246.83357975
score of 3_3_740Li.jpeg is:
-46505441.57459461
score of 1_19_740Li.jpeg is:
-48399345.526400745
score of 4_31_740Li.jpeg is:
-47935378.5428324
score of 5_50_740Li.jpeg is:
-63084356.20362936
score of 2_37_740Li.jpeg is:
-52214230.008172944
score of 3_56_740Li.jpeg is:
-46505441.57459461
score of 3_61_740Li.jpeg is:
-46505441.57459461
score of 5_84_740Li.jpeg is:
-55656732.59966392
score of 3_34_740Li.jpeg is:
-46505441.57459461
score of 2_55_740Li.jpeg is:
-50825565.031559475
score of 2_62_740Li.jpeg is:
-60766912.29554102
score of 4_87_740Li.jpeg is:
-49157158.6163586
score of 1_98_740Li.jpeg is:
-47386734.21763807
score of 0_31_740Li.jpeg is:
-39786742.89134158
score of 1_50_740Li.jpeg is:
-63425816.174659185
score of 4_78_740Li.jpeg is:
-47235294.51714532
score of 1_67_740Li.jpeg is:
-50936573.54906151
score of 1_0_740Li.jpeg is:
-44859494.46522721
score of 5_19_740Li.jpeg is:
-42474897.133986816
score of 1_32_740Li.jpeg is:
-57867595.53615667
score of 0_53_740Li.jpeg is:
-49997108.377021015
score of 0_64_740Li.jpeg is:
-52752070.19044926
score of 4_89_740Li.jpeg is:
-61331051.971165136
score of 1_96_740Li.jpeg is:
-50028724.2067183
score of 2_39_740Li.jpeg is:
-45718438.57877661
score of 3_58_740Li.jpeg is:
-46505441.57459461
score of 0_95_740Li.jpeg is:
-49997108.377021015
score of 5_75_740Li.jpeg is:
-53886931.57990672
score of 4_14_740Li.jpeg is:
-44182799.83701036
score of 4_23_740Li.jpeg is:
-52330114.63099908
score of 5_42_740Li.jpeg is:
-49065727.15717449
score of 2_5_740Li.jpeg is:
-59281376.81641324
score of 3_90_740Li.jpeg is:
-46505441.57459461
score of 4_76_740Li.jpeg is:
-56403628.11350552
score of 1_69_740Li.jpeg is:
-54185611.526728064
score of 5_17_740Li.jpeg is:
-52470156.68760345
score of 5_20_740Li.jpeg is:
-52903304.62453545
score of 4_41_740Li.jpeg is:
-43426972.36542638
score of 5_5_740Li.jpeg is:
-45146378.78867501
score of 2_93_740Li.jpeg is:
-48006243.11998837
score of 4_95_740Li.jpeg is:
-51982118.941792116
score of 3_26_740Li.jpeg is:
-46505441.57459461
score of 2_47_740Li.jpeg is:
-44393863.37916996
score of 2_70_740Li.jpeg is:
-51083541.55192998
score of 3_11_740Li.jpeg is:
-46505441.57459461
score of 0_89_740Li.jpeg is:
-55867095.25316484
score of 5_96_740Li.jpeg is:
-44543611.71841986
score of 2_25_740Li.jpeg is:
-53073516.42025192
score of 3_44_740Li.jpeg is:
-46505441.57459461
score of 3_73_740Li.jpeg is:
-46505441.57459461
score of 2_12_740Li.jpeg is:
-48077127.47300586
score of 1_20_740Li.jpeg is:
-48184545.47682893
score of 0_41_740Li.jpeg is:
-44550930.13253972
score of 0_76_740Li.jpeg is:
-57140563.12812696
score of 5_69_740Li.jpeg is:
-49129490.17382699
score of 1_17_740Li.jpeg is:
-55629694.686608374
score of 0_6_740Li.jpeg is:
-48965767.58615276
score of 0_23_740Li.jpeg is:
-53621382.11447312
score of 1_42_740Li.jpeg is:
-41779640.63132003
score of 1_75_740Li.jpeg is:
-55097667.59075556
score of 0_14_740Li.jpeg is:
-51247481.4803494
score of 1_64_740Li.jpeg is:
-46558712.55708856
score of 1_3_740Li.jpeg is:
-51995238.729581736
score of 0_32_740Li.jpeg is:
-47679207.651275955
score of 1_53_740Li.jpeg is:
-49612898.35219415
score of 5_8_740Li.jpeg is:
-61620045.08142461
score of 5_78_740Li.jpeg is:
-49797293.64233554
score of 0_67_740Li.jpeg is:
-52144578.00288494
score of 4_19_740Li.jpeg is:
-64521128.143661395
score of 1_31_740Li.jpeg is:
-49716217.23467135
score of 0_50_740Li.jpeg is:
-47259536.89207334
score of 2_8_740Li.jpeg is:
-50773037.00963555
score of 3_62_740Li.jpeg is:
-46505441.57459461
score of 2_34_740Li.jpeg is:
-46339160.39283432
score of 3_55_740Li.jpeg is:
-46505441.57459461
score of 5_87_740Li.jpeg is:
-47525861.02040528
score of 0_98_740Li.jpeg is:
-59523321.92984763
score of 2_61_740Li.jpeg is:
-50003178.676696554
score of 3_37_740Li.jpeg is:
-46505441.57459461
score of 2_56_740Li.jpeg is:
-46400369.04875171
score of 4_84_740Li.jpeg is:
-50576503.61067201
score of 2_82_740Li.jpeg is:
-44825840.29194481
score of 5_31_740Li.jpeg is:
-57688803.142877154
score of 4_50_740Li.jpeg is:
-62362863.72101623
score of 1_78_740Li.jpeg is:
-52077708.57554653
score of 4_67_740Li.jpeg is:
-44104362.92226663
score of 0_19_740Li.jpeg is:
-44702717.52912088
score of 4_0_740Li.jpeg is:
-45793853.68585462
score of 3_81_740Li.jpeg is:
-46505441.57459461
score of 4_32_740Li.jpeg is:
-51696758.977404244
score of 5_53_740Li.jpeg is:
-53496395.56749166
score of 5_64_740Li.jpeg is:
-57589472.4252673
score of 3_0_740Li.jpeg is:
-46505441.57459461
score of 0_84_740Li.jpeg is:
-51643170.14178424
score of 2_28_740Li.jpeg is:
-47988355.586751364
score of 3_49_740Li.jpeg is:
-46505441.57459461
score of 1_87_740Li.jpeg is:
-46395320.33329199
score of 4_98_740Li.jpeg is:
-47709758.55271132
score of 5_82_740Li.jpeg is:
-49619017.39496825
score of 2_31_740Li.jpeg is:
-42274812.1042745
score of 3_50_740Li.jpeg is:
-46505441.57459461
score of 3_67_740Li.jpeg is:
-46505441.57459461
score of 4_81_740Li.jpeg is:
-48584770.335573286
score of 3_32_740Li.jpeg is:
-46505441.57459461
score of 2_53_740Li.jpeg is:
-47370924.58871936
score of 2_64_740Li.jpeg is:
-52009065.26293537
score of 0_37_740Li.jpeg is:
-49668634.16839616
score of 5_28_740Li.jpeg is:
-45055458.14342645
score of 4_49_740Li.jpeg is:
-46824595.70967406
score of 1_56_740Li.jpeg is:
-49506871.65952811
score of 1_61_740Li.jpeg is:
-52672285.23553911
score of 1_6_740Li.jpeg is:
-48370204.684245944
score of 3_98_740Li.jpeg is:
-46505441.57459461
score of 1_34_740Li.jpeg is:
-48060395.34629716
score of 0_55_740Li.jpeg is:
-48488390.8445123
score of 0_62_740Li.jpeg is:
-55072832.31400151
score of 0_81_740Li.jpeg is:
-43429477.35667932
score of 2_78_740Li.jpeg is:
-51278083.58650347
score of 3_19_740Li.jpeg is:
-46505441.57459461
score of 1_82_740Li.jpeg is:
-52680800.68512288
score of 4_62_740Li.jpeg is:
-47107087.222535774
score of 4_5_740Li.jpeg is:
-59366721.887103505
score of 5_34_740Li.jpeg is:
-45970707.55087205
score of 4_55_740Li.jpeg is:
-46707774.94955546
score of 2_87_740Li.jpeg is:
-41070950.336882964
score of 5_61_740Li.jpeg is:
-53611673.45601259
score of 3_5_740Li.jpeg is:
-46505441.57459461
score of 4_37_740Li.jpeg is:
-50698518.094080485
score of 1_28_740Li.jpeg is:
-47849246.58231191
score of 0_49_740Li.jpeg is:
-46600444.27655825
score of 5_56_740Li.jpeg is:
-42676013.98065819
score of 3_84_740Li.jpeg is:
-46505441.57459461
score of 3_95_740Li.jpeg is:
-46505441.57459461
score of 2_0_740Li.jpeg is:
-40652364.260795586
score of 1_39_740Li.jpeg is:
-44493895.03158034
score of 4_26_740Li.jpeg is:
-51099148.43032139
score of 5_47_740Li.jpeg is:
-50095040.27713176
score of 0_58_740Li.jpeg is:
-42912897.70887652
score of 5_70_740Li.jpeg is:
-51003728.575839706
score of 4_11_740Li.jpeg is:
-46786841.14782292
score of 2_96_740Li.jpeg is:
-47122426.38165024
score of 5_0_740Li.jpeg is:
-42840958.52096973
score of 5_25_740Li.jpeg is:
-57795823.33150043
score of 4_44_740Li.jpeg is:
-59475574.87363966
score of 4_73_740Li.jpeg is:
-51717882.070047945
score of 5_12_740Li.jpeg is:
-46822036.58246755
score of 1_93_740Li.jpeg is:
-46796809.10648998
score of 2_69_740Li.jpeg is:
-51878416.13899412
score of 0_90_740Li.jpeg is:
-50473934.12649682
score of 0_73_740Li.jpeg is:
-49694746.03949091
score of 1_12_740Li.jpeg is:
-48070951.274839476
score of 3_8_740Li.jpeg is:
-46505441.57459461
score of 1_25_740Li.jpeg is:
-55451330.5754631
score of 0_44_740Li.jpeg is:
-49513488.70565401
score of 3_89_740Li.jpeg is:
-46505441.57459461
score of 1_70_740Li.jpeg is:
-52275734.051261604
score of 0_11_740Li.jpeg is:
-47715945.12433979
score of 4_8_740Li.jpeg is:
-47302292.34431721
score of 5_39_740Li.jpeg is:
-52963214.05206013
score of 0_26_740Li.jpeg is:
-54574180.3149032
score of 1_47_740Li.jpeg is:
-44608719.52914808
score of 4_58_740Li.jpeg is:
-42988226.027444765
score of 0_3_740Li.jpeg is:
-56136808.70369242
score of 2_75_740Li.jpeg is:
-49228529.23124034
score of 3_14_740Li.jpeg is:
-46505441.57459461
score of 3_23_740Li.jpeg is:
-46505441.57459461
score of 2_42_740Li.jpeg is:
-44335575.94289539
score of 4_90_740Li.jpeg is:
-44202557.20932082
score of 3_76_740Li.jpeg is:
-46505441.57459461
score of 2_17_740Li.jpeg is:
-53908784.945891015
score of 2_20_740Li.jpeg is:
-44939722.204774536
score of 3_41_740Li.jpeg is:
-46505441.57459461
score of 5_93_740Li.jpeg is:
-49425795.45198107
score of 4_97_740Li.jpeg is:
-43412394.80658534
score of 1_88_740Li.jpeg is:
-48261440.49165448
score of 3_13_740Li.jpeg is:
-46505441.57459461
score of 2_72_740Li.jpeg is:
-49790294.654005826
score of 2_45_740Li.jpeg is:
-48012860.855543934
score of 3_24_740Li.jpeg is:
-46505441.57459461
score of 5_94_740Li.jpeg is:
-64854784.61581564
score of 2_10_740Li.jpeg is:
-46320420.84018169
score of 3_71_740Li.jpeg is:
-46505441.57459461
score of 3_46_740Li.jpeg is:
-46505441.57459461
score of 2_27_740Li.jpeg is:
-48364142.762388065
score of 1_15_740Li.jpeg is:
-42530439.02916047
score of 0_74_740Li.jpeg is:
-52092845.12806077
score of 0_43_740Li.jpeg is:
-47844993.546707794
score of 1_22_740Li.jpeg is:
-49114008.350148514
score of 0_4_740Li.jpeg is:
-57974994.475346096
score of 0_16_740Li.jpeg is:
-39681678.34587249
score of 4_68_740Li.jpeg is:
-47084684.11600018
score of 1_77_740Li.jpeg is:
-50885578.65111582
score of 1_40_740Li.jpeg is:
-44465519.40226186
score of 0_21_740Li.jpeg is:
-47168538.70518963
score of 2_59_740Li.jpeg is:
-53009883.683295846
score of 3_38_740Li.jpeg is:
-46505441.57459461
score of 1_94_740Li.jpeg is:
-43137589.4964031
score of 0_97_740Li.jpeg is:
-44454192.66702661
score of 5_88_740Li.jpeg is:
-40260892.58903773
score of 5_40_740Li.jpeg is:
-45620127.703764565
score of 4_21_740Li.jpeg is:
-48959116.653286204
score of 4_16_740Li.jpeg is:
-59155575.171957046
score of 0_68_740Li.jpeg is:
-41387081.15569575
score of 5_77_740Li.jpeg is:
-56383926.22462092
score of 3_92_740Li.jpeg is:
-46505441.57459461
score of 2_7_740Li.jpeg is:
-44507189.340872064
score of 4_43_740Li.jpeg is:
-49574043.022829756
score of 5_22_740Li.jpeg is:
-46748307.372956894
score of 5_15_740Li.jpeg is:
-49849605.616498426
score of 4_74_740Li.jpeg is:
-47031789.98111584
score of 2_91_740Li.jpeg is:
-49397758.86843895
score of 5_7_740Li.jpeg is:
-48913425.58879252
score of 0_9_740Li.jpeg is:
-49892003.85317217
score of 2_80_740Li.jpeg is:
-46074476.7024869
score of 4_2_740Li.jpeg is:
-48611708.67214309
score of 4_65_740Li.jpeg is:
-51590480.88964507
score of 4_52_740Li.jpeg is:
-46824954.38728634
score of 5_33_740Li.jpeg is:
-49390308.88428341
score of 3_83_740Li.jpeg is:
-46505441.57459461
score of 1_18_740Li.jpeg is:
-52018586.1850537
score of 3_2_740Li.jpeg is:
-46505441.57459461
score of 5_66_740Li.jpeg is:
-63453497.84836075
score of 0_79_740Li.jpeg is:
-47591180.4885297
score of 5_51_740Li.jpeg is:
-49818047.1329179
score of 4_30_740Li.jpeg is:
-49063667.9173797
score of 5_99_740Li.jpeg is:
-62150515.257449076
score of 0_86_740Li.jpeg is:
-48012409.663148165
score of 1_85_740Li.jpeg is:
-46384636.66236739
score of 2_48_740Li.jpeg is:
-59178817.63498999
score of 3_29_740Li.jpeg is:
-46505441.57459461
score of 1_51_740Li.jpeg is:
-47581679.28749192
score of 0_30_740Li.jpeg is:
-47976468.20192935
score of 1_1_740Li.jpeg is:
-63225143.669227324
score of 5_18_740Li.jpeg is:
-49398385.77534512
score of 1_66_740Li.jpeg is:
-50189921.848858625
score of 4_79_740Li.jpeg is:
-46372220.432127446
score of 0_52_740Li.jpeg is:
-55890908.63596247
score of 1_33_740Li.jpeg is:
-50392869.717123844
score of 0_65_740Li.jpeg is:
-59178878.76455218
score of 3_57_740Li.jpeg is:
-46505441.57459461
score of 2_36_740Li.jpeg is:
-49790294.654005826
score of 3_60_740Li.jpeg is:
-46505441.57459461
score of 5_85_740Li.jpeg is:
-44941260.26708037
score of 2_54_740Li.jpeg is:
-49069983.24067177
score of 3_35_740Li.jpeg is:
-46505441.57459461
score of 2_63_740Li.jpeg is:
-52822494.285370804
score of 1_99_740Li.jpeg is:
-36579212.71095
score of 4_86_740Li.jpeg is:
-48874013.88796022
score of 2_18_740Li.jpeg is:
-47697142.66787068
score of 3_79_740Li.jpeg is:
-46505441.57459461
score of 0_83_740Li.jpeg is:
-58059406.27248588
score of 1_80_740Li.jpeg is:
-50181187.61224959
score of 4_57_740Li.jpeg is:
-56617254.80071817
score of 1_48_740Li.jpeg is:
-49476060.012590006
score of 0_29_740Li.jpeg is:
-52144578.00288494
score of 5_36_740Li.jpeg is:
-48892361.395904854
score of 4_7_740Li.jpeg is:
-48281429.451010995
score of 4_60_740Li.jpeg is:
-48563726.319431856
score of 2_85_740Li.jpeg is:
-44299342.83950995
score of 5_54_740Li.jpeg is:
-43221157.94415789
score of 4_35_740Li.jpeg is:
-45665631.626940064
score of 3_7_740Li.jpeg is:
-46505441.57459461
score of 5_63_740Li.jpeg is:
-60079701.97808497
score of 3_86_740Li.jpeg is:
-46505441.57459461
score of 5_80_740Li.jpeg is:
-46874260.86614736
score of 3_65_740Li.jpeg is:
-46505441.57459461
score of 3_52_740Li.jpeg is:
-46505441.57459461
score of 2_33_740Li.jpeg is:
-45140791.64071578
score of 4_83_740Li.jpeg is:
-50245507.71701511
score of 2_66_740Li.jpeg is:
-53502638.64152406
score of 2_51_740Li.jpeg is:
-48624414.43719547
score of 3_30_740Li.jpeg is:
-46505441.57459461
score of 2_99_740Li.jpeg is:
-41585043.46513225
score of 1_4_740Li.jpeg is:
-50080980.24893065
score of 1_63_740Li.jpeg is:
-53288809.98968189
score of 1_54_740Li.jpeg is:
-46676709.71411726
score of 0_35_740Li.jpeg is:
-43373967.61681492
score of 0_60_740Li.jpeg is:
-40387409.671483114
score of 0_57_740Li.jpeg is:
-43517909.76791156
score of 5_48_740Li.jpeg is:
-51138937.239278525
score of 4_29_740Li.jpeg is:
-44104362.92226663
score of 1_36_740Li.jpeg is:
-45773468.65723348
score of 5_59_740Li.jpeg is:
-44936131.99584869
score of 0_46_740Li.jpeg is:
-66384511.01203205
score of 1_27_740Li.jpeg is:
-50486257.204760015
score of 4_38_740Li.jpeg is:
-54754570.65151335
score of 1_10_740Li.jpeg is:
-46549317.546623714
score of 0_71_740Li.jpeg is:
-61847050.30499469
score of 1_45_740Li.jpeg is:
-49325052.52103955
score of 0_24_740Li.jpeg is:
-63951412.03679567
score of 0_13_740Li.jpeg is:
-58166327.74457199
score of 1_72_740Li.jpeg is:
-45773468.65723348
score of 2_88_740Li.jpeg is:
-50625655.21096813
score of 0_1_740Li.jpeg is:
-51671122.99752752
score of 2_40_740Li.jpeg is:
-42958225.26952668
score of 3_21_740Li.jpeg is:
-46505441.57459461
score of 3_16_740Li.jpeg is:
-46505441.57459461
score of 2_77_740Li.jpeg is:
-53809776.346733764
score of 4_92_740Li.jpeg is:
-37476608.33872401
score of 3_43_740Li.jpeg is:
-46505441.57459461
score of 2_22_740Li.jpeg is:
-49717741.14108528
score of 2_15_740Li.jpeg is:
-43155337.62317634
score of 3_74_740Li.jpeg is:
-46505441.57459461
score of 5_91_740Li.jpeg is:
-54762829.182886556
score of 2_2_740Li.jpeg is:
-58389876.99660618
score of 3_97_740Li.jpeg is:
-46505441.57459461
score of 4_13_740Li.jpeg is:
-51658932.04850895
score of 5_72_740Li.jpeg is:
-48892361.395904854
score of 5_45_740Li.jpeg is:
-48004432.721242785
score of 4_24_740Li.jpeg is:
-61747271.233953804
score of 5_2_740Li.jpeg is:
-53842270.18817735
score of 2_94_740Li.jpeg is:
-58161992.93578453
score of 1_9_740Li.jpeg is:
-48998287.84533532
score of 5_10_740Li.jpeg is:
-49940603.47105689
score of 4_71_740Li.jpeg is:
-55552937.5825071
score of 1_59_740Li.jpeg is:
-49321996.557596564
score of 4_46_740Li.jpeg is:
-54027925.572061956
score of 5_27_740Li.jpeg is:
-53149038.128807604
score of 0_38_740Li.jpeg is:
-49217283.40154322
score of 1_91_740Li.jpeg is:
-80624626.65610246
score of 0_92_740Li.jpeg is:
-46797853.20276668
score of 3_68_740Li.jpeg is:
-46505441.57459461
