score of 0_17_40i.jpeg is:
58.129678727646116
score of 0_4_40i.jpeg is:
-39.34429837150469
score of 0_11_40i.jpeg is:
6.843598809609941
score of 0_14_40i.jpeg is:
53.921261367198895
score of 0_20_40i.jpeg is:
46.42277949936033
score of 0_12_40i.jpeg is:
6.843598809609941
score of 0_19_40i.jpeg is:
5.5777329379703255
score of 0_18_40i.jpeg is:
-79.85382786278916
score of 0_7_40i.jpeg is:
5.8166838448460085
