score of 1_10_320i.jpeg is:
-40773016.74881802
score of 3_15_320i.jpeg is:
-38479820.130690895
score of 5_69_320i.jpeg is:
-36759037.28973174
score of 2_5_320i.jpeg is:
-42441671.408688486
score of 0_16_320i.jpeg is:
-42755260.88914492
score of 2_13_320i.jpeg is:
-42550290.03223913
score of 4_15_320i.jpeg is:
-39207201.786563076
score of 2_69_320i.jpeg is:
-28504109.45488008
score of 5_13_320i.jpeg is:
-35615407.5092219
score of 0_78_320i.jpeg is:
-40039923.46816976
score of 5_26_320i.jpeg is:
-34710613.63787615
score of 0_90_320i.jpeg is:
-34364685.993047126
score of 0_59_320i.jpeg is:
-37237785.021961465
score of 2_95_320i.jpeg is:
-39887252.366091006
score of 1_96_320i.jpeg is:
-35888476.81204894
score of 3_93_320i.jpeg is:
-38479820.130690895
score of 4_20_320i.jpeg is:
-41717917.42381821
score of 0_23_320i.jpeg is:
-29326481.415869515
score of 2_26_320i.jpeg is:
-40783280.37048472
score of 5_95_320i.jpeg is:
-28350444.792949326
score of 0_6_320i.jpeg is:
-35352482.619522944
score of 4_93_320i.jpeg is:
-39486712.822252184
score of 1_25_320i.jpeg is:
-34654731.41009571
score of 3_20_320i.jpeg is:
-38479820.130690895
score of 3_34_320i.jpeg is:
-38479820.130690895
score of 1_31_320i.jpeg is:
-41923150.15958009
score of 4_87_320i.jpeg is:
-42951524.88221197
score of 5_48_320i.jpeg is:
-43185738.21741355
score of 5_81_320i.jpeg is:
-38191313.599992685
score of 2_32_320i.jpeg is:
-29183347.462324597
score of 0_37_320i.jpeg is:
-37237785.021961465
score of 4_34_320i.jpeg is:
-43864031.819204904
score of 3_87_320i.jpeg is:
-38479820.130690895
score of 1_82_320i.jpeg is:
-38021215.6284477
score of 2_81_320i.jpeg is:
-44257440.36097846
score of 2_48_320i.jpeg is:
-35500139.80667021
score of 4_4_320i.jpeg is:
-31931181.837552365
score of 0_84_320i.jpeg is:
-33731598.002203606
score of 5_32_320i.jpeg is:
-36804672.03178426
score of 2_8_320i.jpeg is:
-40004624.728306584
score of 5_64_320i.jpeg is:
-44391034.48084603
score of 4_62_320i.jpeg is:
-33218895.980174437
score of 3_18_320i.jpeg is:
-38479820.130690895
score of 1_2_320i.jpeg is:
-40510053.02143721
score of 2_64_320i.jpeg is:
-31520718.119245134
score of 0_61_320i.jpeg is:
-43569546.62936774
score of 3_62_320i.jpeg is:
-38479820.130690895
score of 1_67_320i.jpeg is:
-41862880.63179564
score of 4_18_320i.jpeg is:
-36936229.89013866
score of 1_73_320i.jpeg is:
-33829101.117767714
score of 3_76_320i.jpeg is:
-38479820.130690895
score of 0_75_320i.jpeg is:
-36723579.234953634
score of 2_70_320i.jpeg is:
-35861719.413613155
score of 4_76_320i.jpeg is:
-38754008.34445769
score of 5_70_320i.jpeg is:
-36038118.28848704
score of 5_0_320i.jpeg is:
-26673808.27941705
score of 3_57_320i.jpeg is:
-38479820.130690895
score of 1_52_320i.jpeg is:
-41392172.47467657
score of 3_1_320i.jpeg is:
-38479820.130690895
score of 2_51_320i.jpeg is:
-42505841.51219002
score of 2_98_320i.jpeg is:
-41146336.72762474
score of 0_54_320i.jpeg is:
-30257134.782114178
score of 1_28_320i.jpeg is:
-33708674.559734
score of 4_57_320i.jpeg is:
-41196442.950894915
score of 5_98_320i.jpeg is:
-34636372.49849298
score of 5_51_320i.jpeg is:
-35245300.99931575
score of 5_45_320i.jpeg is:
-34726960.54222167
score of 4_43_320i.jpeg is:
-45140752.820844814
score of 3_39_320i.jpeg is:
-38479820.130690895
score of 0_40_320i.jpeg is:
-36381368.521727525
score of 0_89_320i.jpeg is:
-39468139.15357032
score of 2_45_320i.jpeg is:
-42801741.87721806
score of 4_9_320i.jpeg is:
-35113580.62692083
score of 1_46_320i.jpeg is:
-44524488.74890167
score of 3_43_320i.jpeg is:
-38479820.130690895
score of 4_39_320i.jpeg is:
-38398023.67730582
score of 0_0_320i.jpeg is:
-44439287.6663154
score of 5_93_320i.jpeg is:
-42762957.38682193
score of 2_20_320i.jpeg is:
-34099292.431120165
score of 0_25_320i.jpeg is:
-35209135.36453423
score of 3_26_320i.jpeg is:
-38479820.130690895
score of 1_23_320i.jpeg is:
-25432351.802187487
score of 4_95_320i.jpeg is:
-30774927.124707922
score of 2_93_320i.jpeg is:
-29730586.773522295
score of 0_96_320i.jpeg is:
-42944756.47712434
score of 5_20_320i.jpeg is:
-33044088.452846423
score of 4_26_320i.jpeg is:
-35676131.92526864
score of 3_95_320i.jpeg is:
-38479820.130690895
score of 1_90_320i.jpeg is:
-32298421.084414046
score of 1_59_320i.jpeg is:
-42400491.49283594
score of 1_84_320i.jpeg is:
-33112963.546932556
score of 3_81_320i.jpeg is:
-38479820.130690895
score of 3_48_320i.jpeg is:
-38479820.130690895
score of 4_32_320i.jpeg is:
-46955290.007709034
score of 5_34_320i.jpeg is:
-39681056.65949137
score of 0_82_320i.jpeg is:
-39144155.584569156
score of 4_2_320i.jpeg is:
-47161449.892646365
score of 2_87_320i.jpeg is:
-29108612.3413056
score of 4_48_320i.jpeg is:
-42566689.992195904
score of 4_81_320i.jpeg is:
-29152437.759154424
score of 1_37_320i.jpeg is:
-42400491.49283594
score of 3_32_320i.jpeg is:
-38479820.130690895
score of 0_31_320i.jpeg is:
-41358898.45489057
score of 2_34_320i.jpeg is:
-40245494.384800024
score of 5_87_320i.jpeg is:
-42159732.798751175
score of 3_69_320i.jpeg is:
-38479820.130690895
score of 4_13_320i.jpeg is:
-37666477.570808984
score of 5_15_320i.jpeg is:
-34322854.76306038
score of 1_9_320i.jpeg is:
-33720813.30383904
score of 4_69_320i.jpeg is:
-41661998.37022055
score of 3_13_320i.jpeg is:
-38479820.130690895
score of 1_16_320i.jpeg is:
-45186098.040403046
score of 2_15_320i.jpeg is:
-37063895.04934769
score of 0_10_320i.jpeg is:
-34861592.006030396
score of 2_3_320i.jpeg is:
-33951911.733346015
score of 1_78_320i.jpeg is:
-48655174.34352582
score of 4_98_320i.jpeg is:
-40585466.32303617
score of 4_51_320i.jpeg is:
-41167229.31476643
score of 0_28_320i.jpeg is:
-35455291.31096979
score of 5_57_320i.jpeg is:
-35417813.81576418
score of 1_54_320i.jpeg is:
-28873273.81808394
score of 3_51_320i.jpeg is:
-38479820.130690895
score of 3_98_320i.jpeg is:
-38479820.130690895
score of 3_7_320i.jpeg is:
-38479820.130690895
score of 0_52_320i.jpeg is:
-37645152.0393017
score of 2_57_320i.jpeg is:
-39394575.92943942
score of 2_43_320i.jpeg is:
-44782305.92686864
score of 0_46_320i.jpeg is:
-46349489.46311386
score of 5_39_320i.jpeg is:
-48738925.147112235
score of 3_45_320i.jpeg is:
-38479820.130690895
score of 1_40_320i.jpeg is:
-39714032.664357
score of 1_89_320i.jpeg is:
-36088020.41931153
score of 5_43_320i.jpeg is:
-34650465.48591083
score of 2_39_320i.jpeg is:
-31428301.9151093
score of 4_45_320i.jpeg is:
-34988504.67618296
score of 0_67_320i.jpeg is:
-33359078.51304167
score of 2_62_320i.jpeg is:
-37802939.215753846
score of 1_4_320i.jpeg is:
-37725050.98158904
score of 5_18_320i.jpeg is:
-34335196.72469023
score of 1_61_320i.jpeg is:
-44868617.32407425
score of 3_64_320i.jpeg is:
-38479820.130690895
score of 5_62_320i.jpeg is:
-30440885.863469694
score of 2_18_320i.jpeg is:
-41321307.89755115
score of 4_64_320i.jpeg is:
-46999303.234051414
score of 4_70_320i.jpeg is:
-40265536.34504377
score of 5_6_320i.jpeg is:
-43231993.80930645
score of 5_76_320i.jpeg is:
-33401029.932133775
score of 3_70_320i.jpeg is:
-38479820.130690895
score of 1_75_320i.jpeg is:
-48005173.08554185
score of 2_76_320i.jpeg is:
-36352596.16463708
score of 0_73_320i.jpeg is:
-30313923.32704542
score of 0_79_320i.jpeg is:
-34424407.48329064
score of 1_11_320i.jpeg is:
-37322733.31295673
score of 3_14_320i.jpeg is:
-38479820.130690895
score of 0_17_320i.jpeg is:
-27561994.379925374
score of 2_12_320i.jpeg is:
-35442018.53807295
score of 5_68_320i.jpeg is:
-43638645.600239746
score of 2_4_320i.jpeg is:
-37182029.29629017
score of 4_14_320i.jpeg is:
-39252901.72503003
score of 5_12_320i.jpeg is:
-33805190.385965556
score of 2_68_320i.jpeg is:
-29175656.99374064
score of 4_86_320i.jpeg is:
-41273565.31805839
score of 3_35_320i.jpeg is:
-38479820.130690895
score of 1_30_320i.jpeg is:
-35394856.535578094
score of 2_33_320i.jpeg is:
-39774369.74206227
score of 0_36_320i.jpeg is:
-40811719.082458094
score of 5_49_320i.jpeg is:
-39588699.55223706
score of 5_80_320i.jpeg is:
-27864984.64140939
score of 3_86_320i.jpeg is:
-38479820.130690895
score of 1_83_320i.jpeg is:
-42456410.95991415
score of 4_35_320i.jpeg is:
-37830080.494116455
score of 5_33_320i.jpeg is:
-39243186.19517305
score of 4_5_320i.jpeg is:
-33761540.26898881
score of 2_80_320i.jpeg is:
-43899811.59254643
score of 2_49_320i.jpeg is:
-43352244.868951075
score of 0_85_320i.jpeg is:
-37518445.781411685
score of 0_91_320i.jpeg is:
-32624197.0200766
score of 0_58_320i.jpeg is:
-41156706.98261276
score of 2_94_320i.jpeg is:
-41949669.79476221
score of 5_27_320i.jpeg is:
-38792198.34025351
score of 4_21_320i.jpeg is:
-39188084.05801958
score of 1_97_320i.jpeg is:
-41505953.204919405
score of 3_92_320i.jpeg is:
-38479820.130690895
score of 5_94_320i.jpeg is:
-38278255.10122079
score of 0_7_320i.jpeg is:
-36290831.9247819
score of 0_22_320i.jpeg is:
-40213970.56414873
score of 2_27_320i.jpeg is:
-42355863.46861298
score of 1_24_320i.jpeg is:
-28201221.78162834
score of 3_21_320i.jpeg is:
-38479820.130690895
score of 4_92_320i.jpeg is:
-45920696.8800248
score of 1_72_320i.jpeg is:
-32495559.19794722
score of 3_77_320i.jpeg is:
-38479820.130690895
score of 0_74_320i.jpeg is:
-35839424.03671219
score of 2_71_320i.jpeg is:
-29820365.413226336
score of 4_77_320i.jpeg is:
-31270316.67766091
score of 5_71_320i.jpeg is:
-39315854.24353966
score of 5_1_320i.jpeg is:
-38259639.07187592
score of 2_9_320i.jpeg is:
-37638624.930440165
score of 5_65_320i.jpeg is:
-33693746.02667547
score of 3_19_320i.jpeg is:
-38479820.130690895
score of 4_63_320i.jpeg is:
-41869396.39670373
score of 2_65_320i.jpeg is:
-34397020.25964401
score of 1_3_320i.jpeg is:
-36637300.11655913
score of 0_60_320i.jpeg is:
-44153518.4971363
score of 4_19_320i.jpeg is:
-38830472.584719695
score of 3_63_320i.jpeg is:
-38479820.130690895
score of 1_66_320i.jpeg is:
-36098724.03704203
score of 5_44_320i.jpeg is:
-39114748.79948609
score of 3_38_320i.jpeg is:
-38479820.130690895
score of 4_42_320i.jpeg is:
-34253590.55796819
score of 0_41_320i.jpeg is:
-33810583.32568795
score of 0_88_320i.jpeg is:
-31405996.769876093
score of 4_8_320i.jpeg is:
-33075730.025300197
score of 2_44_320i.jpeg is:
-35973868.32688343
score of 4_38_320i.jpeg is:
-42859350.29866584
score of 1_47_320i.jpeg is:
-29190140.78784553
score of 3_42_320i.jpeg is:
-38479820.130690895
score of 3_56_320i.jpeg is:
-38479820.130690895
score of 1_53_320i.jpeg is:
-37295409.499765985
score of 3_0_320i.jpeg is:
-38479820.130690895
score of 2_50_320i.jpeg is:
-35763788.55099985
score of 2_99_320i.jpeg is:
-43118910.614799
score of 0_55_320i.jpeg is:
-26984914.619128946
score of 4_56_320i.jpeg is:
-38312924.93044203
score of 1_29_320i.jpeg is:
-49466815.884252734
score of 5_99_320i.jpeg is:
-37768842.731217764
score of 5_50_320i.jpeg is:
-34359984.96049907
score of 4_33_320i.jpeg is:
-37824588.90856801
score of 1_85_320i.jpeg is:
-40802989.36153863
score of 3_80_320i.jpeg is:
-38479820.130690895
score of 3_49_320i.jpeg is:
-38479820.130690895
score of 0_83_320i.jpeg is:
-41998830.70816453
score of 2_86_320i.jpeg is:
-33803738.849068135
score of 4_3_320i.jpeg is:
-30705915.605413865
score of 5_35_320i.jpeg is:
-39766076.978838556
score of 1_36_320i.jpeg is:
-40573235.152470104
score of 3_33_320i.jpeg is:
-38479820.130690895
score of 4_49_320i.jpeg is:
-39527793.3577077
score of 4_80_320i.jpeg is:
-33757062.33183915
score of 5_86_320i.jpeg is:
-41337742.90653863
score of 0_30_320i.jpeg is:
-30720200.743093237
score of 2_35_320i.jpeg is:
-30436352.105550695
score of 2_21_320i.jpeg is:
-38607142.332888216
score of 0_24_320i.jpeg is:
-24824917.663386263
score of 0_1_320i.jpeg is:
-35271383.38393072
score of 5_92_320i.jpeg is:
-44877190.56861714
score of 4_94_320i.jpeg is:
-39048111.31035696
score of 3_27_320i.jpeg is:
-38479820.130690895
score of 1_22_320i.jpeg is:
-45702332.24363372
score of 5_21_320i.jpeg is:
-30856279.417146616
score of 2_92_320i.jpeg is:
-37049206.080813766
score of 0_97_320i.jpeg is:
-39107083.83975952
score of 3_94_320i.jpeg is:
-38479820.130690895
score of 1_91_320i.jpeg is:
-32997585.387675162
score of 1_58_320i.jpeg is:
-40312557.34638008
score of 4_27_320i.jpeg is:
-39084568.930107646
score of 1_79_320i.jpeg is:
-38033349.467196874
score of 4_12_320i.jpeg is:
-37023934.448655285
score of 3_68_320i.jpeg is:
-38479820.130690895
score of 1_8_320i.jpeg is:
-37959657.94959386
score of 5_14_320i.jpeg is:
-39361701.83714051
score of 3_12_320i.jpeg is:
-38479820.130690895
score of 1_17_320i.jpeg is:
-35365015.97002802
score of 4_68_320i.jpeg is:
-37469531.18796107
score of 2_2_320i.jpeg is:
-39904388.59419561
score of 2_14_320i.jpeg is:
-30454492.996271655
score of 0_11_320i.jpeg is:
-40973343.04180718
score of 5_38_320i.jpeg is:
-36506424.875541724
score of 2_42_320i.jpeg is:
-44892861.83560087
score of 0_47_320i.jpeg is:
-30122721.963082526
score of 3_44_320i.jpeg is:
-38479820.130690895
score of 1_41_320i.jpeg is:
-33865076.898937136
score of 1_88_320i.jpeg is:
-33131177.180705883
score of 2_38_320i.jpeg is:
-43180162.06741936
score of 5_42_320i.jpeg is:
-31022862.975215167
score of 4_44_320i.jpeg is:
-43160253.60004549
score of 4_99_320i.jpeg is:
-32405235.128239855
score of 4_50_320i.jpeg is:
-39572684.813304044
score of 5_56_320i.jpeg is:
-35083011.14633356
score of 0_29_320i.jpeg is:
-42337991.18307323
score of 1_55_320i.jpeg is:
-31776317.484100234
score of 3_50_320i.jpeg is:
-38479820.130690895
score of 3_99_320i.jpeg is:
-38479820.130690895
score of 3_6_320i.jpeg is:
-38479820.130690895
score of 0_53_320i.jpeg is:
-41049135.00739764
score of 2_56_320i.jpeg is:
-46863126.82496083
score of 4_71_320i.jpeg is:
-40226026.855034865
score of 5_7_320i.jpeg is:
-48103940.932342745
score of 5_77_320i.jpeg is:
-31825253.245818857
score of 3_71_320i.jpeg is:
-38479820.130690895
score of 1_74_320i.jpeg is:
-40889480.1149699
score of 2_77_320i.jpeg is:
-45905997.70793294
score of 0_72_320i.jpeg is:
-32307978.240991898
score of 5_19_320i.jpeg is:
-36258767.53505283
score of 0_66_320i.jpeg is:
-43044101.031425
score of 1_5_320i.jpeg is:
-41890399.63608254
score of 2_63_320i.jpeg is:
-34723251.25177875
score of 1_60_320i.jpeg is:
-41772785.09513905
score of 3_65_320i.jpeg is:
-38479820.130690895
score of 2_19_320i.jpeg is:
-31802450.49662202
score of 5_63_320i.jpeg is:
-36207553.488564774
score of 4_65_320i.jpeg is:
-36971540.912805304
score of 3_91_320i.jpeg is:
-38479820.130690895
score of 3_58_320i.jpeg is:
-38479820.130690895
score of 1_94_320i.jpeg is:
-42631294.84734508
score of 4_22_320i.jpeg is:
-37230217.35397951
score of 5_24_320i.jpeg is:
-45481171.68714009
score of 2_97_320i.jpeg is:
-45084624.81481946
score of 0_92_320i.jpeg is:
-36924032.110284135
score of 4_58_320i.jpeg is:
-33591584.31731158
score of 4_91_320i.jpeg is:
-40087853.63336783
score of 3_22_320i.jpeg is:
-38479820.130690895
score of 1_27_320i.jpeg is:
-41774447.441142075
score of 2_24_320i.jpeg is:
-33223688.17453128
score of 0_21_320i.jpeg is:
-40691957.84358118
score of 5_97_320i.jpeg is:
-32745101.187284373
score of 0_4_320i.jpeg is:
-33743796.26396368
score of 5_83_320i.jpeg is:
-30417767.882973805
score of 0_35_320i.jpeg is:
-29048402.863498345
score of 2_30_320i.jpeg is:
-27906769.008832917
score of 1_33_320i.jpeg is:
-40652994.83097727
score of 3_36_320i.jpeg is:
-38479820.130690895
score of 4_85_320i.jpeg is:
-30905862.986017026
score of 0_86_320i.jpeg is:
-27191667.070884403
score of 2_83_320i.jpeg is:
-34522724.99074819
score of 4_6_320i.jpeg is:
-43257580.03647889
score of 5_30_320i.jpeg is:
-41392486.01348368
score of 4_36_320i.jpeg is:
-32579468.938242476
score of 1_80_320i.jpeg is:
-37295409.499765985
score of 1_49_320i.jpeg is:
-39923544.16698185
score of 3_85_320i.jpeg is:
-38479820.130690895
score of 2_7_320i.jpeg is:
-33324358.634731524
score of 2_11_320i.jpeg is:
-36138953.379698895
score of 0_14_320i.jpeg is:
-35467946.5434003
score of 3_17_320i.jpeg is:
-38479820.130690895
score of 1_12_320i.jpeg is:
-35272846.24926036
score of 5_11_320i.jpeg is:
-41751101.865447424
score of 4_17_320i.jpeg is:
-38580468.729506984
score of 1_68_320i.jpeg is:
-32493893.293069907
score of 3_79_320i.jpeg is:
-38479820.130690895
score of 4_79_320i.jpeg is:
-46020078.89727602
score of 3_3_320i.jpeg is:
-38479820.130690895
score of 0_56_320i.jpeg is:
-42180376.44076808
score of 2_53_320i.jpeg is:
-43899811.59254643
score of 5_29_320i.jpeg is:
-34527468.643896736
score of 1_50_320i.jpeg is:
-33326483.77563141
score of 1_99_320i.jpeg is:
-43585617.02371459
score of 3_55_320i.jpeg is:
-38479820.130690895
score of 5_53_320i.jpeg is:
-27864984.64140939
score of 0_9_320i.jpeg is:
-37144793.96967905
score of 2_29_320i.jpeg is:
-40796663.015280046
score of 4_55_320i.jpeg is:
-41241799.97569901
score of 4_88_320i.jpeg is:
-37177338.613985226
score of 4_41_320i.jpeg is:
-47997695.76888336
score of 0_38_320i.jpeg is:
-40025895.955206595
score of 5_47_320i.jpeg is:
-36534817.41842186
score of 3_41_320i.jpeg is:
-38479820.130690895
score of 3_88_320i.jpeg is:
-38479820.130690895
score of 1_44_320i.jpeg is:
-44991755.022816226
score of 2_47_320i.jpeg is:
-29961178.939450804
score of 0_42_320i.jpeg is:
-34829733.855028115
score of 4_60_320i.jpeg is:
-33360970.058144268
score of 0_19_320i.jpeg is:
-26563655.13282048
score of 5_66_320i.jpeg is:
-29142099.57777005
score of 1_65_320i.jpeg is:
-37633047.17262276
score of 3_60_320i.jpeg is:
-38479820.130690895
score of 0_63_320i.jpeg is:
-39197095.63517621
score of 1_0_320i.jpeg is:
-29077429.274233162
score of 2_66_320i.jpeg is:
-41443035.69715291
score of 2_72_320i.jpeg is:
-33076595.552546374
score of 0_77_320i.jpeg is:
-37605394.23479987
score of 3_74_320i.jpeg is:
-38479820.130690895
score of 1_71_320i.jpeg is:
-30363397.19808331
score of 5_72_320i.jpeg is:
-35575362.12364072
score of 5_2_320i.jpeg is:
-47119326.664139174
score of 4_74_320i.jpeg is:
-33145581.71528153
score of 5_17_320i.jpeg is:
-36690063.22710658
score of 0_68_320i.jpeg is:
-27874552.431364745
score of 4_11_320i.jpeg is:
-43833589.79229799
score of 0_12_320i.jpeg is:
-34868904.38091827
score of 2_17_320i.jpeg is:
-30913749.16218543
score of 2_1_320i.jpeg is:
-39316526.63308349
score of 1_14_320i.jpeg is:
-28755264.973582517
score of 3_11_320i.jpeg is:
-38479820.130690895
score of 5_9_320i.jpeg is:
-32320413.99295959
score of 5_79_320i.jpeg is:
-42227518.39749523
score of 2_79_320i.jpeg is:
-36045010.98771208
score of 1_21_320i.jpeg is:
-37943397.28234274
score of 3_24_320i.jpeg is:
-38479820.130690895
score of 4_97_320i.jpeg is:
-43496978.06785098
score of 0_2_320i.jpeg is:
-36589170.69148888
score of 5_58_320i.jpeg is:
-38133945.552286364
score of 5_91_320i.jpeg is:
-43706315.75129654
score of 0_27_320i.jpeg is:
-33373860.295375578
score of 2_22_320i.jpeg is:
-46262342.11749023
score of 4_24_320i.jpeg is:
-44159859.29816812
score of 1_92_320i.jpeg is:
-35982464.131658435
score of 3_97_320i.jpeg is:
-38479820.130690895
score of 0_94_320i.jpeg is:
-36704628.85651194
score of 2_91_320i.jpeg is:
-31300438.975834817
score of 2_58_320i.jpeg is:
-44170948.667916246
score of 3_8_320i.jpeg is:
-38479820.130690895
score of 5_22_320i.jpeg is:
-36594841.67188027
score of 5_36_320i.jpeg is:
-40746334.32226702
score of 4_0_320i.jpeg is:
-37364644.14962217
score of 2_85_320i.jpeg is:
-44949647.18068341
score of 0_80_320i.jpeg is:
-41049135.00739764
score of 0_49_320i.jpeg is:
-37904793.97970623
score of 3_83_320i.jpeg is:
-38479820.130690895
score of 1_86_320i.jpeg is:
-34680929.71293677
score of 4_30_320i.jpeg is:
-38787302.15312812
score of 2_36_320i.jpeg is:
-36742653.81385545
score of 0_33_320i.jpeg is:
-34695223.85459415
score of 5_85_320i.jpeg is:
-38470020.5923066
score of 4_83_320i.jpeg is:
-30909415.460726295
score of 3_30_320i.jpeg is:
-38479820.130690895
score of 1_35_320i.jpeg is:
-29536801.159563623
score of 3_66_320i.jpeg is:
-38479820.130690895
score of 1_63_320i.jpeg is:
-34512888.18529451
score of 2_60_320i.jpeg is:
-41745737.34574158
score of 1_6_320i.jpeg is:
-38772707.482211016
score of 0_65_320i.jpeg is:
-38948310.15032075
score of 1_19_320i.jpeg is:
-29750536.69521533
score of 4_66_320i.jpeg is:
-32052895.790111173
score of 5_60_320i.jpeg is:
-32281020.036286518
score of 5_4_320i.jpeg is:
-37812677.250919044
score of 5_74_320i.jpeg is:
-31747889.099901486
score of 4_72_320i.jpeg is:
-42755737.087407626
score of 0_71_320i.jpeg is:
-28085878.7670215
score of 2_74_320i.jpeg is:
-45354689.216118686
score of 1_77_320i.jpeg is:
-52612967.76374707
score of 3_72_320i.jpeg is:
-38479820.130690895
score of 5_55_320i.jpeg is:
-39474540.2247338
score of 4_53_320i.jpeg is:
-33757062.33183915
score of 3_29_320i.jpeg is:
-38479820.130690895
score of 3_5_320i.jpeg is:
-38479820.130690895
score of 2_55_320i.jpeg is:
-43587144.45046564
score of 0_50_320i.jpeg is:
-37233804.58515724
score of 0_99_320i.jpeg is:
-40919243.86838632
score of 3_53_320i.jpeg is:
-38479820.130690895
score of 1_56_320i.jpeg is:
-35340602.39870361
score of 4_29_320i.jpeg is:
-30419320.457756422
score of 1_42_320i.jpeg is:
-44384696.21285439
score of 3_47_320i.jpeg is:
-38479820.130690895
score of 0_44_320i.jpeg is:
-35407001.44367146
score of 2_41_320i.jpeg is:
-30503016.33031375
score of 2_88_320i.jpeg is:
-29519299.947458837
score of 1_38_320i.jpeg is:
-39097728.28437513
score of 4_47_320i.jpeg is:
-42617426.76390297
score of 5_88_320i.jpeg is:
-47310008.85587346
score of 5_41_320i.jpeg is:
-48398745.42943468
score of 0_34_320i.jpeg is:
-41116517.293141015
score of 2_31_320i.jpeg is:
-41513846.55830829
score of 5_82_320i.jpeg is:
-34959726.2523554
score of 4_84_320i.jpeg is:
-40832019.20572558
score of 1_32_320i.jpeg is:
-30889159.20173095
score of 3_37_320i.jpeg is:
-38479820.130690895
score of 5_31_320i.jpeg is:
-36822713.90548324
score of 0_87_320i.jpeg is:
-31934000.074254066
score of 4_7_320i.jpeg is:
-45630252.03036451
score of 2_82_320i.jpeg is:
-44421132.36067268
score of 1_81_320i.jpeg is:
-43202400.91556519
score of 1_48_320i.jpeg is:
-28607101.025063317
score of 3_84_320i.jpeg is:
-38479820.130690895
score of 4_37_320i.jpeg is:
-39938044.916016154
score of 4_23_320i.jpeg is:
-45416961.09024911
score of 3_90_320i.jpeg is:
-38479820.130690895
score of 3_59_320i.jpeg is:
-38479820.130690895
score of 1_95_320i.jpeg is:
-39344766.35323856
score of 2_96_320i.jpeg is:
-41447501.15325398
score of 0_93_320i.jpeg is:
-28161160.104828678
score of 5_25_320i.jpeg is:
-38774411.87414097
score of 3_23_320i.jpeg is:
-38479820.130690895
score of 1_26_320i.jpeg is:
-37153976.521881364
score of 4_59_320i.jpeg is:
-39938044.916016154
score of 4_90_320i.jpeg is:
-39512982.33438077
score of 5_96_320i.jpeg is:
-32018027.483672358
score of 0_5_320i.jpeg is:
-41194388.36345227
score of 2_25_320i.jpeg is:
-35757580.915021636
score of 0_20_320i.jpeg is:
-33362298.537148066
score of 3_78_320i.jpeg is:
-38479820.130690895
score of 4_78_320i.jpeg is:
-35888723.82854174
score of 2_10_320i.jpeg is:
-46419803.69049698
score of 0_15_320i.jpeg is:
-33935833.979113765
score of 2_6_320i.jpeg is:
-40517267.53920603
score of 3_16_320i.jpeg is:
-38479820.130690895
score of 1_13_320i.jpeg is:
-39272051.99257293
score of 5_10_320i.jpeg is:
-37831901.35677938
score of 1_69_320i.jpeg is:
-26020077.256741777
score of 4_16_320i.jpeg is:
-37099330.69509211
score of 4_89_320i.jpeg is:
-37649315.81155164
score of 4_40_320i.jpeg is:
-42041172.1269659
score of 5_46_320i.jpeg is:
-32658767.40953563
score of 0_39_320i.jpeg is:
-29510818.8822954
score of 3_40_320i.jpeg is:
-38479820.130690895
score of 3_89_320i.jpeg is:
-38479820.130690895
score of 1_45_320i.jpeg is:
-41928470.08995475
score of 2_46_320i.jpeg is:
-48288689.70965553
score of 0_43_320i.jpeg is:
-33867906.03534405
score of 5_28_320i.jpeg is:
-45576499.96759996
score of 3_2_320i.jpeg is:
-38479820.130690895
score of 0_57_320i.jpeg is:
-37284608.753940366
score of 2_52_320i.jpeg is:
-40826964.043209486
score of 1_51_320i.jpeg is:
-42111053.580198966
score of 1_98_320i.jpeg is:
-34618231.820562474
score of 3_54_320i.jpeg is:
-38479820.130690895
score of 2_28_320i.jpeg is:
-32505496.79507312
score of 5_52_320i.jpeg is:
-34717973.47163018
score of 0_8_320i.jpeg is:
-36947176.22991978
score of 4_54_320i.jpeg is:
-38671607.877320305
score of 2_73_320i.jpeg is:
-36798409.39942368
score of 0_76_320i.jpeg is:
-35632068.41890605
score of 3_75_320i.jpeg is:
-38479820.130690895
score of 1_70_320i.jpeg is:
-38460931.755503766
score of 5_73_320i.jpeg is:
-37579341.00904588
score of 5_3_320i.jpeg is:
-26912351.259313732
score of 4_75_320i.jpeg is:
-35662924.66296723
score of 4_61_320i.jpeg is:
-38274071.21257961
score of 5_67_320i.jpeg is:
-45660316.71942254
score of 0_18_320i.jpeg is:
-38192703.625028126
score of 1_64_320i.jpeg is:
-35603928.793369636
score of 3_61_320i.jpeg is:
-38479820.130690895
score of 0_62_320i.jpeg is:
-31644941.12151653
score of 2_67_320i.jpeg is:
-39611230.89908398
score of 1_1_320i.jpeg is:
-37867046.416001126
score of 5_8_320i.jpeg is:
-34262358.71767962
score of 5_78_320i.jpeg is:
-29851058.3960623
score of 2_78_320i.jpeg is:
-48046737.17731884
score of 0_69_320i.jpeg is:
-27615052.36492442
score of 5_16_320i.jpeg is:
-39671619.33340254
score of 4_10_320i.jpeg is:
-37553240.812355526
score of 2_0_320i.jpeg is:
-40761526.548682086
score of 0_13_320i.jpeg is:
-31727166.1606827
score of 2_16_320i.jpeg is:
-53667512.11099251
score of 1_15_320i.jpeg is:
-38669515.452764265
score of 3_10_320i.jpeg is:
-38479820.130690895
score of 2_84_320i.jpeg is:
-27944846.027410418
score of 4_1_320i.jpeg is:
-38951668.591424234
score of 0_81_320i.jpeg is:
-39024517.71608391
score of 0_48_320i.jpeg is:
-30331121.804222338
score of 5_37_320i.jpeg is:
-36475327.80151427
score of 4_31_320i.jpeg is:
-34376442.57929789
score of 3_82_320i.jpeg is:
-38479820.130690895
score of 1_87_320i.jpeg is:
-32561008.413775213
score of 5_84_320i.jpeg is:
-45616159.55538338
score of 2_37_320i.jpeg is:
-42214122.556302376
score of 0_32_320i.jpeg is:
-29998442.35508646
score of 3_31_320i.jpeg is:
-38479820.130690895
score of 1_34_320i.jpeg is:
-47486032.2357469
score of 4_82_320i.jpeg is:
-34380425.69206752
score of 4_96_320i.jpeg is:
-30850836.17485629
score of 1_20_320i.jpeg is:
-33911781.045746796
score of 3_25_320i.jpeg is:
-38479820.130690895
score of 0_26_320i.jpeg is:
-32964292.560673736
score of 2_23_320i.jpeg is:
-27408777.06420507
score of 0_3_320i.jpeg is:
-40080838.74682724
score of 5_59_320i.jpeg is:
-36475327.80151427
score of 5_90_320i.jpeg is:
-35895108.446770005
score of 1_93_320i.jpeg is:
-31338126.55296986
score of 3_96_320i.jpeg is:
-38479820.130690895
score of 4_25_320i.jpeg is:
-46666637.15905141
score of 5_23_320i.jpeg is:
-42644985.02364068
score of 0_95_320i.jpeg is:
-33207972.347750463
score of 2_90_320i.jpeg is:
-38140411.90687591
score of 2_59_320i.jpeg is:
-42214122.556302376
score of 3_9_320i.jpeg is:
-38479820.130690895
score of 5_5_320i.jpeg is:
-33773302.21269604
score of 5_75_320i.jpeg is:
-34886063.59678616
score of 4_73_320i.jpeg is:
-56903790.941469334
score of 0_70_320i.jpeg is:
-34919104.84506477
score of 2_75_320i.jpeg is:
-46386156.743896745
score of 1_76_320i.jpeg is:
-29772315.699739527
score of 3_73_320i.jpeg is:
-38479820.130690895
score of 3_67_320i.jpeg is:
-38479820.130690895
score of 1_62_320i.jpeg is:
-39109491.67633972
score of 1_7_320i.jpeg is:
-36884301.59982333
score of 2_61_320i.jpeg is:
-43462290.67759064
score of 0_64_320i.jpeg is:
-35732597.276214115
score of 4_67_320i.jpeg is:
-43035830.53467762
score of 1_18_320i.jpeg is:
-39634802.446003646
score of 5_61_320i.jpeg is:
-34042420.05355146
score of 1_43_320i.jpeg is:
-30850298.985771254
score of 3_46_320i.jpeg is:
-38479820.130690895
score of 0_45_320i.jpeg is:
-40222176.90947083
score of 2_40_320i.jpeg is:
-43090804.86160663
score of 2_89_320i.jpeg is:
-35744852.25886298
score of 4_46_320i.jpeg is:
-32821067.90214795
score of 1_39_320i.jpeg is:
-31002141.432629324
score of 5_89_320i.jpeg is:
-30079085.80912007
score of 5_40_320i.jpeg is:
-41084987.50598225
score of 5_54_320i.jpeg is:
-41127226.23530611
score of 3_28_320i.jpeg is:
-38479820.130690895
score of 4_52_320i.jpeg is:
-39334339.12586522
score of 3_4_320i.jpeg is:
-38479820.130690895
score of 2_54_320i.jpeg is:
-32110410.80795329
score of 0_51_320i.jpeg is:
-44419788.07628196
score of 0_98_320i.jpeg is:
-30817233.03190774
score of 4_28_320i.jpeg is:
-44258226.14648783
score of 3_52_320i.jpeg is:
-38479820.130690895
score of 1_57_320i.jpeg is:
-37308238.38262252
