score of 1_10_320i.jpeg is:
-6092748.549761801
score of 3_15_320i.jpeg is:
-10061983.67760009
score of 5_69_320i.jpeg is:
-8765543.049224254
score of 2_5_320i.jpeg is:
-14049642.124762557
score of 0_16_320i.jpeg is:
-10314986.653724683
score of 2_13_320i.jpeg is:
-13720515.023179108
score of 4_15_320i.jpeg is:
-7774976.330461021
score of 2_69_320i.jpeg is:
-9804290.745189333
score of 5_13_320i.jpeg is:
-8058796.099304879
score of 0_78_320i.jpeg is:
-15141042.395771693
score of 5_26_320i.jpeg is:
-10527966.068438986
score of 0_90_320i.jpeg is:
-26698016.16940381
score of 0_59_320i.jpeg is:
-10984976.95156293
score of 2_95_320i.jpeg is:
-8465314.629745323
score of 1_96_320i.jpeg is:
-10606573.357436053
score of 3_93_320i.jpeg is:
-10061983.67760009
score of 4_20_320i.jpeg is:
-9588503.941151518
score of 0_23_320i.jpeg is:
-12030481.057212954
score of 2_26_320i.jpeg is:
-12484646.369714338
score of 5_95_320i.jpeg is:
-7098029.939523996
score of 0_6_320i.jpeg is:
-10213311.050799664
score of 4_93_320i.jpeg is:
-11433340.652018014
score of 1_25_320i.jpeg is:
-5630698.564791483
score of 3_20_320i.jpeg is:
-10061983.67760009
score of 3_34_320i.jpeg is:
-10061983.67760009
score of 1_31_320i.jpeg is:
-13892620.754449569
score of 4_87_320i.jpeg is:
-8946438.987133594
score of 5_48_320i.jpeg is:
-7348710.684235173
score of 5_81_320i.jpeg is:
-14106220.139429906
score of 2_32_320i.jpeg is:
-12042764.798194436
score of 0_37_320i.jpeg is:
-18982816.33553111
score of 4_34_320i.jpeg is:
-6269166.130735157
score of 3_87_320i.jpeg is:
-10061983.67760009
score of 1_82_320i.jpeg is:
-6478632.596631447
score of 2_81_320i.jpeg is:
-12639945.893032968
score of 2_48_320i.jpeg is:
-7973286.801001366
score of 4_4_320i.jpeg is:
-4367891.374877737
score of 0_84_320i.jpeg is:
-25807663.32957919
score of 5_32_320i.jpeg is:
-21000710.700940583
score of 2_8_320i.jpeg is:
-6807571.257812613
score of 5_64_320i.jpeg is:
-8247825.042046946
score of 4_62_320i.jpeg is:
-34889960.90362816
score of 3_18_320i.jpeg is:
-10061983.67760009
score of 1_2_320i.jpeg is:
-9761837.78385297
score of 2_64_320i.jpeg is:
-14903848.49485408
score of 0_61_320i.jpeg is:
-9741077.407628376
score of 3_62_320i.jpeg is:
-10061983.67760009
score of 1_67_320i.jpeg is:
-14418147.915404238
score of 4_18_320i.jpeg is:
-7659654.391981098
score of 1_73_320i.jpeg is:
-4639832.4496129835
score of 3_76_320i.jpeg is:
-10061983.67760009
score of 0_75_320i.jpeg is:
-8172473.546978041
score of 2_70_320i.jpeg is:
-7947876.480241391
score of 4_76_320i.jpeg is:
-9362786.785545098
score of 5_70_320i.jpeg is:
-8138275.9321146235
score of 5_0_320i.jpeg is:
-7349067.846551084
score of 3_57_320i.jpeg is:
-10061983.67760009
score of 1_52_320i.jpeg is:
-7864717.637653892
score of 3_1_320i.jpeg is:
-10061983.67760009
score of 2_51_320i.jpeg is:
-16868430.173733372
score of 2_98_320i.jpeg is:
-13459681.69119029
score of 0_54_320i.jpeg is:
-17444175.531085327
score of 1_28_320i.jpeg is:
-9556387.552125659
score of 4_57_320i.jpeg is:
-18795395.58581055
score of 5_98_320i.jpeg is:
-12049838.975641536
score of 5_51_320i.jpeg is:
-12885013.268004188
score of 5_45_320i.jpeg is:
-18592426.14686828
score of 4_43_320i.jpeg is:
-8946438.987133594
score of 3_39_320i.jpeg is:
-10061983.67760009
score of 0_40_320i.jpeg is:
-14209511.7329108
score of 0_89_320i.jpeg is:
-9317217.935251607
score of 2_45_320i.jpeg is:
-6706218.490356869
score of 4_9_320i.jpeg is:
-22281312.234866876
score of 1_46_320i.jpeg is:
-5068262.149046432
score of 3_43_320i.jpeg is:
-10061983.67760009
score of 4_39_320i.jpeg is:
-13516614.868398473
score of 0_0_320i.jpeg is:
-23342906.926603332
score of 5_93_320i.jpeg is:
-14634467.306348775
score of 2_20_320i.jpeg is:
-9514147.754676651
score of 0_25_320i.jpeg is:
-5718683.977026142
score of 3_26_320i.jpeg is:
-10061983.67760009
score of 1_23_320i.jpeg is:
-8881610.323919259
score of 4_95_320i.jpeg is:
-9561538.665611133
score of 2_93_320i.jpeg is:
-19119959.44511227
score of 0_96_320i.jpeg is:
-28218354.5081891
score of 5_20_320i.jpeg is:
-8577405.553545298
score of 4_26_320i.jpeg is:
-9436460.329833461
score of 3_95_320i.jpeg is:
-10061983.677600091
score of 1_90_320i.jpeg is:
-6586475.190062683
score of 1_59_320i.jpeg is:
-16473962.240110448
score of 1_84_320i.jpeg is:
-12642540.57571666
score of 3_81_320i.jpeg is:
-10061983.67760009
score of 3_48_320i.jpeg is:
-10061983.67760009
score of 4_32_320i.jpeg is:
-5449566.971327647
score of 5_34_320i.jpeg is:
-6203964.375139557
score of 0_82_320i.jpeg is:
-7973226.273071686
score of 4_2_320i.jpeg is:
-4451660.285493101
score of 2_87_320i.jpeg is:
-5965242.676123292
score of 4_48_320i.jpeg is:
-13365522.15980737
score of 4_81_320i.jpeg is:
-14824379.974418914
score of 1_37_320i.jpeg is:
-19836721.25761765
score of 3_32_320i.jpeg is:
-10061983.67760009
score of 0_31_320i.jpeg is:
-19682307.82622027
score of 2_34_320i.jpeg is:
-10332704.009704402
score of 5_87_320i.jpeg is:
-10755150.764894968
score of 3_69_320i.jpeg is:
-10061983.67760009
score of 4_13_320i.jpeg is:
-7658801.327291515
score of 5_15_320i.jpeg is:
-23116466.052454013
score of 1_9_320i.jpeg is:
-7608452.381429578
score of 4_69_320i.jpeg is:
-10476527.01002155
score of 3_13_320i.jpeg is:
-10061983.67760009
score of 1_16_320i.jpeg is:
-10646160.83826533
score of 2_15_320i.jpeg is:
-5626032.102424437
score of 0_10_320i.jpeg is:
-5226916.345391999
score of 2_3_320i.jpeg is:
-12617697.551590981
score of 1_78_320i.jpeg is:
-17655341.876660414
score of 4_98_320i.jpeg is:
-19746069.644415475
score of 4_51_320i.jpeg is:
-9034858.087058323
score of 0_28_320i.jpeg is:
-6987475.614336
score of 5_57_320i.jpeg is:
-7244868.224542217
score of 1_54_320i.jpeg is:
-6411302.647626558
score of 3_51_320i.jpeg is:
-10061983.67760009
score of 3_98_320i.jpeg is:
-10061983.67760009
score of 3_7_320i.jpeg is:
-10061983.67760009
score of 0_52_320i.jpeg is:
-10446338.502388477
score of 2_57_320i.jpeg is:
-6048136.09410026
score of 2_43_320i.jpeg is:
-5965242.676123292
score of 0_46_320i.jpeg is:
-8994311.141372232
score of 5_39_320i.jpeg is:
-15897636.680265103
score of 3_45_320i.jpeg is:
-10061983.67760009
score of 1_40_320i.jpeg is:
-13798529.016431239
score of 1_89_320i.jpeg is:
-12384728.474645855
score of 5_43_320i.jpeg is:
-10755150.764894968
score of 2_39_320i.jpeg is:
-11264054.22535957
score of 4_45_320i.jpeg is:
-15942179.519428322
score of 0_67_320i.jpeg is:
-12957157.320505144
score of 2_62_320i.jpeg is:
-22407084.595255394
score of 1_4_320i.jpeg is:
-26392692.2346676
score of 5_18_320i.jpeg is:
-37500567.64653642
score of 1_61_320i.jpeg is:
-9081231.345718667
score of 3_64_320i.jpeg is:
-10061983.67760009
score of 5_62_320i.jpeg is:
-17360540.836805183
score of 2_18_320i.jpeg is:
-16959121.28510142
score of 4_64_320i.jpeg is:
-8980628.028396364
score of 4_70_320i.jpeg is:
-13263944.26696048
score of 5_6_320i.jpeg is:
-11298486.411909916
score of 5_76_320i.jpeg is:
-8177457.676853026
score of 3_70_320i.jpeg is:
-10061983.67760009
score of 1_75_320i.jpeg is:
-5502313.822178478
score of 2_76_320i.jpeg is:
-23241719.278089117
score of 0_73_320i.jpeg is:
-22628494.502259094
score of 0_79_320i.jpeg is:
-10095874.641904207
score of 1_11_320i.jpeg is:
-11771022.922140518
score of 3_14_320i.jpeg is:
-10061983.67760009
score of 0_17_320i.jpeg is:
-7301660.348968128
score of 2_12_320i.jpeg is:
-11545085.174871754
score of 5_68_320i.jpeg is:
-12800774.083722673
score of 2_4_320i.jpeg is:
-13268508.200250646
score of 4_14_320i.jpeg is:
-15869047.018399408
score of 5_12_320i.jpeg is:
-11723953.803240923
score of 2_68_320i.jpeg is:
-12090406.845027952
score of 4_86_320i.jpeg is:
-13462329.227679117
score of 3_35_320i.jpeg is:
-10061983.677600091
score of 1_30_320i.jpeg is:
-20918599.660738815
score of 2_33_320i.jpeg is:
-4975422.691982642
score of 0_36_320i.jpeg is:
-23184271.168680348
score of 5_49_320i.jpeg is:
-15261391.769312529
score of 5_80_320i.jpeg is:
-10110884.087837497
score of 3_86_320i.jpeg is:
-10061983.67760009
score of 1_83_320i.jpeg is:
-6113895.785218401
score of 4_35_320i.jpeg is:
-9232892.642776499
score of 5_33_320i.jpeg is:
-31488140.556933273
score of 4_5_320i.jpeg is:
-7210725.8495277455
score of 2_80_320i.jpeg is:
-13113302.341112228
score of 2_49_320i.jpeg is:
-7251993.372858584
score of 0_85_320i.jpeg is:
-6716482.142849259
score of 0_91_320i.jpeg is:
-13971001.122462407
score of 0_58_320i.jpeg is:
-4887134.449297881
score of 2_94_320i.jpeg is:
-10178987.051339837
score of 5_27_320i.jpeg is:
-14879673.901805148
score of 4_21_320i.jpeg is:
-12591608.952059766
score of 1_97_320i.jpeg is:
-16612320.161197253
score of 3_92_320i.jpeg is:
-10061983.67760009
score of 5_94_320i.jpeg is:
-4674879.966804574
score of 0_7_320i.jpeg is:
-5895732.17019466
score of 0_22_320i.jpeg is:
-7791877.881283003
score of 2_27_320i.jpeg is:
-11032946.517969768
score of 1_24_320i.jpeg is:
-11762379.096216654
score of 3_21_320i.jpeg is:
-10061983.67760009
score of 4_92_320i.jpeg is:
-9657089.543050395
score of 1_72_320i.jpeg is:
-15202514.499596931
score of 3_77_320i.jpeg is:
-10061983.67760009
score of 0_74_320i.jpeg is:
-9978371.708834453
score of 2_71_320i.jpeg is:
-9442165.779956885
score of 4_77_320i.jpeg is:
-9907686.342190603
score of 5_71_320i.jpeg is:
-18727022.58949601
score of 5_1_320i.jpeg is:
-14062933.133656006
score of 2_9_320i.jpeg is:
-6961640.527521974
score of 5_65_320i.jpeg is:
-20978721.12538236
score of 3_19_320i.jpeg is:
-10061983.67760009
score of 4_63_320i.jpeg is:
-15682624.965023363
score of 2_65_320i.jpeg is:
-26662739.272776652
score of 1_3_320i.jpeg is:
-9421656.61460548
score of 0_60_320i.jpeg is:
-10140019.023633488
score of 4_19_320i.jpeg is:
-7677908.029992643
score of 3_63_320i.jpeg is:
-10061983.67760009
score of 1_66_320i.jpeg is:
-5649643.311269486
score of 5_44_320i.jpeg is:
-6117002.82739119
score of 3_38_320i.jpeg is:
-10061983.67760009
score of 4_42_320i.jpeg is:
-11783338.347124077
score of 0_41_320i.jpeg is:
-8531953.172853481
score of 0_88_320i.jpeg is:
-5918676.083531271
score of 4_8_320i.jpeg is:
-8822731.728212593
score of 2_44_320i.jpeg is:
-6393830.147049079
score of 4_38_320i.jpeg is:
-12841748.196541535
score of 1_47_320i.jpeg is:
-9722189.395151673
score of 3_42_320i.jpeg is:
-10061983.67760009
score of 3_56_320i.jpeg is:
-10061983.67760009
score of 1_53_320i.jpeg is:
-6259663.016097996
score of 3_0_320i.jpeg is:
-10061983.67760009
score of 2_50_320i.jpeg is:
-13038309.589915974
score of 2_99_320i.jpeg is:
-5786835.442635738
score of 0_55_320i.jpeg is:
-10609105.65619919
score of 4_56_320i.jpeg is:
-10270788.352517823
score of 1_29_320i.jpeg is:
-16473962.240110448
score of 5_99_320i.jpeg is:
-11038095.07467476
score of 5_50_320i.jpeg is:
-23333802.640214253
score of 4_33_320i.jpeg is:
-22213005.45174692
score of 1_85_320i.jpeg is:
-12547407.783175638
score of 3_80_320i.jpeg is:
-10061983.67760009
score of 3_49_320i.jpeg is:
-10061983.67760009
score of 0_83_320i.jpeg is:
-5237073.720710175
score of 2_86_320i.jpeg is:
-10382512.178922847
score of 4_3_320i.jpeg is:
-11204557.712304896
score of 5_35_320i.jpeg is:
-6178753.713654464
score of 1_36_320i.jpeg is:
-4979933.8974518785
score of 3_33_320i.jpeg is:
-10061983.67760009
score of 4_49_320i.jpeg is:
-13044043.39871436
score of 4_80_320i.jpeg is:
-9785913.492107274
score of 5_86_320i.jpeg is:
-7628982.24724519
score of 0_30_320i.jpeg is:
-15913102.592110787
score of 2_35_320i.jpeg is:
-26613784.003331713
score of 2_21_320i.jpeg is:
-10718741.009951536
score of 0_24_320i.jpeg is:
-14846372.222182585
score of 0_1_320i.jpeg is:
-20350811.892842885
score of 5_92_320i.jpeg is:
-10437640.858220391
score of 4_94_320i.jpeg is:
-9441469.493412478
score of 3_27_320i.jpeg is:
-10061983.67760009
score of 1_22_320i.jpeg is:
-6122925.055763784
score of 5_21_320i.jpeg is:
-12932114.870829508
score of 2_92_320i.jpeg is:
-6388202.418868282
score of 0_97_320i.jpeg is:
-16439203.369913721
score of 3_94_320i.jpeg is:
-10061983.67760009
score of 1_91_320i.jpeg is:
-8206740.965503236
score of 1_58_320i.jpeg is:
-11808411.75812257
score of 4_27_320i.jpeg is:
-15550960.12503094
score of 1_79_320i.jpeg is:
-8202090.821295572
score of 4_12_320i.jpeg is:
-12432975.330622444
score of 3_68_320i.jpeg is:
-10061983.67760009
score of 1_8_320i.jpeg is:
-7968884.200449961
score of 5_14_320i.jpeg is:
-6197447.385910095
score of 3_12_320i.jpeg is:
-10061983.67760009
score of 1_17_320i.jpeg is:
-6955068.125572005
score of 4_68_320i.jpeg is:
-14873253.679688398
score of 2_2_320i.jpeg is:
-12181498.156065965
score of 2_14_320i.jpeg is:
-11222170.20218292
score of 0_11_320i.jpeg is:
-10220141.628040338
score of 5_38_320i.jpeg is:
-6336534.22607893
score of 2_42_320i.jpeg is:
-14252475.154921914
score of 0_47_320i.jpeg is:
-7819083.555572305
score of 3_44_320i.jpeg is:
-10061983.67760009
score of 1_41_320i.jpeg is:
-4703561.41670303
score of 1_88_320i.jpeg is:
-5254925.757094154
score of 2_38_320i.jpeg is:
-5485864.1121446565
score of 5_42_320i.jpeg is:
-7218321.5216502985
score of 4_44_320i.jpeg is:
-9251422.44336063
score of 4_99_320i.jpeg is:
-11253898.955820402
score of 4_50_320i.jpeg is:
-8633488.270153562
score of 5_56_320i.jpeg is:
-8539259.855663328
score of 0_29_320i.jpeg is:
-10984976.95156293
score of 1_55_320i.jpeg is:
-7246906.754345384
score of 3_50_320i.jpeg is:
-10061983.67760009
score of 3_99_320i.jpeg is:
-10061983.67760009
score of 3_6_320i.jpeg is:
-10061983.67760009
score of 0_53_320i.jpeg is:
-6384631.374671474
score of 2_56_320i.jpeg is:
-7044423.628099221
score of 4_71_320i.jpeg is:
-13340876.298474062
score of 5_7_320i.jpeg is:
-13630674.475760786
score of 5_77_320i.jpeg is:
-13808155.89554373
score of 3_71_320i.jpeg is:
-10061983.67760009
score of 1_74_320i.jpeg is:
-11945189.372696858
score of 2_77_320i.jpeg is:
-13169683.781027237
score of 0_72_320i.jpeg is:
-8253448.046959504
score of 5_19_320i.jpeg is:
-33360343.01348155
score of 0_66_320i.jpeg is:
-6987575.340131287
score of 1_5_320i.jpeg is:
-7281966.625674414
score of 2_63_320i.jpeg is:
-6182081.697002013
score of 1_60_320i.jpeg is:
-9986441.91430945
score of 3_65_320i.jpeg is:
-10061983.67760009
score of 2_19_320i.jpeg is:
-5100594.241829797
score of 5_63_320i.jpeg is:
-16806486.37167352
score of 4_65_320i.jpeg is:
-9542135.273189256
score of 3_91_320i.jpeg is:
-10061983.67760009
score of 3_58_320i.jpeg is:
-10061983.67760009
score of 1_94_320i.jpeg is:
-15685550.757002562
score of 4_22_320i.jpeg is:
-13212644.600385603
score of 5_24_320i.jpeg is:
-6651437.232251466
score of 2_97_320i.jpeg is:
-11203094.026922071
score of 0_92_320i.jpeg is:
-13754072.307942105
score of 4_58_320i.jpeg is:
-13524043.813889833
score of 4_91_320i.jpeg is:
-13991133.069020336
score of 3_22_320i.jpeg is:
-10061983.67760009
score of 1_27_320i.jpeg is:
-9052917.725774061
score of 2_24_320i.jpeg is:
-10807117.580388933
score of 0_21_320i.jpeg is:
-6693432.344621635
score of 5_97_320i.jpeg is:
-11763852.7523438
score of 0_4_320i.jpeg is:
-4972736.608530174
score of 5_83_320i.jpeg is:
-26030827.862321112
score of 0_35_320i.jpeg is:
-13420765.688878903
score of 2_30_320i.jpeg is:
-16539281.213426925
score of 1_33_320i.jpeg is:
-8631542.05596292
score of 3_36_320i.jpeg is:
-10061983.67760009
score of 4_85_320i.jpeg is:
-14873253.679688398
score of 0_86_320i.jpeg is:
-5010046.001117057
score of 2_83_320i.jpeg is:
-15960799.103508824
score of 4_6_320i.jpeg is:
-14199474.388973327
score of 5_30_320i.jpeg is:
-30603592.235707063
score of 4_36_320i.jpeg is:
-11469805.210205406
score of 1_80_320i.jpeg is:
-10617883.637702307
score of 1_49_320i.jpeg is:
-8463047.701332407
score of 3_85_320i.jpeg is:
-10061983.67760009
score of 2_7_320i.jpeg is:
-10469788.221270058
score of 2_11_320i.jpeg is:
-8561366.876750926
score of 0_14_320i.jpeg is:
-10944696.126024162
score of 3_17_320i.jpeg is:
-10061983.67760009
score of 1_12_320i.jpeg is:
-8988799.270878142
score of 5_11_320i.jpeg is:
-8103485.234013101
score of 4_17_320i.jpeg is:
-14591819.953478014
score of 1_68_320i.jpeg is:
-12547407.783175638
score of 3_79_320i.jpeg is:
-10061983.67760009
score of 4_79_320i.jpeg is:
-11602449.406523926
score of 3_3_320i.jpeg is:
-10061983.67760009
score of 0_56_320i.jpeg is:
-14468705.309266744
score of 2_53_320i.jpeg is:
-4929546.158271981
score of 5_29_320i.jpeg is:
-6203964.375139557
score of 1_50_320i.jpeg is:
-11483814.366834346
score of 1_99_320i.jpeg is:
-11388401.140987003
score of 3_55_320i.jpeg is:
-10061983.67760009
score of 5_53_320i.jpeg is:
-9195616.06761317
score of 0_9_320i.jpeg is:
-6986897.146875248
score of 2_29_320i.jpeg is:
-10332704.009704402
score of 4_55_320i.jpeg is:
-10267145.920813423
score of 4_88_320i.jpeg is:
-12719805.133785028
score of 4_41_320i.jpeg is:
-5617545.456174858
score of 0_38_320i.jpeg is:
-18645665.656247802
score of 5_47_320i.jpeg is:
-12615842.356167542
score of 3_41_320i.jpeg is:
-10061983.67760009
score of 3_88_320i.jpeg is:
-10061983.67760009
score of 1_44_320i.jpeg is:
-7484506.123791462
score of 2_47_320i.jpeg is:
-11022535.667549929
score of 0_42_320i.jpeg is:
-11601905.262277411
score of 4_60_320i.jpeg is:
-8309527.291709798
score of 0_19_320i.jpeg is:
-9127416.110110251
score of 5_66_320i.jpeg is:
-14891396.939590922
score of 1_65_320i.jpeg is:
-23843289.41275619
score of 3_60_320i.jpeg is:
-10061983.67760009
score of 0_63_320i.jpeg is:
-18225864.71381156
score of 1_0_320i.jpeg is:
-7063713.639709934
score of 2_66_320i.jpeg is:
-10117331.198024912
score of 2_72_320i.jpeg is:
-12905615.35904307
score of 0_77_320i.jpeg is:
-11751221.668574423
score of 3_74_320i.jpeg is:
-10061983.67760009
score of 1_71_320i.jpeg is:
-5273557.972617683
score of 5_72_320i.jpeg is:
-15001573.114559483
score of 5_2_320i.jpeg is:
-10041526.341159591
score of 4_74_320i.jpeg is:
-10126427.20954
score of 5_17_320i.jpeg is:
-6187986.472449594
score of 0_68_320i.jpeg is:
-6716482.142849259
score of 4_11_320i.jpeg is:
-15320170.65041849
score of 0_12_320i.jpeg is:
-9690573.718276672
score of 2_17_320i.jpeg is:
-8974088.017931852
score of 2_1_320i.jpeg is:
-4277901.0991117
score of 1_14_320i.jpeg is:
-11807550.15764088
score of 3_11_320i.jpeg is:
-10061983.67760009
score of 5_9_320i.jpeg is:
-15992169.079148721
score of 5_79_320i.jpeg is:
-15160451.900255097
score of 2_79_320i.jpeg is:
-14541648.882917196
score of 1_21_320i.jpeg is:
-8192293.289610487
score of 3_24_320i.jpeg is:
-10061983.67760009
score of 4_97_320i.jpeg is:
-27853381.551476914
score of 0_2_320i.jpeg is:
-12208491.581342349
score of 5_58_320i.jpeg is:
-12101218.507831506
score of 5_91_320i.jpeg is:
-17844414.0223283
score of 0_27_320i.jpeg is:
-14592496.571640156
score of 2_22_320i.jpeg is:
-5582123.538390627
score of 4_24_320i.jpeg is:
-7074983.323184078
score of 1_92_320i.jpeg is:
-5885043.355889948
score of 3_97_320i.jpeg is:
-10061983.67760009
score of 0_94_320i.jpeg is:
-12177065.546216391
score of 2_91_320i.jpeg is:
-6755969.04323128
score of 2_58_320i.jpeg is:
-12800044.354808507
score of 3_8_320i.jpeg is:
-10061983.67760009
score of 5_22_320i.jpeg is:
-14170516.237695282
score of 5_36_320i.jpeg is:
-4902334.106075924
score of 4_0_320i.jpeg is:
-11237143.698119976
score of 2_85_320i.jpeg is:
-12090406.845027952
score of 0_80_320i.jpeg is:
-7418137.269680878
score of 0_49_320i.jpeg is:
-10677347.898024468
score of 3_83_320i.jpeg is:
-10061983.67760009
score of 1_86_320i.jpeg is:
-5978428.083361631
score of 4_30_320i.jpeg is:
-10163142.07257859
score of 2_36_320i.jpeg is:
-5947661.539657165
score of 0_33_320i.jpeg is:
-17886537.017598722
score of 5_85_320i.jpeg is:
-12800774.083722673
score of 4_83_320i.jpeg is:
-8912671.217220683
score of 3_30_320i.jpeg is:
-10061983.67760009
score of 1_35_320i.jpeg is:
-21167970.65519279
score of 3_66_320i.jpeg is:
-10061983.67760009
score of 1_63_320i.jpeg is:
-22039700.327105884
score of 2_60_320i.jpeg is:
-12644606.502076315
score of 1_6_320i.jpeg is:
-6553390.2709902255
score of 0_65_320i.jpeg is:
-32229871.769008208
score of 1_19_320i.jpeg is:
-4863209.438159772
score of 4_66_320i.jpeg is:
-15563837.121609654
score of 5_60_320i.jpeg is:
-14556869.130187752
score of 5_4_320i.jpeg is:
-24700939.106770914
score of 5_74_320i.jpeg is:
-7352378.931846909
score of 4_72_320i.jpeg is:
-11406163.88900468
score of 0_71_320i.jpeg is:
-6533661.8619275
score of 2_74_320i.jpeg is:
-17316067.361631293
score of 1_77_320i.jpeg is:
-14162938.006416561
score of 3_72_320i.jpeg is:
-10061983.67760009
score of 5_55_320i.jpeg is:
-13331443.166791216
score of 4_53_320i.jpeg is:
-14554862.688498953
score of 3_29_320i.jpeg is:
-10061983.67760009
score of 3_5_320i.jpeg is:
-10061983.67760009
score of 2_55_320i.jpeg is:
-8452247.805555567
score of 0_50_320i.jpeg is:
-5427868.127440281
score of 0_99_320i.jpeg is:
-8929395.391969569
score of 3_53_320i.jpeg is:
-10061983.67760009
score of 1_56_320i.jpeg is:
-8066933.878420546
score of 4_29_320i.jpeg is:
-6269166.130735157
score of 1_42_320i.jpeg is:
-10311180.981087072
score of 3_47_320i.jpeg is:
-10061983.67760009
score of 0_44_320i.jpeg is:
-8405928.985454412
score of 2_41_320i.jpeg is:
-5962965.998533216
score of 2_88_320i.jpeg is:
-8343174.265130619
score of 1_38_320i.jpeg is:
-5961944.38937501
score of 4_47_320i.jpeg is:
-13247526.586535936
score of 5_88_320i.jpeg is:
-28275559.20773646
score of 5_41_320i.jpeg is:
-22059589.36896359
score of 0_34_320i.jpeg is:
-10984976.95156293
score of 2_31_320i.jpeg is:
-15352780.95023249
score of 5_82_320i.jpeg is:
-13778364.198044598
score of 4_84_320i.jpeg is:
-5625688.611676181
score of 1_32_320i.jpeg is:
-8242676.884955523
score of 3_37_320i.jpeg is:
-10061983.67760009
score of 5_31_320i.jpeg is:
-6796788.561927895
score of 0_87_320i.jpeg is:
-9363649.028122468
score of 4_7_320i.jpeg is:
-13524487.089611936
score of 2_82_320i.jpeg is:
-9803201.57638203
score of 1_81_320i.jpeg is:
-5438866.943769723
score of 1_48_320i.jpeg is:
-6885682.152666136
score of 3_84_320i.jpeg is:
-10061983.67760009
score of 4_37_320i.jpeg is:
-10275009.682098098
score of 4_23_320i.jpeg is:
-9526571.166782033
score of 3_90_320i.jpeg is:
-10061983.67760009
score of 3_59_320i.jpeg is:
-10061983.67760009
score of 1_95_320i.jpeg is:
-13448833.067308174
score of 2_96_320i.jpeg is:
-9871428.985132247
score of 0_93_320i.jpeg is:
-11267530.63745717
score of 5_25_320i.jpeg is:
-12996949.167261006
score of 3_23_320i.jpeg is:
-10061983.67760009
score of 1_26_320i.jpeg is:
-12478140.124372806
score of 4_59_320i.jpeg is:
-6269166.130735157
score of 4_90_320i.jpeg is:
-12661570.141782945
score of 5_96_320i.jpeg is:
-8671110.083686272
score of 0_5_320i.jpeg is:
-7739538.58198745
score of 2_25_320i.jpeg is:
-8356655.5173537675
score of 0_20_320i.jpeg is:
-11972441.766782654
score of 3_78_320i.jpeg is:
-10061983.67760009
score of 4_78_320i.jpeg is:
-12342148.040831426
score of 2_10_320i.jpeg is:
-8873039.859230133
score of 0_15_320i.jpeg is:
-8089354.219271116
score of 2_6_320i.jpeg is:
-7030453.573891342
score of 3_16_320i.jpeg is:
-10061983.67760009
score of 1_13_320i.jpeg is:
-10679267.922961188
score of 5_10_320i.jpeg is:
-5375184.424217463
score of 1_69_320i.jpeg is:
-16458327.162358543
score of 4_16_320i.jpeg is:
-10758429.867837623
score of 4_89_320i.jpeg is:
-6685688.318847648
score of 4_40_320i.jpeg is:
-9545617.709464306
score of 5_46_320i.jpeg is:
-33931657.75294673
score of 0_39_320i.jpeg is:
-7025932.244968487
score of 3_40_320i.jpeg is:
-10061983.67760009
score of 3_89_320i.jpeg is:
-10061983.67760009
score of 1_45_320i.jpeg is:
-8599601.18809937
score of 2_46_320i.jpeg is:
-7979351.177467521
score of 0_43_320i.jpeg is:
-9363649.028122468
score of 5_28_320i.jpeg is:
-18325704.407817926
score of 3_2_320i.jpeg is:
-10061983.67760009
score of 0_57_320i.jpeg is:
-19102493.181745544
score of 2_52_320i.jpeg is:
-9120073.077871274
score of 1_51_320i.jpeg is:
-17820120.69212375
score of 1_98_320i.jpeg is:
-28302769.197916172
score of 3_54_320i.jpeg is:
-10061983.67760009
score of 2_28_320i.jpeg is:
-10844710.735719107
score of 5_52_320i.jpeg is:
-5429392.724861268
score of 0_8_320i.jpeg is:
-9291892.912220558
score of 4_54_320i.jpeg is:
-13154437.552597279
score of 2_73_320i.jpeg is:
-6201973.422138747
score of 0_76_320i.jpeg is:
-12887529.338781776
score of 3_75_320i.jpeg is:
-10061983.677600091
score of 1_70_320i.jpeg is:
-9249059.783617971
score of 5_73_320i.jpeg is:
-9224950.869085569
score of 5_3_320i.jpeg is:
-12173704.592408089
score of 4_75_320i.jpeg is:
-10415537.953476682
score of 4_61_320i.jpeg is:
-10676185.47785768
score of 5_67_320i.jpeg is:
-10864039.114163222
score of 0_18_320i.jpeg is:
-18154396.016650632
score of 1_64_320i.jpeg is:
-15021428.34007993
score of 3_61_320i.jpeg is:
-10061983.67760009
score of 0_62_320i.jpeg is:
-36655800.31236399
score of 2_67_320i.jpeg is:
-12156226.571231851
score of 1_1_320i.jpeg is:
-20996452.591357894
score of 5_8_320i.jpeg is:
-10508347.168473832
score of 5_78_320i.jpeg is:
-7815741.47862741
score of 2_78_320i.jpeg is:
-10098593.289806185
score of 0_69_320i.jpeg is:
-14233664.998171479
score of 5_16_320i.jpeg is:
-14567719.571570337
score of 4_10_320i.jpeg is:
-11524190.17440103
score of 2_0_320i.jpeg is:
-10813739.218360474
score of 0_13_320i.jpeg is:
-11047798.77172514
score of 2_16_320i.jpeg is:
-7590283.484305886
score of 1_15_320i.jpeg is:
-5488376.9923111405
score of 3_10_320i.jpeg is:
-10061983.67760009
score of 2_84_320i.jpeg is:
-12887419.461930912
score of 4_1_320i.jpeg is:
-11275346.060890121
score of 0_81_320i.jpeg is:
-6422961.840365792
score of 0_48_320i.jpeg is:
-19344547.41317791
score of 5_37_320i.jpeg is:
-7595574.810487576
score of 4_31_320i.jpeg is:
-5933620.67780498
score of 3_82_320i.jpeg is:
-10061983.67760009
score of 1_87_320i.jpeg is:
-5689231.711302421
score of 5_84_320i.jpeg is:
-8621495.525679663
score of 2_37_320i.jpeg is:
-6360981.709429451
score of 0_32_320i.jpeg is:
-5394367.6724395575
score of 3_31_320i.jpeg is:
-10061983.67760009
score of 1_34_320i.jpeg is:
-16473962.240110448
score of 4_82_320i.jpeg is:
-13841527.292068448
score of 4_96_320i.jpeg is:
-11680477.629388498
score of 1_20_320i.jpeg is:
-17253549.95615094
score of 3_25_320i.jpeg is:
-10061983.67760009
score of 0_26_320i.jpeg is:
-7206503.95000228
score of 2_23_320i.jpeg is:
-6816056.2379913805
score of 0_3_320i.jpeg is:
-4969524.568127157
score of 5_59_320i.jpeg is:
-6203964.375139557
score of 5_90_320i.jpeg is:
-8218534.693121355
score of 1_93_320i.jpeg is:
-9119719.140519222
score of 3_96_320i.jpeg is:
-10061983.67760009
score of 4_25_320i.jpeg is:
-15341810.649391502
score of 5_23_320i.jpeg is:
-8192549.234955063
score of 0_95_320i.jpeg is:
-13052368.169489477
score of 2_90_320i.jpeg is:
-5513136.474417396
score of 2_59_320i.jpeg is:
-10332704.009704402
score of 3_9_320i.jpeg is:
-10061983.67760009
score of 5_5_320i.jpeg is:
-18901070.61011017
score of 5_75_320i.jpeg is:
-12608230.827820947
score of 4_73_320i.jpeg is:
-16307746.259720076
score of 0_70_320i.jpeg is:
-12844091.200286431
score of 2_75_320i.jpeg is:
-8043073.274939686
score of 1_76_320i.jpeg is:
-10270030.063606769
score of 3_73_320i.jpeg is:
-10061983.67760009
score of 3_67_320i.jpeg is:
-10061983.67760009
score of 1_62_320i.jpeg is:
-18509201.259528216
score of 1_7_320i.jpeg is:
-10569468.321876097
score of 2_61_320i.jpeg is:
-9072173.306476621
score of 0_64_320i.jpeg is:
-16095351.590433275
score of 4_67_320i.jpeg is:
-11021225.547081484
score of 1_18_320i.jpeg is:
-20838708.332059875
score of 5_61_320i.jpeg is:
-8739768.372029826
score of 1_43_320i.jpeg is:
-5689231.711302421
score of 3_46_320i.jpeg is:
-10061983.67760009
score of 0_45_320i.jpeg is:
-7830022.452154203
score of 2_40_320i.jpeg is:
-15252921.52481205
score of 2_89_320i.jpeg is:
-14129463.469223522
score of 4_46_320i.jpeg is:
-6645829.429860046
score of 1_39_320i.jpeg is:
-13357577.936592866
score of 5_89_320i.jpeg is:
-6192924.525989469
score of 5_40_320i.jpeg is:
-12564677.11875456
score of 5_54_320i.jpeg is:
-6944076.924819752
score of 3_28_320i.jpeg is:
-10061983.67760009
score of 4_52_320i.jpeg is:
-12485157.525012704
score of 3_4_320i.jpeg is:
-10061983.67760009
score of 2_54_320i.jpeg is:
-6272771.598727188
score of 0_51_320i.jpeg is:
-15066325.586472973
score of 0_98_320i.jpeg is:
-6324731.742940874
score of 4_28_320i.jpeg is:
-6739704.354121026
score of 3_52_320i.jpeg is:
-10061983.67760009
score of 1_57_320i.jpeg is:
-17961798.966584735
