score of 0_84_730Li.jpeg is:
-58247288.571006864
score of 2_28_730Li.jpeg is:
-73138820.95681436
score of 3_49_730Li.jpeg is:
-64156291.35192397
score of 1_87_730Li.jpeg is:
-43717151.9807076
score of 4_98_730Li.jpeg is:
-74338968.01829979
score of 2_82_730Li.jpeg is:
-69943662.78325512
score of 1_78_730Li.jpeg is:
-47627277.597977564
score of 4_67_730Li.jpeg is:
-72100686.44723426
score of 0_19_730Li.jpeg is:
-68068217.26244609
score of 4_0_730Li.jpeg is:
-60788312.42399355
score of 5_31_730Li.jpeg is:
-52738087.597185016
score of 4_50_730Li.jpeg is:
-73754539.8973418
score of 3_81_730Li.jpeg is:
-64156291.35192397
score of 5_64_730Li.jpeg is:
-54786504.9190954
score of 3_0_730Li.jpeg is:
-64156291.35192397
score of 4_32_730Li.jpeg is:
-58720627.2641806
score of 5_53_730Li.jpeg is:
-47656428.623000875
score of 2_34_730Li.jpeg is:
-70033694.89792325
score of 3_55_730Li.jpeg is:
-64156291.35192397
score of 3_62_730Li.jpeg is:
-64156291.35192397
score of 5_87_730Li.jpeg is:
-62501276.90346835
score of 0_98_730Li.jpeg is:
-61244504.659580976
score of 3_37_730Li.jpeg is:
-64156291.35192397
score of 2_56_730Li.jpeg is:
-76863170.1014046
score of 2_61_730Li.jpeg is:
-54755577.19700004
score of 4_84_730Li.jpeg is:
-73059276.2368256
score of 0_32_730Li.jpeg is:
-69169648.43594524
score of 1_53_730Li.jpeg is:
-67555428.5349168
score of 1_64_730Li.jpeg is:
-78760217.32385233
score of 1_3_730Li.jpeg is:
-56748732.79373008
score of 5_8_730Li.jpeg is:
-67303078.64726585
score of 1_31_730Li.jpeg is:
-82010100.17553306
score of 0_50_730Li.jpeg is:
-59883192.00549251
score of 5_78_730Li.jpeg is:
-58260322.58447236
score of 0_67_730Li.jpeg is:
-68113476.15644991
score of 4_19_730Li.jpeg is:
-57247254.88398363
score of 2_8_730Li.jpeg is:
-73849779.97752613
score of 0_76_730Li.jpeg is:
-55799019.7922581
score of 5_69_730Li.jpeg is:
-61415879.94150539
score of 1_17_730Li.jpeg is:
-70816210.03795718
score of 1_20_730Li.jpeg is:
-54381048.77507974
score of 0_41_730Li.jpeg is:
-74703622.95708743
score of 0_6_730Li.jpeg is:
-75239616.90621343
score of 1_75_730Li.jpeg is:
-80632712.34868434
score of 0_14_730Li.jpeg is:
-57542460.35318746
score of 0_23_730Li.jpeg is:
-62573887.60927479
score of 1_42_730Li.jpeg is:
-57556901.81057354
score of 4_95_730Li.jpeg is:
-87702704.1585399
score of 2_70_730Li.jpeg is:
-63031962.26676595
score of 3_11_730Li.jpeg is:
-64156291.35192397
score of 3_26_730Li.jpeg is:
-64156291.35192397
score of 2_47_730Li.jpeg is:
-54773127.36364342
score of 0_89_730Li.jpeg is:
-52752768.670845464
score of 5_96_730Li.jpeg is:
-49368663.74354793
score of 3_73_730Li.jpeg is:
-64156291.35192397
score of 2_12_730Li.jpeg is:
-55216953.460667565
score of 2_25_730Li.jpeg is:
-86128166.38945785
score of 3_44_730Li.jpeg is:
-64156291.35192397
score of 4_23_730Li.jpeg is:
-57079797.89949577
score of 5_42_730Li.jpeg is:
-53361109.278274976
score of 5_75_730Li.jpeg is:
-49630145.070312805
score of 4_14_730Li.jpeg is:
-66217558.79325239
score of 3_90_730Li.jpeg is:
-64156291.35192397
score of 2_5_730Li.jpeg is:
-60632888.22991197
score of 5_20_730Li.jpeg is:
-56230078.79712654
score of 4_41_730Li.jpeg is:
-53171442.77220887
score of 4_76_730Li.jpeg is:
-69272708.16848633
score of 1_69_730Li.jpeg is:
-81839808.26438162
score of 5_17_730Li.jpeg is:
-52435920.88658088
score of 2_93_730Li.jpeg is:
-47473680.13047451
score of 5_5_730Li.jpeg is:
-51006192.92388991
score of 4_89_730Li.jpeg is:
-79062504.87743592
score of 1_96_730Li.jpeg is:
-73288665.58238731
score of 2_39_730Li.jpeg is:
-52972641.83645785
score of 3_58_730Li.jpeg is:
-64156291.35192397
score of 0_95_730Li.jpeg is:
-54061095.23888011
score of 3_23_730Li.jpeg is:
-64156291.35192397
score of 2_42_730Li.jpeg is:
-56966392.62397662
score of 2_75_730Li.jpeg is:
-72054722.02379867
score of 3_14_730Li.jpeg is:
-64156291.35192397
score of 4_90_730Li.jpeg is:
-65922351.50711136
score of 2_20_730Li.jpeg is:
-59901936.0287296
score of 3_41_730Li.jpeg is:
-64156291.35192397
score of 3_76_730Li.jpeg is:
-64156291.35192397
score of 2_17_730Li.jpeg is:
-68948044.8220116
score of 5_93_730Li.jpeg is:
-79942074.94360876
score of 1_25_730Li.jpeg is:
-73222592.83140275
score of 0_44_730Li.jpeg is:
-66864111.14418241
score of 0_73_730Li.jpeg is:
-64244580.768342726
score of 1_12_730Li.jpeg is:
-59845499.907561064
score of 3_8_730Li.jpeg is:
-64156291.35192397
score of 3_89_730Li.jpeg is:
-64156291.35192397
score of 5_39_730Li.jpeg is:
-82062105.89936851
score of 0_26_730Li.jpeg is:
-70856520.26586057
score of 1_47_730Li.jpeg is:
-64499569.91878094
score of 4_58_730Li.jpeg is:
-71821507.08296318
score of 1_70_730Li.jpeg is:
-74732710.34312981
score of 0_11_730Li.jpeg is:
-67539459.92285788
score of 4_8_730Li.jpeg is:
-64972660.7835059
score of 0_3_730Li.jpeg is:
-57528542.905869156
score of 1_93_730Li.jpeg is:
-46853291.332405254
score of 2_69_730Li.jpeg is:
-71715750.494355
score of 0_90_730Li.jpeg is:
-68669207.2095735
score of 2_0_730Li.jpeg is:
-55921742.57422714
score of 3_95_730Li.jpeg is:
-64156291.35192397
score of 5_70_730Li.jpeg is:
-70566049.50036186
score of 4_11_730Li.jpeg is:
-54628167.98489673
score of 1_39_730Li.jpeg is:
-56738178.73478605
score of 4_26_730Li.jpeg is:
-68166428.39406529
score of 5_47_730Li.jpeg is:
-72592931.60298814
score of 0_58_730Li.jpeg is:
-62698993.177246526
score of 5_0_730Li.jpeg is:
-53993972.32439823
score of 2_96_730Li.jpeg is:
-69888936.73031457
score of 4_73_730Li.jpeg is:
-61247414.88313265
score of 5_12_730Li.jpeg is:
-43799366.029776625
score of 5_25_730Li.jpeg is:
-51095725.746742815
score of 4_44_730Li.jpeg is:
-53815766.60566573
score of 5_34_730Li.jpeg is:
-59664225.21403578
score of 4_55_730Li.jpeg is:
-70030776.0017236
score of 4_62_730Li.jpeg is:
-68008810.31359749
score of 4_5_730Li.jpeg is:
-48618003.21583401
score of 2_87_730Li.jpeg is:
-49390977.333001874
score of 4_37_730Li.jpeg is:
-78922358.95158945
score of 1_28_730Li.jpeg is:
-73305095.67288868
score of 0_49_730Li.jpeg is:
-76783122.22098973
score of 5_56_730Li.jpeg is:
-48159126.803690776
score of 5_61_730Li.jpeg is:
-61044469.98921499
score of 3_5_730Li.jpeg is:
-64156291.35192397
score of 3_84_730Li.jpeg is:
-64156291.35192397
score of 0_81_730Li.jpeg is:
-56787936.21126041
score of 2_78_730Li.jpeg is:
-53909429.84714635
score of 3_19_730Li.jpeg is:
-64156291.35192397
score of 1_82_730Li.jpeg is:
-77618102.9714596
score of 1_61_730Li.jpeg is:
-56472414.647140205
score of 1_6_730Li.jpeg is:
-71170088.77042371
score of 0_37_730Li.jpeg is:
-59982846.07576228
score of 5_28_730Li.jpeg is:
-56443282.18579073
score of 4_49_730Li.jpeg is:
-51374781.70180916
score of 1_56_730Li.jpeg is:
-70945107.17102864
score of 3_98_730Li.jpeg is:
-64156291.35192397
score of 0_62_730Li.jpeg is:
-57818838.79201792
score of 1_34_730Li.jpeg is:
-78298493.01859999
score of 0_55_730Li.jpeg is:
-66459994.2912354
score of 5_82_730Li.jpeg is:
-49221022.63804068
score of 3_67_730Li.jpeg is:
-64156291.35192397
score of 2_31_730Li.jpeg is:
-79983363.35797666
score of 3_50_730Li.jpeg is:
-64156291.35192397
score of 4_81_730Li.jpeg is:
-64545480.782949924
score of 2_64_730Li.jpeg is:
-86223692.16944481
score of 3_32_730Li.jpeg is:
-64156291.35192397
score of 2_53_730Li.jpeg is:
-61937397.70961472
score of 3_60_730Li.jpeg is:
-64156291.35192397
score of 3_57_730Li.jpeg is:
-64156291.35192397
score of 2_36_730Li.jpeg is:
-81920774.57204247
score of 5_85_730Li.jpeg is:
-69753289.38333242
score of 2_63_730Li.jpeg is:
-54755577.19700004
score of 2_54_730Li.jpeg is:
-59893139.98665663
score of 3_35_730Li.jpeg is:
-64156291.35192397
score of 1_99_730Li.jpeg is:
-85670916.62752202
score of 4_86_730Li.jpeg is:
-52541843.22085677
score of 5_18_730Li.jpeg is:
-61223374.79850062
score of 1_1_730Li.jpeg is:
-56472414.647140205
score of 1_66_730Li.jpeg is:
-40826780.65900608
score of 4_79_730Li.jpeg is:
-50614821.38308752
score of 1_51_730Li.jpeg is:
-75825773.55766532
score of 0_30_730Li.jpeg is:
-55722842.69615899
score of 0_65_730Li.jpeg is:
-58058608.96714771
score of 0_52_730Li.jpeg is:
-59034945.26401053
score of 1_33_730Li.jpeg is:
-54532040.42773404
score of 5_99_730Li.jpeg is:
-58336133.885094956
score of 0_86_730Li.jpeg is:
-66178937.74432051
score of 1_85_730Li.jpeg is:
-71168868.910311
score of 2_48_730Li.jpeg is:
-59907187.80078633
score of 3_29_730Li.jpeg is:
-64156291.35192397
score of 2_80_730Li.jpeg is:
-76404450.49818152
score of 0_9_730Li.jpeg is:
-67878642.91483739
score of 4_52_730Li.jpeg is:
-76188355.95999421
score of 5_33_730Li.jpeg is:
-62885175.3506672
score of 4_2_730Li.jpeg is:
-49654641.37501725
score of 4_65_730Li.jpeg is:
-56878208.70703344
score of 3_83_730Li.jpeg is:
-64156291.35192397
score of 5_51_730Li.jpeg is:
-67429428.05953835
score of 4_30_730Li.jpeg is:
-57559138.03773256
score of 1_18_730Li.jpeg is:
-69708096.35844357
score of 3_2_730Li.jpeg is:
-64156291.35192397
score of 5_66_730Li.jpeg is:
-64814482.78836917
score of 0_79_730Li.jpeg is:
-78707551.19938256
score of 4_16_730Li.jpeg is:
-50673922.593922436
score of 0_68_730Li.jpeg is:
-64647157.292270035
score of 5_77_730Li.jpeg is:
-71245296.76183064
score of 5_40_730Li.jpeg is:
-66636345.9173681
score of 4_21_730Li.jpeg is:
-72918488.53276785
score of 2_7_730Li.jpeg is:
-76763483.1396249
score of 3_92_730Li.jpeg is:
-64156291.35192397
score of 5_15_730Li.jpeg is:
-60993775.48853063
score of 4_74_730Li.jpeg is:
-45523610.9848068
score of 4_43_730Li.jpeg is:
-55772648.15327804
score of 5_22_730Li.jpeg is:
-49428110.74406168
score of 5_7_730Li.jpeg is:
-58661344.17233589
score of 2_91_730Li.jpeg is:
-56739890.90550417
score of 2_59_730Li.jpeg is:
-48453823.20933998
score of 3_38_730Li.jpeg is:
-64156291.35192397
score of 1_94_730Li.jpeg is:
-47400464.752985924
score of 0_97_730Li.jpeg is:
-56042852.26853024
score of 5_88_730Li.jpeg is:
-67397344.32999799
score of 0_43_730Li.jpeg is:
-63793859.91705854
score of 1_22_730Li.jpeg is:
-90084486.96357055
score of 1_15_730Li.jpeg is:
-82243655.04930794
score of 0_74_730Li.jpeg is:
-79587403.4323148
score of 0_4_730Li.jpeg is:
-92097329.74092813
score of 1_40_730Li.jpeg is:
-50571636.27036822
score of 0_21_730Li.jpeg is:
-45801163.09507818
score of 0_16_730Li.jpeg is:
-68349016.818391
score of 4_68_730Li.jpeg is:
-78185064.04745564
score of 1_77_730Li.jpeg is:
-47218707.01787258
score of 4_97_730Li.jpeg is:
-62369394.60419612
score of 1_88_730Li.jpeg is:
-64936335.395723246
score of 2_45_730Li.jpeg is:
-55601029.59343848
score of 3_24_730Li.jpeg is:
-64156291.35192397
score of 3_13_730Li.jpeg is:
-64156291.35192397
score of 2_72_730Li.jpeg is:
-52513768.43025985
score of 5_94_730Li.jpeg is:
-79290521.14946267
score of 3_46_730Li.jpeg is:
-64156291.35192397
score of 2_27_730Li.jpeg is:
-81204393.49790877
score of 2_10_730Li.jpeg is:
-54425557.87899817
score of 3_71_730Li.jpeg is:
-64156291.35192397
score of 1_91_730Li.jpeg is:
-55457710.46106312
score of 0_92_730Li.jpeg is:
-69691403.33929607
score of 3_68_730Li.jpeg is:
-64156291.35192397
score of 3_97_730Li.jpeg is:
-64156291.35192397
score of 2_2_730Li.jpeg is:
-70033694.89792325
score of 5_45_730Li.jpeg is:
-63686613.66215712
score of 4_24_730Li.jpeg is:
-73160631.68126306
score of 4_13_730Li.jpeg is:
-54481382.14249884
score of 5_72_730Li.jpeg is:
-62382192.78722276
score of 2_94_730Li.jpeg is:
-51885322.456252754
score of 5_2_730Li.jpeg is:
-59664225.21403578
score of 1_59_730Li.jpeg is:
-52711287.01620796
score of 4_46_730Li.jpeg is:
-66031628.92352754
score of 5_27_730Li.jpeg is:
-58565366.13927409
score of 0_38_730Li.jpeg is:
-67157636.62851231
score of 5_10_730Li.jpeg is:
-54853137.972017296
score of 1_9_730Li.jpeg is:
-59205279.73625697
score of 4_71_730Li.jpeg is:
-81316462.38477677
score of 3_16_730Li.jpeg is:
-64156291.35192397
score of 2_77_730Li.jpeg is:
-50115118.82810594
score of 2_40_730Li.jpeg is:
-50293303.513558745
score of 3_21_730Li.jpeg is:
-64156291.35192397
score of 4_92_730Li.jpeg is:
-72639428.55607805
score of 2_15_730Li.jpeg is:
-74053227.52997003
score of 3_74_730Li.jpeg is:
-64156291.35192397
score of 3_43_730Li.jpeg is:
-64156291.35192397
score of 2_22_730Li.jpeg is:
-87157879.69668606
score of 5_91_730Li.jpeg is:
-68389292.21811889
score of 1_10_730Li.jpeg is:
-52740494.79644015
score of 0_71_730Li.jpeg is:
-62707541.454785526
score of 5_59_730Li.jpeg is:
-68857725.89919361
score of 0_46_730Li.jpeg is:
-51057456.891972885
score of 1_27_730Li.jpeg is:
-75073078.09393242
score of 4_38_730Li.jpeg is:
-53657760.5115317
score of 0_13_730Li.jpeg is:
-74573088.28753905
score of 1_72_730Li.jpeg is:
-51468625.36722256
score of 1_45_730Li.jpeg is:
-54634256.117161974
score of 0_24_730Li.jpeg is:
-59230357.40358424
score of 0_1_730Li.jpeg is:
-55589800.39901286
score of 2_88_730Li.jpeg is:
-56738493.18031074
score of 2_99_730Li.jpeg is:
-79894153.28468665
score of 1_54_730Li.jpeg is:
-62381397.19923409
score of 0_35_730Li.jpeg is:
-69028380.63868497
score of 1_4_730Li.jpeg is:
-77595854.23495074
score of 1_63_730Li.jpeg is:
-56472414.647140205
score of 0_57_730Li.jpeg is:
-74889066.89237553
score of 5_48_730Li.jpeg is:
-58847365.115385845
score of 4_29_730Li.jpeg is:
-70374244.2189542
score of 1_36_730Li.jpeg is:
-77568107.06048866
score of 0_60_730Li.jpeg is:
-55703792.612152345
score of 5_80_730Li.jpeg is:
-68828321.42660905
score of 3_52_730Li.jpeg is:
-64156291.35192397
score of 2_33_730Li.jpeg is:
-54390474.83643219
score of 3_65_730Li.jpeg is:
-64156291.35192397
score of 4_83_730Li.jpeg is:
-58234952.20247265
score of 2_51_730Li.jpeg is:
-68561901.6243814
score of 3_30_730Li.jpeg is:
-64156291.35192397
score of 2_66_730Li.jpeg is:
-44282228.7206328
score of 4_7_730Li.jpeg is:
-51658211.69818044
score of 4_60_730Li.jpeg is:
-59391181.71368305
score of 4_57_730Li.jpeg is:
-53097738.43721456
score of 1_48_730Li.jpeg is:
-56337767.11579181
score of 0_29_730Li.jpeg is:
-48998418.166725196
score of 5_36_730Li.jpeg is:
-59805049.79560724
score of 2_85_730Li.jpeg is:
-67559858.07037552
score of 3_7_730Li.jpeg is:
-64156291.35192397
score of 5_63_730Li.jpeg is:
-61044469.98921499
score of 5_54_730Li.jpeg is:
-52577783.7037626
score of 4_35_730Li.jpeg is:
-70688509.48760062
score of 3_86_730Li.jpeg is:
-64156291.35192397
score of 2_18_730Li.jpeg is:
-54031148.26570844
score of 3_79_730Li.jpeg is:
-64156291.35192397
score of 0_83_730Li.jpeg is:
-54375399.27237773
score of 1_80_730Li.jpeg is:
-69945682.6380024
score of 0_45_730Li.jpeg is:
-51769775.88915868
score of 1_24_730Li.jpeg is:
-56887350.2380005
score of 3_9_730Li.jpeg is:
-64156291.35192397
score of 1_13_730Li.jpeg is:
-70322227.7229857
score of 0_72_730Li.jpeg is:
-62527617.46296263
score of 3_88_730Li.jpeg is:
-64156291.35192397
score of 4_59_730Li.jpeg is:
-75518110.72389512
score of 1_46_730Li.jpeg is:
-49610046.976869985
score of 0_27_730Li.jpeg is:
-68725618.67325638
score of 5_38_730Li.jpeg is:
-50022665.79036085
score of 4_9_730Li.jpeg is:
-64103165.75631562
score of 0_10_730Li.jpeg is:
-56669252.830976844
score of 1_71_730Li.jpeg is:
-65791971.17019427
score of 0_2_730Li.jpeg is:
-76594374.43574294
score of 2_43_730Li.jpeg is:
-60525110.43144342
score of 3_22_730Li.jpeg is:
-64156291.35192397
score of 3_15_730Li.jpeg is:
-64156291.35192397
score of 2_74_730Li.jpeg is:
-71738711.18279059
score of 4_91_730Li.jpeg is:
-75006259.34335652
score of 3_40_730Li.jpeg is:
-64156291.35192397
score of 2_21_730Li.jpeg is:
-50809875.0035943
score of 2_16_730Li.jpeg is:
-69943662.78325512
score of 3_77_730Li.jpeg is:
-64156291.35192397
score of 5_92_730Li.jpeg is:
-66068509.57662279
score of 2_1_730Li.jpeg is:
-54755577.19700004
score of 3_94_730Li.jpeg is:
-64156291.35192397
score of 4_10_730Li.jpeg is:
-70002989.74783804
score of 5_71_730Li.jpeg is:
-72652426.92199013
score of 0_59_730Li.jpeg is:
-57769193.1171903
score of 5_46_730Li.jpeg is:
-71699131.80975461
score of 4_27_730Li.jpeg is:
-56332249.52074461
score of 1_38_730Li.jpeg is:
-63441624.51777138
score of 5_1_730Li.jpeg is:
-61044469.98921499
score of 2_97_730Li.jpeg is:
-56881480.60977019
score of 5_13_730Li.jpeg is:
-51954442.64449039
score of 4_72_730Li.jpeg is:
-61603137.51816824
score of 4_45_730Li.jpeg is:
-56603104.44132653
score of 5_24_730Li.jpeg is:
-72125015.67244516
score of 1_92_730Li.jpeg is:
-60805520.74075553
score of 2_68_730Li.jpeg is:
-50479576.04727948
score of 0_91_730Li.jpeg is:
-50199123.006965235
score of 0_80_730Li.jpeg is:
-81767373.14216615
score of 3_18_730Li.jpeg is:
-64156291.35192397
score of 2_79_730Li.jpeg is:
-68948044.8220116
score of 1_83_730Li.jpeg is:
-56575665.09950766
score of 4_54_730Li.jpeg is:
-52741650.555428945
score of 5_35_730Li.jpeg is:
-69459469.05231546
score of 4_4_730Li.jpeg is:
-56567786.61958076
score of 4_63_730Li.jpeg is:
-58318498.48133494
score of 2_86_730Li.jpeg is:
-63910141.571946055
score of 5_57_730Li.jpeg is:
-53790610.981388465
score of 0_48_730Li.jpeg is:
-58173869.256664954
score of 1_29_730Li.jpeg is:
-50164340.53487832
score of 4_36_730Li.jpeg is:
-52726558.432939604
score of 3_4_730Li.jpeg is:
-64156291.35192397
score of 5_60_730Li.jpeg is:
-71253793.86370997
score of 3_85_730Li.jpeg is:
-64156291.35192397
score of 5_83_730Li.jpeg is:
-67473814.5682663
score of 3_66_730Li.jpeg is:
-64156291.35192397
score of 3_51_730Li.jpeg is:
-64156291.35192397
score of 2_30_730Li.jpeg is:
-55599777.22112836
score of 4_80_730Li.jpeg is:
-48355118.97578664
score of 2_65_730Li.jpeg is:
-62045483.61636394
score of 2_52_730Li.jpeg is:
-67883007.80103005
score of 3_33_730Li.jpeg is:
-64156291.35192397
score of 1_7_730Li.jpeg is:
-79039076.29183568
score of 1_60_730Li.jpeg is:
-56551901.57350683
score of 1_57_730Li.jpeg is:
-79891694.41805533
score of 4_48_730Li.jpeg is:
-52539761.38091987
score of 5_29_730Li.jpeg is:
-70534529.9048058
score of 0_36_730Li.jpeg is:
-69967499.86908674
score of 3_99_730Li.jpeg is:
-64156291.35192397
score of 0_63_730Li.jpeg is:
-55589800.39901286
score of 0_54_730Li.jpeg is:
-64608610.37648259
score of 1_35_730Li.jpeg is:
-55965817.80773066
score of 2_83_730Li.jpeg is:
-55799455.70769417
score of 4_1_730Li.jpeg is:
-58318498.48133494
score of 0_18_730Li.jpeg is:
-70701986.49682276
score of 4_66_730Li.jpeg is:
-83922255.46388862
score of 1_79_730Li.jpeg is:
-70816210.03795718
score of 4_51_730Li.jpeg is:
-53334702.236159846
score of 5_30_730Li.jpeg is:
-72177915.79425728
score of 3_80_730Li.jpeg is:
-64156291.35192397
score of 3_1_730Li.jpeg is:
-64156291.35192397
score of 5_65_730Li.jpeg is:
-59804510.99390344
score of 5_52_730Li.jpeg is:
-74267796.1360421
score of 4_33_730Li.jpeg is:
-70486003.89911793
score of 0_85_730Li.jpeg is:
-57237494.85878125
score of 3_48_730Li.jpeg is:
-64156291.35192397
score of 2_29_730Li.jpeg is:
-52972067.37246275
score of 4_99_730Li.jpeg is:
-58720627.2641806
score of 1_86_730Li.jpeg is:
-68136906.05874963
score of 1_52_730Li.jpeg is:
-63556752.57201186
score of 0_33_730Li.jpeg is:
-49789304.68009366
score of 1_2_730Li.jpeg is:
-78298493.01859999
score of 1_65_730Li.jpeg is:
-66022119.343307436
score of 5_9_730Li.jpeg is:
-74902445.67677784
score of 0_51_730Li.jpeg is:
-65652140.33810142
score of 1_30_730Li.jpeg is:
-53502476.83921963
score of 4_18_730Li.jpeg is:
-69767949.94970483
score of 0_66_730Li.jpeg is:
-47478505.325402245
score of 5_79_730Li.jpeg is:
-52435920.88658088
score of 2_9_730Li.jpeg is:
-54389014.73057854
score of 3_54_730Li.jpeg is:
-64156291.35192397
score of 2_35_730Li.jpeg is:
-70631360.9274235
score of 3_63_730Li.jpeg is:
-64156291.35192397
score of 0_99_730Li.jpeg is:
-69169648.43594524
score of 5_86_730Li.jpeg is:
-50321315.27628334
score of 2_57_730Li.jpeg is:
-78645769.31799886
score of 3_36_730Li.jpeg is:
-64156291.35192397
score of 2_60_730Li.jpeg is:
-67032535.460933864
score of 4_85_730Li.jpeg is:
-66816324.93762103
score of 4_94_730Li.jpeg is:
-55761060.13605371
score of 3_10_730Li.jpeg is:
-64156291.35192397
score of 2_71_730Li.jpeg is:
-56076555.919710904
score of 2_46_730Li.jpeg is:
-51036892.09128986
score of 3_27_730Li.jpeg is:
-64156291.35192397
score of 5_97_730Li.jpeg is:
-66138412.38022594
score of 0_88_730Li.jpeg is:
-43413570.518054165
score of 2_13_730Li.jpeg is:
-56810264.485086456
score of 3_72_730Li.jpeg is:
-64156291.35192397
score of 3_45_730Li.jpeg is:
-64156291.35192397
score of 2_24_730Li.jpeg is:
-49547448.613395095
score of 1_16_730Li.jpeg is:
-77618102.9714596
score of 5_68_730Li.jpeg is:
-71704511.46169986
score of 0_77_730Li.jpeg is:
-54370428.32337073
score of 0_40_730Li.jpeg is:
-50224355.05935521
score of 1_21_730Li.jpeg is:
-50228013.94717432
score of 0_7_730Li.jpeg is:
-79324685.48259424
score of 0_15_730Li.jpeg is:
-69203447.79115587
score of 1_74_730Li.jpeg is:
-83420357.8803097
score of 1_43_730Li.jpeg is:
-60203171.077938125
score of 0_22_730Li.jpeg is:
-74547209.3659898
score of 1_97_730Li.jpeg is:
-51772323.9198758
score of 4_88_730Li.jpeg is:
-74875218.56065506
score of 3_59_730Li.jpeg is:
-64156291.35192397
score of 2_38_730Li.jpeg is:
-65625903.99452728
score of 0_94_730Li.jpeg is:
-48025150.326046646
score of 5_43_730Li.jpeg is:
-50148364.24455733
score of 4_22_730Li.jpeg is:
-53815327.44786234
score of 4_15_730Li.jpeg is:
-52425796.8954539
score of 5_74_730Li.jpeg is:
-52596906.659923986
score of 3_91_730Li.jpeg is:
-64156291.35192397
score of 2_4_730Li.jpeg is:
-62665380.36834185
score of 4_40_730Li.jpeg is:
-76083097.56609522
score of 5_21_730Li.jpeg is:
-75251714.88230209
score of 5_16_730Li.jpeg is:
-49221022.63804068
score of 1_68_730Li.jpeg is:
-50986098.6392285
score of 4_77_730Li.jpeg is:
-72719577.28424817
score of 2_92_730Li.jpeg is:
-57414752.478540525
score of 5_4_730Li.jpeg is:
-55861747.174032666
score of 3_96_730Li.jpeg is:
-64156291.35192397
score of 2_3_730Li.jpeg is:
-60936829.03611503
score of 4_25_730Li.jpeg is:
-56020370.896351814
score of 5_44_730Li.jpeg is:
-54993957.69956528
score of 5_73_730Li.jpeg is:
-72344590.42851081
score of 4_12_730Li.jpeg is:
-45605666.20972664
score of 2_95_730Li.jpeg is:
-60246003.96985337
score of 5_3_730Li.jpeg is:
-54187410.161223054
score of 0_39_730Li.jpeg is:
-57197489.71596621
score of 5_26_730Li.jpeg is:
-62005932.63140049
score of 4_47_730Li.jpeg is:
-78360419.47675003
score of 1_58_730Li.jpeg is:
-54145680.61268916
score of 4_70_730Li.jpeg is:
-51838700.0178003
score of 5_11_730Li.jpeg is:
-48127474.906936556
score of 1_8_730Li.jpeg is:
-66145808.879304804
score of 1_90_730Li.jpeg is:
-79546800.38670877
score of 0_93_730Li.jpeg is:
-49137809.552785836
score of 3_69_730Li.jpeg is:
-64156291.35192397
score of 0_70_730Li.jpeg is:
-66221248.09875533
score of 1_11_730Li.jpeg is:
-69956681.65047218
score of 4_39_730Li.jpeg is:
-61967039.85634488
score of 1_26_730Li.jpeg is:
-70895534.96138586
score of 0_47_730Li.jpeg is:
-53566097.48186291
score of 5_58_730Li.jpeg is:
-71891879.85123809
score of 1_73_730Li.jpeg is:
-56506790.51066314
score of 0_12_730Li.jpeg is:
-75294629.22800088
score of 0_25_730Li.jpeg is:
-64616862.337253414
score of 1_44_730Li.jpeg is:
-81169763.80073123
score of 0_0_730Li.jpeg is:
-61762042.22194813
score of 2_89_730Li.jpeg is:
-52855551.44767543
score of 2_76_730Li.jpeg is:
-55659618.96026863
score of 3_17_730Li.jpeg is:
-64156291.35192397
score of 3_20_730Li.jpeg is:
-64156291.35192397
score of 2_41_730Li.jpeg is:
-70273624.82031778
score of 4_93_730Li.jpeg is:
-65854435.20907897
score of 3_75_730Li.jpeg is:
-64156291.35192397
score of 2_14_730Li.jpeg is:
-51775873.86325964
score of 2_23_730Li.jpeg is:
-52286971.351153105
score of 3_42_730Li.jpeg is:
-64156291.35192397
score of 5_90_730Li.jpeg is:
-62096266.96465999
score of 5_81_730Li.jpeg is:
-67517740.41831054
score of 2_32_730Li.jpeg is:
-79894153.28468665
score of 3_53_730Li.jpeg is:
-64156291.35192397
score of 3_64_730Li.jpeg is:
-64156291.35192397
score of 4_82_730Li.jpeg is:
-50673922.593922436
score of 3_31_730Li.jpeg is:
-64156291.35192397
score of 2_50_730Li.jpeg is:
-50126485.20615665
score of 2_67_730Li.jpeg is:
-51778190.948551275
score of 2_98_730Li.jpeg is:
-56318612.96100551
score of 0_34_730Li.jpeg is:
-76594374.43574294
score of 1_55_730Li.jpeg is:
-53932928.14896651
score of 1_62_730Li.jpeg is:
-59192917.86951935
score of 1_5_730Li.jpeg is:
-65910478.37676197
score of 1_37_730Li.jpeg is:
-83811437.23104458
score of 4_28_730Li.jpeg is:
-53787509.07983257
score of 5_49_730Li.jpeg is:
-68568794.46256928
score of 0_56_730Li.jpeg is:
-70871899.0958575
score of 0_61_730Li.jpeg is:
-55589800.39901286
score of 3_78_730Li.jpeg is:
-64156291.35192397
score of 2_19_730Li.jpeg is:
-61940306.20603002
score of 0_82_730Li.jpeg is:
-68349016.818391
score of 1_81_730Li.jpeg is:
-64601085.18066041
score of 4_61_730Li.jpeg is:
-58318498.48133494
score of 4_6_730Li.jpeg is:
-50890655.99800594
score of 5_37_730Li.jpeg is:
-67894291.24527888
score of 0_28_730Li.jpeg is:
-71733831.0001876
score of 1_49_730Li.jpeg is:
-85442159.15387455
score of 4_56_730Li.jpeg is:
-49938875.483535185
score of 2_84_730Li.jpeg is:
-46217274.634576336
score of 5_62_730Li.jpeg is:
-74113528.01941042
score of 3_6_730Li.jpeg is:
-64156291.35192397
score of 4_34_730Li.jpeg is:
-49654641.37501725
score of 5_55_730Li.jpeg is:
-66222997.728385784
score of 3_87_730Li.jpeg is:
-64156291.35192397
score of 4_78_730Li.jpeg is:
-56249198.22989163
score of 1_67_730Li.jpeg is:
-53711085.7630848
score of 5_19_730Li.jpeg is:
-58938667.409026295
score of 1_0_730Li.jpeg is:
-55629207.07555165
score of 0_31_730Li.jpeg is:
-72015177.85064402
score of 1_50_730Li.jpeg is:
-59151579.887242444
score of 0_64_730Li.jpeg is:
-82245612.1868752
score of 1_32_730Li.jpeg is:
-85670916.62752202
score of 0_53_730Li.jpeg is:
-67098679.16244468
score of 3_61_730Li.jpeg is:
-64156291.35192397
score of 2_37_730Li.jpeg is:
-60602212.44511798
score of 3_56_730Li.jpeg is:
-64156291.35192397
score of 5_84_730Li.jpeg is:
-70140128.4974712
score of 2_62_730Li.jpeg is:
-61332141.25774674
score of 3_34_730Li.jpeg is:
-64156291.35192397
score of 2_55_730Li.jpeg is:
-68546166.22506748
score of 4_87_730Li.jpeg is:
-80177313.09209411
score of 1_98_730Li.jpeg is:
-58520167.32535586
score of 2_81_730Li.jpeg is:
-50767146.735273495
score of 0_8_730Li.jpeg is:
-66411171.64487492
score of 5_32_730Li.jpeg is:
-58336133.885094956
score of 4_53_730Li.jpeg is:
-50875763.574102774
score of 4_64_730Li.jpeg is:
-51218228.710138
score of 4_3_730Li.jpeg is:
-61295362.691599
score of 3_82_730Li.jpeg is:
-64156291.35192397
score of 4_31_730Li.jpeg is:
-58508138.29208529
score of 5_50_730Li.jpeg is:
-75831522.12977706
score of 0_78_730Li.jpeg is:
-50711291.896520644
score of 5_67_730Li.jpeg is:
-67182528.5864279
score of 3_3_730Li.jpeg is:
-64156291.35192397
score of 1_19_730Li.jpeg is:
-58316157.93733721
score of 0_87_730Li.jpeg is:
-53509028.65453599
score of 5_98_730Li.jpeg is:
-67347829.63546564
score of 1_84_730Li.jpeg is:
-52173686.34087856
score of 3_28_730Li.jpeg is:
-64156291.35192397
score of 2_49_730Li.jpeg is:
-80499322.1143927
score of 3_39_730Li.jpeg is:
-64156291.35192397
score of 2_58_730Li.jpeg is:
-52733819.42484844
score of 1_95_730Li.jpeg is:
-50099082.33480093
score of 5_89_730Li.jpeg is:
-60671534.950898476
score of 0_96_730Li.jpeg is:
-78474914.48038837
score of 5_76_730Li.jpeg is:
-83905294.09165631
score of 0_69_730Li.jpeg is:
-75982895.39905806
score of 4_17_730Li.jpeg is:
-50614821.38308752
score of 4_20_730Li.jpeg is:
-71345863.54826905
score of 5_41_730Li.jpeg is:
-56762740.048120335
score of 2_6_730Li.jpeg is:
-69701257.08833651
score of 3_93_730Li.jpeg is:
-64156291.35192397
score of 4_75_730Li.jpeg is:
-45688567.81296862
score of 5_14_730Li.jpeg is:
-81738980.26207115
score of 5_23_730Li.jpeg is:
-57174020.471548736
score of 4_42_730Li.jpeg is:
-53852388.740964584
score of 5_6_730Li.jpeg is:
-46209720.71167662
score of 2_90_730Li.jpeg is:
-56925457.80456613
score of 1_89_730Li.jpeg is:
-54065963.554872945
score of 4_96_730Li.jpeg is:
-52271580.34800136
score of 3_25_730Li.jpeg is:
-64156291.35192397
score of 2_44_730Li.jpeg is:
-66024271.45082315
score of 2_73_730Li.jpeg is:
-58706617.3023529
score of 3_12_730Li.jpeg is:
-64156291.35192397
score of 5_95_730Li.jpeg is:
-70826301.21668063
score of 2_26_730Li.jpeg is:
-61920657.3412092
score of 3_47_730Li.jpeg is:
-64156291.35192397
score of 3_70_730Li.jpeg is:
-64156291.35192397
score of 2_11_730Li.jpeg is:
-63599754.52878695
score of 1_23_730Li.jpeg is:
-58919672.60317539
score of 0_42_730Li.jpeg is:
-61284578.62034619
score of 0_75_730Li.jpeg is:
-66074502.91706536
score of 1_14_730Li.jpeg is:
-49203778.24013008
score of 0_5_730Li.jpeg is:
-73496044.13148314
score of 0_20_730Li.jpeg is:
-59950153.45129697
score of 1_41_730Li.jpeg is:
-66587172.0714488
score of 1_76_730Li.jpeg is:
-53786310.356438175
score of 4_69_730Li.jpeg is:
-44900552.52515612
score of 0_17_730Li.jpeg is:
-78707551.19938256
