score of 0_55_40i.jpeg is:
392.5340933582325
score of 4_1_40i.jpeg is:
-167.30055907710698
score of 5_9_40i.jpeg is:
-127.3059916126745
score of 0_297_40i.jpeg is:
453.1987711307068
score of 5_8_40i.jpeg is:
-367.55333385326037
score of 4_234_40i.jpeg is:
37.21275119724429
score of 2_80_40i.jpeg is:
58.057381168210284
score of 4_113_40i.jpeg is:
-24.351936092019194
score of 4_375_40i.jpeg is:
59.801217730271546
score of 3_181_40i.jpeg is:
264.2374168321718
score of 5_315_40i.jpeg is:
40.09696258577314
score of 1_21_40i.jpeg is:
172.12373084184395
score of 1_324_40i.jpeg is:
-88.45423104188453
score of 2_426_40i.jpeg is:
74.01852608130501
score of 2_12_40i.jpeg is:
50.13868564863243
score of 2_13_40i.jpeg is:
35.52185056975308
score of 2_315_40i.jpeg is:
-62.611074257369374
score of 2_314_40i.jpeg is:
-38.742982164020574
score of 3_58_40i.jpeg is:
264.2374168321718
score of 3_390_40i.jpeg is:
264.2374168321718
score of 4_431_40i.jpeg is:
-29.541431323688172
score of 0_400_40i.jpeg is:
-4164.031816843478
score of 2_450_40i.jpeg is:
-19.123112046718333
score of 1_134_40i.jpeg is:
28.329344846593088
score of 1_57_40i.jpeg is:
172.11776699168655
score of 2_5_40i.jpeg is:
-1530.936327692477
score of 2_65_40i.jpeg is:
-93.74228157290604
score of 4_391_40i.jpeg is:
59.801217730271546
score of 4_390_40i.jpeg is:
460.7819859469532
score of 3_431_40i.jpeg is:
264.2374168321718
score of 2_104_40i.jpeg is:
102.76180019468659
score of 0_333_40i.jpeg is:
45.38726586112589
score of 2_105_40i.jpeg is:
-49.320186401364445
score of 4_478_40i.jpeg is:
-213.44295807754366
score of 4_479_40i.jpeg is:
-3.0884744557196075
score of 0_23_40i.jpeg is:
116.4087797080404
score of 5_419_40i.jpeg is:
392.5337422954753
score of 3_479_40i.jpeg is:
264.23741683217173
score of 1_429_40i.jpeg is:
14.18547303870762
score of 3_82_40i.jpeg is:
264.2374168321718
score of 5_77_40i.jpeg is:
35.45053407738707
score of 5_76_40i.jpeg is:
-156.3381447110002
score of 0_128_40i.jpeg is:
-4406.712568494609
score of 3_118_40i.jpeg is:
264.2374168321718
score of 1_148_40i.jpeg is:
-26.06673834568638
score of 5_42_40i.jpeg is:
-2735.6168458317634
score of 4_277_40i.jpeg is:
21.038339814041343
score of 0_17_40i.jpeg is:
37.12812886874828
score of 2_217_40i.jpeg is:
-219.54213980950544
score of 0_247_40i.jpeg is:
-43.0924075407598
score of 0_246_40i.jpeg is:
438.0324946508132
score of 3_276_40i.jpeg is:
264.2374168321718
score of 1_226_40i.jpeg is:
-287.60904639037926
score of 3_25_40i.jpeg is:
264.2374168321718
score of 1_227_40i.jpeg is:
-81.6788697793875
score of 5_3_40i.jpeg is:
-4301.656784297634
score of 0_434_40i.jpeg is:
34.30163189886125
score of 1_62_40i.jpeg is:
-37.51927269034248
score of 1_366_40i.jpeg is:
112.0737584087576
score of 0_306_40i.jpeg is:
231.854849590085
score of 2_51_40i.jpeg is:
-95.560518628349
score of 3_496_40i.jpeg is:
264.2374168321718
score of 5_464_40i.jpeg is:
392.53494419176343
score of 4_337_40i.jpeg is:
-50.47445014952884
score of 4_150_40i.jpeg is:
-104.0686771980351
score of 5_131_40i.jpeg is:
-2735.6168458317634
score of 3_126_40i.jpeg is:
264.2374168321718
score of 0_443_40i.jpeg is:
-93.68933366696922
score of 1_310_40i.jpeg is:
172.1217255608845
score of 2_320_40i.jpeg is:
-229.0242871127257
score of 2_146_40i.jpeg is:
-211.3870546761027
score of 1_423_40i.jpeg is:
-3174.475102195314
score of 0_370_40i.jpeg is:
-106.95015019297588
score of 0_406_40i(1).jpeg is:
-227.9719574465402
score of 0_184_40i.jpeg is:
231.85548752364474
score of 4_126_40i.jpeg is:
56.75894199985031
score of 4_473_40i.jpeg is:
37.21275119724429
score of 5_146_40i.jpeg is:
2.8028238978643127
score of 0_278_40i.jpeg is:
460.78201089623184
score of 1_382_40i.jpeg is:
102.31483676204424
score of 0_29_40i.jpeg is:
-5205.064211322369
score of 3_293_40i.jpeg is:
264.2374168321718
score of 0_339_40i.jpeg is:
29.286446491337735
score of 3_308_40i.jpeg is:
264.2374168321718
score of 4_293_40i.jpeg is:
42.66741371071246
score of 3_6_40i.jpeg is:
264.2374168321718
score of 0_61_40i.jpeg is:
-61.61061648562604
score of 0_230_40i.jpeg is:
-153.9936726558937
score of 5_369_40i.jpeg is:
-4667.010996883634
score of 2_261_40i.jpeg is:
-16.356147851250554
score of 2_299_40i.jpeg is:
145.89160242082602
score of 3_363_40i.jpeg is:
264.2374168321718
score of 2_430_40i.jpeg is:
12.495064941181864
score of 0_98_40i.jpeg is:
-127.14862043191742
score of 1_333_40i.jpeg is:
32.236349397922154
score of 1_154_40i.jpeg is:
172.1298334148526
score of 5_299_40i.jpeg is:
172.14765897268518
score of 1_492_40i.jpeg is:
-47.598347316009516
score of 4_104_40i.jpeg is:
251.77198277368856
score of 4_362_40i.jpeg is:
18.637679482270485
score of 2_96_40i.jpeg is:
-125.83687274648831
score of 5_164_40i.jpeg is:
-32.32715277491709
score of 5_302_40i.jpeg is:
-3414.991220591793
score of 4_450_40i.jpeg is:
-151.92364717023736
score of 3_197_40i.jpeg is:
264.2374168321718
score of 4_63_40i.jpeg is:
-92.57307371071117
score of 5_243_40i.jpeg is:
-148.33367823457752
score of 5_242_40i.jpeg is:
-455.87150149050444
score of 2_478_40i.jpeg is:
-164.2220092260466
score of 5_85_40i.jpeg is:
12.969578672588206
score of 4_419_40i.jpeg is:
-6501.36426129853
score of 3_71_40i.jpeg is:
264.2374168321718
score of 0_388_40i.jpeg is:
-450.7765484480805
score of 5_60_40i.jpeg is:
43.73554962971805
score of 5_61_40i.jpeg is:
-4499.987890383134
score of 0_34_40i.jpeg is:
-6.63852491847424
score of 0_35_40i.jpeg is:
-1764.4714853883895
score of 2_235_40i.jpeg is:
-282.516246748612
score of 0_198_40i.jpeg is:
-4078.809590516485
score of 0_417_40i.jpeg is:
-12.19846597583588
score of 1_40_40i.jpeg is:
68.99305877541788
score of 0_325_40i.jpeg is:
-27.107454344867236
score of 1_477_40i.jpeg is:
-166.5368861465463
score of 3_427_40i.jpeg is:
264.2374168321718
score of 4_386_40i.jpeg is:
41.438162200815654
score of 4_462_40i(1).jpeg is:
59.436003089024425
score of 4_172_40i.jpeg is:
-4769.318478770024
score of 4_314_40i.jpeg is:
-3292.997590035661
score of 4_315_40i.jpeg is:
36.99951615943546
score of 5_375_40i.jpeg is:
6.633214013468532
score of 5_113_40i.jpeg is:
-74.04474057402032
score of 3_387_40i.jpeg is:
264.2374168321718
score of 1_279_40i.jpeg is:
-81.80494958953844
score of 4_147_40i.jpeg is:
172.13850729081486
score of 3_229_40i.jpeg is:
264.2374168321718
score of 3_480_40i.jpeg is:
264.2374168321718
score of 1_185_40i.jpeg is:
453.1987915806709
score of 4_20_40i.jpeg is:
-6061.002194519023
score of 4_228_40i.jpeg is:
-106.70945181726454
score of 0_422_40i.jpeg is:
-81.93534949567075
score of 2_46_40i.jpeg is:
12.460880295959875
score of 5_248_40i.jpeg is:
19.284471243825614
score of 2_126_40i.jpeg is:
231.8580466615341
score of 5_308_40i.jpeg is:
-52.298292808806444
score of 2_201_40i.jpeg is:
4.329068947363317
score of 5_309_40i.jpeg is:
-163.39088267408886
score of 5_292_40i.jpeg is:
-152.72646075674604
score of 4_369_40i.jpeg is:
-5436.6359999616525
score of 2_292_40i.jpeg is:
-221.393849817302
score of 5_54_40i.jpeg is:
-120.91897563764523
score of 0_92_40i.jpeg is:
1.180240936473445
score of 3_368_40i.jpeg is:
264.2374168321718
score of 1_338_40i.jpeg is:
-71.96217557563516
score of 5_55_40i.jpeg is:
-141.20983878240187
score of 4_260_40i.jpeg is:
-402.9897349365349
score of 4_285_40i.jpeg is:
-93.4587762709705
score of 4_178_40i.jpeg is:
-13.7463200654597
score of 4_179_40i.jpeg is:
-47.926610414530636
score of 3_45_40i.jpeg is:
264.2374168321718
score of 5_277_40i.jpeg is:
-1.683532034878021
score of 4_96_40i(1).jpeg is:
172.12266337628859
score of 5_23_40i.jpeg is:
172.11624641801274
score of 4_357_40i.jpeg is:
16.9022721868035
score of 5_404_40i.jpeg is:
30.327599157269653
score of 1_90_40i.jpeg is:
-112.44928378937031
score of 1_394_40i.jpeg is:
-50.50340464598459
score of 5_151_40i.jpeg is:
460.7820187549738
score of 3_131_40i.jpeg is:
264.2374168321718
score of 2_404_40i.jpeg is:
40.602125707401214
score of 1_306_40i.jpeg is:
438.0324673050596
score of 1_160_40i.jpeg is:
251.77078981116563
score of 5_497_40i.jpeg is:
12.969578672588206
score of 2_150_40i.jpeg is:
-6831.846223492235
score of 0_100_40i.jpeg is:
-3.606477527111837
score of 0_367_40i.jpeg is:
11.571559700112608
score of 1_494_40i.jpeg is:
-127.30110998157862
score of 2_90_40i.jpeg is:
-180.74438620689654
score of 2_91_40i.jpeg is:
42.59365199804061
score of 5_304_40i.jpeg is:
-2843.305887345422
score of 3_364_40i.jpeg is:
264.2374168321718
score of 0_467_40i.jpeg is:
102.23082307830093
score of 5_58_40i.jpeg is:
-171.69497215038425
score of 2_305_40i.jpeg is:
-30.169216909669885
score of 2_163_40i.jpeg is:
6.882112902373911
score of 2_162_40i.jpeg is:
3.344969466635391
score of 0_4_40i.jpeg is:
-36.874475087883944
score of 4_191_40i.jpeg is:
-212.47784641613066
score of 1_189_40i.jpeg is:
-4751.622998202425
score of 1_188_40i.jpeg is:
29.401219766328452
score of 5_83_40i.jpeg is:
-102.09065696532583
score of 0_215_40i.jpeg is:
-245.31396804014392
score of 3_225_40i.jpeg is:
264.2374168321718
score of 5_10_40i.jpeg is:
14.222472197199023
score of 4_225_40i.jpeg is:
39.09395331370647
score of 4_224_40i.jpeg is:
-6508.398337419692
score of 1_398_40i.jpeg is:
392.5339586172669
score of 5_409_40i.jpeg is:
-15.409827866705585
score of 3_92_40i.jpeg is:
264.2374168321718
score of 5_233_40i.jpeg is:
392.5340910967051
score of 4_252_40i.jpeg is:
-153.4282302980637
score of 2_408_40i.jpeg is:
-89.25781506566526
score of 5_440_40i.jpeg is:
14.222472197199023
score of 4_175_40i.jpeg is:
-16.01658389991954
score of 4_421_40i.jpeg is:
7.910816566340669
score of 5_372_40i.jpeg is:
-220.06941496412733
score of 3_380_40i.jpeg is:
264.2374168321718
score of 4_13_40i.jpeg is:
32.79784955232695
score of 4_80_40i.jpeg is:
231.858650526041
score of 3_313_40i.jpeg is:
264.2374168321718
score of 2_440_40i.jpeg is:
12.429215777310766
score of 1_342_40i.jpeg is:
392.53613990691014
score of 1_124_40i.jpeg is:
-4416.130760475284
score of 2_441_40i.jpeg is:
-178.3155356266489
score of 5_191_40i(1).jpeg is:
13.668207812980894
score of 4_381_40i.jpeg is:
-78.18136087444854
score of 1_111_40i.jpeg is:
80.77746251725925
score of 0_424_40i.jpeg is:
-252.43918330110802
score of 1_377_40i.jpeg is:
392.533827655461
score of 1_72_40i.jpeg is:
172.12373084184395
score of 1_376_40i.jpeg is:
-81.6788697793875
score of 4_487_40i.jpeg is:
12.3764273111954
score of 2_41_40i.jpeg is:
19.609466333682306
score of 1_445_40i.jpeg is:
-34.84765503146357
score of 0_170_40i.jpeg is:
-252.43918330110802
score of 2_120_40i.jpeg is:
34.72711109183781
score of 0_384_40i.jpeg is:
-5.124725711239443
score of 4_26_40i.jpeg is:
-38.11705111158604
score of 1_182_40i.jpeg is:
10.009482741652995
score of 4_27_40i.jpeg is:
-16.01658389991954
score of 5_120_40i.jpeg is:
-13.120270424942747
score of 5_346_40i.jpeg is:
438.0321036529421
score of 5_347_40i.jpeg is:
8.349192238552327
score of 0_139_40i.jpeg is:
18.367531133993147
score of 5_206_40i.jpeg is:
438.0321036529421
score of 3_108_40i.jpeg is:
264.2374168321718
score of 0_95_40i.jpeg is:
37.73731701400184
score of 3_109_40i.jpeg is:
264.2374168321718
score of 5_52_40i.jpeg is:
-11.182965807159961
score of 4_267_40i.jpeg is:
-15.913660494389136
score of 0_256_40i.jpeg is:
-16.737040165648885
score of 1_6_40i.jpeg is:
-3486.1395574495423
score of 5_294_40i.jpeg is:
-55.1074978163072
score of 3_34_40i.jpeg is:
264.2374168321718
score of 1_236_40i.jpeg is:
-303.74980505967386
score of 4_109_40i.jpeg is:
-127.40890371815645
score of 2_379_40i.jpeg is:
-109.24625393470971
score of 1_349_40i.jpeg is:
-182.10174124292834
score of 4_210_40i.jpeg is:
-10.718071326778691
score of 3_318_40i.jpeg is:
264.2374168321718
score of 0_220_40i.jpeg is:
-164.77683470399
score of 2_271_40i.jpeg is:
9.75247013706901
score of 0_70_40i.jpeg is:
-234.04233996681378
score of 3_211_40i.jpeg is:
264.2374168321718
score of 3_350_40i.jpeg is:
264.2374168321718
score of 4_258_40i.jpeg is:
231.857690957143
score of 3_351_40i.jpeg is:
264.2374168321718
score of 0_452_40i.jpeg is:
3.761552999883441
score of 2_36_40i.jpeg is:
-199.7840434699275
score of 2_37_40i.jpeg is:
28.70908465019106
score of 2_331_40i.jpeg is:
-283.2636687445932
score of 2_157_40i.jpeg is:
10.354820944840368
score of 1_432_40i.jpeg is:
-4448.758790865217
score of 2_156_40i.jpeg is:
-4262.498402534715
score of 3_463_40i.jpeg is:
264.2374168321718
score of 2_330_40i.jpeg is:
-241.7225168197183
score of 5_238_40i.jpeg is:
172.11844409535905
score of 3_258_40i.jpeg is:
264.2374168321718
score of 4_136_40i.jpeg is:
132.35437265962173
score of 5_403_40i.jpeg is:
4.238478614006068
score of 0_195_40i.jpeg is:
-121.17653215551726
score of 0_194_40i.jpeg is:
-4164.031816843478
score of 2_491_40i.jpeg is:
17.680246380356813
score of 1_392_40i.jpeg is:
-4.775768080740862
score of 4_50_40i.jpeg is:
172.1182317240428
score of 0_38_40i.jpeg is:
8.371784645282027
score of 5_157_40i.jpeg is:
23.566312411295577
score of 2_238_40i.jpeg is:
125.68241373387126
score of 5_330_40i.jpeg is:
-26.755430932311263
score of 3_409_40i.jpeg is:
264.2374168321718
score of 4_232_40i.jpeg is:
172.1175199039086
score of 4_233_40i.jpeg is:
-153.4282302980637
score of 0_202_40i.jpeg is:
438.0322715670459
score of 4_6_40i.jpeg is:
-128.37929901760776
score of 3_232_40i.jpeg is:
264.2374168321718
score of 3_233_40i.jpeg is:
264.2374168321718
score of 3_115_40i.jpeg is:
264.2374168321718
score of 1_323_40i.jpeg is:
-55.371105676318074
score of 0_470_40i.jpeg is:
-78.63274288573692
score of 1_144_40i.jpeg is:
-57.07900082879472
score of 0_471_40i.jpeg is:
-337.7446855745073
score of 0_89_40i.jpeg is:
-60.14196663423614
score of 1_322_40i.jpeg is:
-6069.077311458132
score of 2_288_40i.jpeg is:
-229.0242871127257
score of 2_289_40i.jpeg is:
-254.74247743646333
score of 5_381_40i.jpeg is:
-329.7774819842815
score of 4_187_40i.jpeg is:
-49.842412537254994
score of 2_14_40i.jpeg is:
102.76180019468659
score of 2_174_40i.jpeg is:
48.048843709298936
score of 3_441_40i.jpeg is:
264.2374168321718
score of 0_342_40i.jpeg is:
-2312.365715419344
score of 0_343_40i.jpeg is:
392.5340933582325
score of 2_87_40i.jpeg is:
-4518.846871557621
score of 2_86_40i.jpeg is:
-465.84168135830276
score of 2_380_40i.jpeg is:
-4.108311877733763
score of 1_483_40i.jpeg is:
24.08504550225696
score of 3_187_40i.jpeg is:
264.2374168321718
score of 4_441_40i.jpeg is:
-89.9651354136507
score of 5_39_40i.jpeg is:
-126.05415182604581
score of 1_132_40i.jpeg is:
1.775972980009306
score of 0_406_40i.jpeg is:
-227.9719574465402
score of 2_456_40i.jpeg is:
113.72992427003946
score of 1_50_40i.jpeg is:
65.95721429004762
score of 5_190_40i.jpeg is:
-2.8827584408780007
score of 2_62_40i.jpeg is:
9.831655532245499
score of 0_335_40i.jpeg is:
34.46689066419482
score of 2_103_40i.jpeg is:
-21.06594472359088
score of 3_436_40i.jpeg is:
264.2374168321718
score of 2_365_40i.jpeg is:
392.53521466955544
score of 4_162_40i.jpeg is:
-10.819595660974208
score of 5_457_40i.jpeg is:
-4400.573422835621
score of 4_305_40i.jpeg is:
-3818.810086986114
score of 2_191_40i.jpeg is:
-42.255655774553574
score of 0_494_40i.jpeg is:
-128.53599863400572
score of 5_365_40i.jpeg is:
19.884549709278886
score of 5_224_40i.jpeg is:
-6804.472405285718
score of 3_85_40i.jpeg is:
264.2374168321718
score of 0_25_40i.jpeg is:
-22.76099099182433
score of 0_189_40i.jpeg is:
-4409.938185250686
score of 3_16_40i.jpeg is:
264.2374168321718
score of 1_214_40i.jpeg is:
118.54721336542626
score of 4_78_40i.jpeg is:
-4527.516626876235
score of 0_11_40i.jpeg is:
-19.06058259414683
score of 0_240_40i.jpeg is:
172.10993808800555
score of 3_271_40i.jpeg is:
264.2374168321718
score of 4_379_40i.jpeg is:
-2747.2337414392077
score of 3_270_40i.jpeg is:
264.2374168321718
score of 1_220_40i.jpeg is:
-16.479526249202777
score of 1_489_40i.jpeg is:
-48.87727614937321
score of 5_282_40i.jpeg is:
-20.032067910713316
score of 1_488_40i.jpeg is:
77.30517289292597
score of 2_318_40i.jpeg is:
16.873563167053852
score of 2_319_40i.jpeg is:
-366.91239228659225
score of 0_349_40i.jpeg is:
-7.420026965622029
score of 3_379_40i.jpeg is:
264.2374168321718
score of 4_271_40i.jpeg is:
-31.85578462903097
score of 4_270_40i.jpeg is:
40.50926251082085
score of 1_328_40i.jpeg is:
172.12373084184395
score of 2_283_40i.jpeg is:
-136.50784244829072
score of 0_393_40i.jpeg is:
-85.5882843275306
score of 4_330_40i.jpeg is:
-31.994301514358277
score of 5_463_40i.jpeg is:
-166.20435382231807
score of 5_137_40i.jpeg is:
74.43878812157197
score of 0_209_40i.jpeg is:
-2807.4958881080297
score of 5_350_40i.jpeg is:
172.11624641801274
score of 5_136_40i.jpeg is:
41.870030587107934
score of 0_59_40i.jpeg is:
-4161.924835825115
score of 4_31_40i.jpeg is:
-200.83537705196966
score of 0_58_40i.jpeg is:
-235.15899794765295
score of 4_490_40i.jpeg is:
50.42793584689927
score of 3_330_40i.jpeg is:
264.2374168321718
score of 2_463_40i.jpeg is:
-111.00760263750301
score of 1_361_40i.jpeg is:
392.53449145733646
score of 1_107_40i.jpeg is:
-4940.975590693917
score of 0_301_40i.jpeg is:
-9.863277812677232
score of 3_403_40i.jpeg is:
264.2374168321718
score of 2_136_40i.jpeg is:
16.873563167053852
score of 0_182_40i.jpeg is:
-9.863277812677232
score of 0_183_40i.jpeg is:
-185.71158875870302
score of 4_475_40i.jpeg is:
11.541562652611539
score of 1_80_40i.jpeg is:
27.680406464616752
score of 1_81_40i.jpeg is:
172.11550574109475
score of 1_384_40i.jpeg is:
17.44882653101653
score of 1_12_40i.jpeg is:
-59.88774722892849
score of 3_347_40i.jpeg is:
264.2374168321718
score of 1_317_40i.jpeg is:
68.5853707941831
score of 1_171_40i.jpeg is:
53.99551679132998
score of 3_346_40i.jpeg is:
264.2374168321718
score of 1_13_40i.jpeg is:
27.957581447792542
score of 1_170_40i.jpeg is:
50.293313300668686
score of 0_376_40i.jpeg is:
-12.375777995243697
score of 2_327_40i.jpeg is:
-5034.688991998579
score of 0_377_40i.jpeg is:
392.5334615145512
score of 5_487_40i.jpeg is:
-127.3059916126745
score of 4_294_40i.jpeg is:
-128.44360168801046
score of 3_1_40i.jpeg is:
264.2374168321718
score of 0_237_40i.jpeg is:
4.957269939650573
score of 0_236_40i.jpeg is:
-461.8347919198449
score of 2_266_40i.jpeg is:
12.429215777310766
score of 4_168_40i.jpeg is:
133.27518638425147
score of 4_169_40i.jpeg is:
-39.34701327836515
score of 3_55_40i.jpeg is:
264.2374168321718
score of 2_68_40i.jpeg is:
23.823479161288233
score of 2_8_40i.jpeg is:
-34.56065350547035
score of 5_267_40i.jpeg is:
-93.89578146464535
score of 0_158_40i.jpeg is:
438.0322715670459
score of 1_138_40i.jpeg is:
251.7711909900199
score of 3_168_40i.jpeg is:
264.2374168321718
score of 4_207_40i.jpeg is:
47.3693740603339
score of 3_169_40i.jpeg is:
264.2374168321718
score of 5_124_40i.jpeg is:
-30.113624786094384
score of 4_411_40i.jpeg is:
81.35560883837714
score of 5_125_40i.jpeg is:
-171.1991541634124
score of 5_343_40i.jpeg is:
-141.20983878240187
score of 5_470_40i.jpeg is:
-66.30050955779284
score of 4_323_40i.jpeg is:
-311.3824815316824
score of 3_78_40i.jpeg is:
264.2374168321718
score of 4_144_40i.jpeg is:
-96.0975807611723
score of 0_380_40i.jpeg is:
6.318452487463822
score of 2_44_40i.jpeg is:
1.526595642710709
score of 2_342_40i.jpeg is:
392.53420509723094
score of 0_174_40i.jpeg is:
-44.07969679988971
score of 1_441_40i.jpeg is:
-183.1961599327106
score of 3_410_40i.jpeg is:
264.23741683217173
score of 2_343_40i.jpeg is:
-4428.414838238761
score of 0_313_40i.jpeg is:
-48.34780523861857
score of 1_115_40i.jpeg is:
-159.35237613562606
score of 1_77_40i.jpeg is:
392.53363898506154
score of 1_114_40i.jpeg is:
-91.42366708138658
score of 4_483_40i.jpeg is:
-148.39881711868279
score of 0_288_40i.jpeg is:
-11.663688649300797
score of 4_482_40i.jpeg is:
-56.44217088732713
score of 0_289_40i.jpeg is:
-115.6495996329998
score of 5_290_40i.jpeg is:
392.53413319729566
score of 5_439_40i.jpeg is:
-39.45524649482231
score of 3_30_40i.jpeg is:
264.2374168321718
score of 3_31_40i.jpeg is:
264.2374168321718
score of 5_399_40i.jpeg is:
172.11514416443816
score of 5_398_40i.jpeg is:
-12.328436196807091
score of 2_290_40i.jpeg is:
33.01376824837918
score of 5_57_40i.jpeg is:
-12.657820566374731
score of 5_56_40i.jpeg is:
392.5341209702765
score of 2_438_40i.jpeg is:
-123.31379132682767
score of 3_459_40i.jpeg is:
264.2374168321718
score of 2_188_40i.jpeg is:
42.50794510731181
score of 2_189_40i.jpeg is:
-3537.53213685557
score of 3_214_40i.jpeg is:
264.2374168321718
score of 3_46_40i.jpeg is:
264.2374168321718
score of 1_244_40i.jpeg is:
-120.80400433059802
score of 0_224_40i.jpeg is:
-184.85534093264374
score of 4_286_40i.jpeg is:
42.0173871581142
score of 0_75_40i.jpeg is:
-57.52986191591831
score of 5_275_40i.jpeg is:
-2876.6589192235347
score of 3_286_40i.jpeg is:
264.2374168321718
score of 4_54_40i.jpeg is:
-118.33792186769178
score of 5_153_40i.jpeg is:
-124.357196079341
score of 5_335_40i.jpeg is:
-375.75755922313186
score of 4_467_40i.jpeg is:
3.717231935211635
score of 5_407_40i.jpeg is:
-141.20983878240187
score of 5_406_40i.jpeg is:
-102.10548728769963
score of 4_133_40i.jpeg is:
-70.3651346020585
score of 4_355_40i.jpeg is:
-150.03410236777813
score of 0_190_40i.jpeg is:
-202.14049501706887
score of 1_436_40i.jpeg is:
-2.9756300549620267
score of 5_69_40i.jpeg is:
-126.05415182604581
score of 1_304_40i.jpeg is:
-135.2457220095951
score of 2_407_40i.jpeg is:
-4428.414838238761
score of 1_305_40i.jpeg is:
-71.96217557563516
score of 5_68_40i.jpeg is:
-7.628634575703574
score of 2_406_40i.jpeg is:
-28.995116588426114
score of 1_402_40i.jpeg is:
-399.5288635349017
score of 3_452_40i.jpeg is:
264.2374168321718
score of 5_208_40i.jpeg is:
-235.94945699449275
score of 3_453_40i.jpeg is:
264.23741683217173
score of 4_195_40i.jpeg is:
-119.46037108125246
score of 0_463_40i.jpeg is:
-44.849050133840805
score of 1_330_40i.jpeg is:
-131.38038830031348
score of 2_433_40i.jpeg is:
-60.59594319967314
score of 3_106_40i.jpeg is:
264.2374168321718
score of 1_35_40i.jpeg is:
-3858.355075528883
score of 2_432_40i.jpeg is:
-78.34643175010919
score of 3_107_40i.jpeg is:
264.2374168321718
score of 3_361_40i.jpeg is:
264.2374168321718
score of 5_301_40i.jpeg is:
172.1326483969383
score of 2_209_40i.jpeg is:
-164.20111686924855
score of 5_166_40i.jpeg is:
-13.120270424942747
score of 0_258_40i.jpeg is:
-12.19846597583588
score of 2_208_40i.jpeg is:
-53.563064230541656
score of 2_393_40i.jpeg is:
-39.4072948909451
score of 2_94_40i.jpeg is:
40.602125707401214
score of 5_433_40i.jpeg is:
-441.3645570199885
score of 5_432_40i.jpeg is:
-111.909955569267
score of 5_14_40i.jpeg is:
251.77064170462347
score of 3_328_40i.jpeg is:
264.2374168321718
score of 1_378_40i.jpeg is:
-101.93189583739414
score of 5_240_40i.jpeg is:
23.175883658198657
score of 5_241_40i.jpeg is:
-3724.9918114221914
score of 3_220_40i.jpeg is:
264.2374168321718
score of 4_328_40i.jpeg is:
150.05019224917908
score of 1_270_40i.jpeg is:
172.1162370016745
score of 4_28_40i.jpeg is:
105.83551737157079
score of 4_29_40i.jpeg is:
-114.26541549808282
score of 5_348_40i.jpeg is:
4.501745731155848
score of 3_138_40i.jpeg is:
264.2374168321718
score of 1_169_40i.jpeg is:
392.5354092153342
score of 3_139_40i.jpeg is:
264.2374168321718
score of 2_39_40i.jpeg is:
12.130122689329689
score of 0_109_40i.jpeg is:
-2978.3293956972025
score of 2_159_40i.jpeg is:
-3925.682175516484
score of 5_236_40i.jpeg is:
-705.952617569006
score of 4_138_40i.jpeg is:
56.75894199985031
score of 3_257_40i.jpeg is:
264.2374168321718
score of 0_36_40i.jpeg is:
-77.03195532966302
score of 0_267_40i.jpeg is:
-318.0154986259458
score of 5_158_40i.jpeg is:
65.35503507931229
score of 2_236_40i.jpeg is:
-278.68668427276083
score of 0_327_40i.jpeg is:
-2619.953251993048
score of 2_71_40i.jpeg is:
-211.3870546761027
score of 2_70_40i.jpeg is:
-55.32200326263556
score of 4_384_40i.jpeg is:
392.5344777243465
score of 1_121_40i.jpeg is:
172.12309664120824
score of 3_316_40i.jpeg is:
264.2374168321718
score of 1_120_40i.jpeg is:
32.236349397922154
score of 0_415_40i.jpeg is:
-122.55398103689068
score of 5_376_40i.jpeg is:
-19.56497646475053
score of 5_110_40i.jpeg is:
9.420487017026813
score of 0_486_40i.jpeg is:
-3640.5576812143404
score of 0_487_40i.jpeg is:
-11.64455169373666
score of 2_183_40i.jpeg is:
-240.61548008553478
score of 4_171_40i.jpeg is:
231.85695226890743
score of 5_444_40i.jpeg is:
8.349192238552327
score of 4_316_40i.jpeg is:
-154.08704631055002
score of 4_275_40i.jpeg is:
-3738.409694096844
score of 0_86_40i.jpeg is:
-200.8617793438116
score of 1_28_40i.jpeg is:
172.11980910909796
score of 4_274_40i.jpeg is:
-167.6772910613803
score of 2_287_40i.jpeg is:
392.5352647575155
score of 4_188_40i.jpeg is:
-27.944213774305823
score of 3_27_40i.jpeg is:
264.2374168321718
score of 1_224_40i.jpeg is:
-319.0859456163922
score of 3_26_40i.jpeg is:
264.2374168321718
score of 3_274_40i.jpeg is:
264.2374168321718
score of 5_286_40i.jpeg is:
438.03239547639157
score of 5_287_40i.jpeg is:
-23.46687298009092
score of 0_14_40i.jpeg is:
49.52617985466549
score of 3_189_40i.jpeg is:
264.2374168321718
score of 0_244_40i.jpeg is:
-169.9543989553205
score of 2_214_40i.jpeg is:
85.63120579637722
score of 2_355_40i.jpeg is:
13.09116717588254
score of 3_406_40i.jpeg is:
264.2374168321718
score of 0_163_40i.jpeg is:
-57.52986191591831
score of 2_354_40i.jpeg is:
174.64368613007656
score of 1_61_40i.jpeg is:
2.714235233824537
score of 1_60_40i.jpeg is:
-59.88774722892849
score of 4_406_40i.jpeg is:
-176.2124936161307
score of 4_407_40i.jpeg is:
48.849062273380994
score of 5_132_40i.jpeg is:
-19.911934822538413
score of 4_35_40i.jpeg is:
-24.28400055710931
score of 1_190_40i.jpeg is:
-259.56180807173547
score of 1_191_40i.jpeg is:
-62.4434017774187
score of 0_397_40i.jpeg is:
-81.93534949567075
score of 3_495_40i.jpeg is:
264.2374168321718
score of 5_467_40i.jpeg is:
-8.087015292055888
score of 4_334_40i.jpeg is:
-77.69493081185352
score of 4_335_40i.jpeg is:
-179.95149155695253
score of 1_421_40i.jpeg is:
-52.756490931680524
score of 0_114_40i.jpeg is:
-78.64723154259073
score of 1_420_40i.jpeg is:
34.65749469561378
score of 0_115_40i.jpeg is:
-169.34878455455788
score of 1_289_40i.jpeg is:
-114.30998919401064
score of 0_440_40i.jpeg is:
34.30163189886125
score of 3_125_40i.jpeg is:
264.2374168321718
score of 1_312_40i.jpeg is:
-93.7942220585765
score of 5_322_40i.jpeg is:
-120.48080095201583
score of 1_381_40i.jpeg is:
-86.03744404436598
score of 4_42_40i.jpeg is:
22.14752533205764
score of 0_409_40i.jpeg is:
-164.77683470399
score of 5_36_40i.jpeg is:
-3439.9492661480012
score of 0_408_40i.jpeg is:
-133.61608763980243
score of 4_398_40i.jpeg is:
6.40772728333296
score of 3_291_40i.jpeg is:
264.2374168321718
score of 4_399_40i.jpeg is:
172.12688345418064
score of 3_439_40i.jpeg is:
264.2374168321718
score of 5_262_40i.jpeg is:
-69.63028483037286
score of 3_50_40i.jpeg is:
264.2374168321718
score of 3_51_40i.jpeg is:
264.2374168321718
score of 5_458_40i.jpeg is:
-14.532436167116474
score of 0_62_40i.jpeg is:
-81.41966681972477
score of 2_263_40i.jpeg is:
-62.611074257369374
score of 4_438_40i.jpeg is:
-92.69246762504046
score of 4_439_40i.jpeg is:
-82.87456959036442
score of 1_267_40i.jpeg is:
-134.5779713812505
score of 5_90_40i.jpeg is:
-5857.786447201787
score of 0_295_40i.jpeg is:
-52.24261549697703
score of 3_159_40i.jpeg is:
264.2374168321718
score of 2_59_40i.jpeg is:
-5231.662060374911
score of 3_183_40i.jpeg is:
264.2374168321718
score of 4_77_40i.jpeg is:
49.87188173931526
score of 4_444_40i.jpeg is:
44.93880922826029
score of 4_377_40i.jpeg is:
-3.4946135398763682
score of 2_385_40i.jpeg is:
-16.667426231614137
score of 4_183_40i.jpeg is:
-0.30215436629235803
score of 0_346_40i.jpeg is:
64.6451912365545
score of 3_445_40i.jpeg is:
264.2374168321718
score of 2_316_40i.jpeg is:
-4.015615834124923
score of 1_414_40i.jpeg is:
-146.28239288352077
score of 0_474_40i.jpeg is:
16.045922081210257
score of 3_377_40i.jpeg is:
264.2374168321718
score of 2_424_40i.jpeg is:
62.50415033520683
score of 1_140_40i.jpeg is:
172.112827861894
score of 5_385_40i.jpeg is:
-219.1330193513066
score of 0_491_40i.jpeg is:
12.663933251283744
score of 3_393_40i.jpeg is:
264.2374168321718
score of 0_490_40i.jpeg is:
438.0324946508132
score of 0_68_40i.jpeg is:
-40.06117365548498
score of 2_269_40i.jpeg is:
34.223253689541664
score of 5_107_40i.jpeg is:
-287.5823362961498
score of 0_238_40i.jpeg is:
-0.5614579800143691
score of 3_208_40i.jpeg is:
264.2374168321718
score of 1_258_40i.jpeg is:
58.23921919283244
score of 4_301_40i.jpeg is:
392.53364612375196
score of 2_6_40i.jpeg is:
-4440.000016624708
score of 4_392_40i.jpeg is:
-69.33433096724035
score of 2_361_40i.jpeg is:
392.53468338648844
score of 5_269_40i.jpeg is:
172.11677310967343
score of 0_331_40i.jpeg is:
-156.76682121702476
score of 5_268_40i.jpeg is:
-293.8371052057931
score of 1_463_40i.jpeg is:
-42.95695962067682
score of 3_166_40i.jpeg is:
264.2374168321718
score of 2_453_40i.jpeg is:
64.22808626355992
score of 3_300_40i.jpeg is:
264.2374168321718
score of 1_136_40i.jpeg is:
392.5361468826153
score of 4_208_40i.jpeg is:
-148.46080573259354
score of 1_54_40i.jpeg is:
-56.476554766753644
score of 1_137_40i.jpeg is:
68.5853707941831
score of 5_194_40i.jpeg is:
-6.179928667493572
score of 4_349_40i.jpeg is:
-40.87649373796332
score of 0_269_40i(1).jpeg is:
36.733456028570835
score of 3_13_40i.jpeg is:
264.2374168321718
score of 1_210_40i.jpeg is:
-3517.515875266669
score of 3_12_40i.jpeg is:
264.2374168321718
score of 0_270_40i.jpeg is:
172.11640419211915
score of 0_271_40i.jpeg is:
-43.0924075407598
score of 0_20_40i.jpeg is:
8.371784645282027
score of 2_488_40i.jpeg is:
58.17626980167235
score of 0_21_40i.jpeg is:
453.1987650974663
score of 2_489_40i.jpeg is:
-23.612561613109776
score of 4_241_40i.jpeg is:
-89.24184315546954
score of 1_318_40i.jpeg is:
392.53614688261484
score of 5_75_40i.jpeg is:
-49.88514942259259
score of 3_348_40i.jpeg is:
264.2374168321718
score of 2_328_40i.jpeg is:
251.77249924579004
score of 5_190_40i(2).jpeg is:
-2.8827584408780007
score of 0_379_40i.jpeg is:
-82.59670996476909
score of 5_489_40i.jpeg is:
-5.001835421390682
score of 2_365_40i(1).jpeg is:
392.53521466955544
score of 1_223_40i.jpeg is:
-48.877276149373266
score of 3_273_40i.jpeg is:
264.2374168321718
score of 5_281_40i.jpeg is:
-164.30512619703885
score of 0_12_40i.jpeg is:
-19.06058259414683
score of 0_242_40i.jpeg is:
-3988.8068491644176
score of 4_272_40i.jpeg is:
30.449172675047052
score of 2_428_40i.jpeg is:
-13.29355610889941
score of 5_212_40i.jpeg is:
392.5337025622456
score of 1_419_40i.jpeg is:
56.828219586092914
score of 3_449_40i.jpeg is:
264.2374168321718
score of 4_401_40i.jpeg is:
-69.33433096724035
score of 5_352_40i.jpeg is:
438.0321036529421
score of 5_353_40i.jpeg is:
-27.54043627951497
score of 3_492_40i.jpeg is:
264.2374168321718
score of 3_69_40i.jpeg is:
264.2374168321718
score of 4_332_40i.jpeg is:
47.210333073116985
score of 2_135_40i.jpeg is:
-100.4309557281902
score of 0_165_40i.jpeg is:
-252.43918330110824
score of 2_55_40i.jpeg is:
-4428.414838238761
score of 4_493_40i.jpeg is:
39.28773438845404
score of 0_298_40i.jpeg is:
-33.460170275077004
score of 0_299_40i.jpeg is:
-22.76099099182433
score of 3_333_40i.jpeg is:
264.2374168321718
score of 3_155_40i.jpeg is:
264.2374168321718
score of 0_430_40i.jpeg is:
392.5337642259754
score of 1_105_40i.jpeg is:
-26.06673834568638
score of 1_363_40i.jpeg is:
10.536094700994546
score of 3_154_40i.jpeg is:
264.2374168321718
score of 3_332_40i.jpeg is:
264.2374168321718
score of 1_362_40i.jpeg is:
-14.274383363932102
score of 4_476_40i.jpeg is:
3.717231935211635
score of 4_477_40i.jpeg is:
-7207.183985871105
score of 1_387_40i.jpeg is:
-197.86046861596225
score of 2_484_40i.jpeg is:
12.757976993804427
score of 0_181_40i.jpeg is:
-75.84783872922586
score of 4_344_40i.jpeg is:
-224.06758279637484
score of 5_416_40i.jpeg is:
-15.937746411123202
score of 4_123_40i.jpeg is:
10.90836494451819
score of 2_325_40i.jpeg is:
19.401776793084863
score of 0_374_40i.jpeg is:
-4076.5334739315954
score of 3_477_40i.jpeg is:
264.2374168321718
score of 1_172_40i.jpeg is:
-198.60638296083675
score of 1_11_40i.jpeg is:
-59.88774722892849
score of 5_78_40i.jpeg is:
-3514.1310277516045
score of 3_345_40i.jpeg is:
264.2374168321718
score of 1_10_40i.jpeg is:
55.00893152609459
score of 3_56_40i.jpeg is:
264.2374168321718
score of 2_198_40i.jpeg is:
-65.44615379927947
score of 4_297_40i.jpeg is:
132.35437265962173
score of 0_64_40i.jpeg is:
231.8550981720399
score of 4_296_40i.jpeg is:
39.56624155637687
score of 4_205_40i.jpeg is:
-39.34701327836515
score of 1_59_40i.jpeg is:
-4936.912680776561
score of 4_204_40i.jpeg is:
-173.7383242729926
score of 5_199_40i.jpeg is:
172.14765897268518
score of 3_297_40i.jpeg is:
264.2374168321718
score of 5_264_40i.jpeg is:
172.11446389557
score of 0_293_40i.jpeg is:
-4406.712568494609
score of 1_369_40i.jpeg is:
-188.78245450917987
score of 1_368_40i.jpeg is:
172.11980910909796
score of 0_308_40i.jpeg is:
-5685.59646371641
score of 5_250_40i.jpeg is:
-2490.580069771028
score of 2_359_40i.jpeg is:
84.36003749133728
score of 0_309_40i.jpeg is:
-2920.8635655537796
score of 3_499_40i.jpeg is:
264.2374168321718
score of 3_230_40i.jpeg is:
264.2374168321718
score of 1_260_40i.jpeg is:
-34.49516853498587
score of 4_338_40i.jpeg is:
-3818.810086986113
score of 4_38_40i.jpeg is:
-6061.002194519023
score of 0_50_40i.jpeg is:
-44.07969679988971
score of 0_51_40i.jpeg is:
-240.14629197221956
score of 2_17_40i.jpeg is:
107.80415302606649
score of 0_127_40i.jpeg is:
-6.63852491847424
score of 0_341_40i.jpeg is:
-3776.25802355912
score of 2_177_40i.jpeg is:
231.8580466615341
score of 1_413_40i.jpeg is:
93.36321518754765
score of 3_443_40i.jpeg is:
264.2374168321718
score of 4_278_40i.jpeg is:
39.09395331370647
score of 2_423_40i.jpeg is:
-141.14886168061642
score of 4_279_40i.jpeg is:
-22.46102839923553
score of 3_117_40i.jpeg is:
264.2374168321718
score of 0_19_40i.jpeg is:
7.352038427819401
score of 3_184_40i.jpeg is:
264.2374168321718
score of 0_18_40i.jpeg is:
392.53393122046543
score of 4_70_40i.jpeg is:
-277.68504097339934
score of 4_442_40i.jpeg is:
-6501.36426129853
score of 5_423_40i.jpeg is:
-162.00726314760146
score of 4_370_40i.jpeg is:
-140.02433097511852
score of 1_229_40i.jpeg is:
-126.21267793055105
score of 4_117_40i.jpeg is:
-148.39881711868279
score of 1_481_40i.jpeg is:
13.362532298475413
score of 4_395_40i.jpeg is:
50.42793584689927
score of 2_0_40i.jpeg is:
58.17626980167235
score of 4_394_40i.jpeg is:
-109.59881252012437
score of 2_366_40i.jpeg is:
74.01852608130501
score of 0_150_40i.jpeg is:
-4248.686717605597
score of 1_464_40i.jpeg is:
-182.10174124292834
score of 0_337_40i.jpeg is:
-3208.593331802365
score of 1_130_40i.jpeg is:
392.53363898506154
score of 0_496_40i.jpeg is:
-152.5873845791737
score of 3_394_40i.jpeg is:
264.2374168321718
score of 5_366_40i.jpeg is:
64.10573845359927
score of 5_101_40i.jpeg is:
392.5337025622456
score of 5_226_40i.jpeg is:
-5546.723388112934
score of 2_148_40i.jpeg is:
-49.320186401364445
score of 3_86_40i.jpeg is:
264.2374168321718
score of 1_216_40i.jpeg is:
135.62423300339663
score of 4_129_40i.jpeg is:
18.183985562935973
score of 3_15_40i.jpeg is:
264.2374168321718
score of 1_89_40i.jpeg is:
-70.43409604464038
score of 1_446_40i.jpeg is:
8.238892290676757
score of 0_173_40i.jpeg is:
-2312.365715419344
score of 1_447_40i.jpeg is:
392.5361468826153
score of 0_314_40i.jpeg is:
-34.729444254941164
score of 1_71_40i.jpeg is:
2.0729643436587115
score of 0_427_40i.jpeg is:
453.198794331944
score of 1_374_40i.jpeg is:
-3905.2689691248474
score of 2_476_40i.jpeg is:
85.6312057963771
score of 1_375_40i.jpeg is:
231.85570828353394
score of 0_426_40i.jpeg is:
51.835765377578994
score of 4_484_40i.jpeg is:
53.77806651937429
score of 4_25_40i.jpeg is:
172.13505712460858
score of 5_122_40i.jpeg is:
-38.19315853743452
score of 5_477_40i.jpeg is:
-7562.7912261411075
score of 4_143_40i.jpeg is:
150.18510992278334
score of 5_476_40i.jpeg is:
-8.087015292055888
score of 0_386_40i.jpeg is:
16.290396639279905
score of 5_50_40i.jpeg is:
231.85517456719242
score of 1_38_40i.jpeg is:
-0.5352049496153337
score of 0_97_40i.jpeg is:
-2714.1840556517286
score of 5_205_40i.jpeg is:
16.997586281944145
score of 4_199_40i.jpeg is:
172.13505712460858
score of 5_297_40i.jpeg is:
41.870030587107934
score of 3_37_40i.jpeg is:
264.2374168321718
score of 1_234_40i.jpeg is:
231.85686173306715
score of 3_36_40i.jpeg is:
264.2374168321718
score of 0_255_40i.jpeg is:
22.901378222806876
score of 2_205_40i.jpeg is:
-29.545303791077252
score of 1_4_40i.jpeg is:
-81.80494958953844
score of 2_449_40i.jpeg is:
-10.88159210683331
score of 0_419_40i.jpeg is:
0.41855998774313763
score of 2_448_40i.jpeg is:
-41.23013941751176
score of 4_88_40i.jpeg is:
172.11823172404388
score of 4_213_40i.jpeg is:
22.459087635730143
score of 5_26_40i.jpeg is:
-16.002478617470125
score of 5_272_40i.jpeg is:
13.880424291902683
score of 3_281_40i.jpeg is:
264.2374168321718
score of 5_331_40i(1).jpeg is:
392.5341461010356
score of 3_212_40i.jpeg is:
264.2374168321718
score of 3_41_40i.jpeg is:
264.2374168321718
score of 1_243_40i.jpeg is:
-6090.432723927781
score of 4_429_40i.jpeg is:
-63.65122505519973
score of 0_222_40i.jpeg is:
172.12131169587468
score of 3_388_40i.jpeg is:
264.2374168321718
score of 2_332_40i.jpeg is:
8.504773618121341
score of 2_155_40i.jpeg is:
72.00001139650713
score of 3_460_40i.jpeg is:
264.2374168321718
score of 2_333_40i.jpeg is:
34.72711109183781
score of 1_303_40i.jpeg is:
23.365263646373123
score of 3_135_40i.jpeg is:
264.2374168321718
score of 3_353_40i.jpeg is:
264.2374168321718
score of 2_492_40i.jpeg is:
-94.13136953990718
score of 2_493_40i.jpeg is:
392.5345740094739
score of 5_332_40i.jpeg is:
33.47745192131664
score of 4_460_40i.jpeg is:
-190.77131420412564
score of 5_155_40i.jpeg is:
-7.518738538712079
score of 5_160_40i.jpeg is:
39.69887361032759
score of 4_455_40i.jpeg is:
-41.23174517114736
score of 4_454_40i.jpeg is:
36.83338675112643
score of 5_307_40i.jpeg is:
392.5334613388777
score of 2_394_40i.jpeg is:
-175.82664648283856
score of 5_434_40i.jpeg is:
14.222472197199023
score of 4_101_40i.jpeg is:
231.85739457884654
score of 2_92_40i.jpeg is:
-30.294453783902462
score of 4_100_40i.jpeg is:
-1.5000357207986088
score of 2_160_40i.jpeg is:
52.543842212085856
score of 1_404_40i.jpeg is:
128.64051062258818
score of 3_454_40i.jpeg is:
264.2374168321718
score of 0_7_40i.jpeg is:
6.22069744228345
score of 2_434_40i.jpeg is:
12.429215777310766
score of 1_336_40i.jpeg is:
-178.88257696563363
score of 1_33_40i.jpeg is:
46.410647000859726
score of 3_226_40i.jpeg is:
264.2374168321718
score of 1_277_40i.jpeg is:
-88.45423104188453
score of 5_128_40i.jpeg is:
37.522165287723205
score of 4_226_40i.jpeg is:
-6157.750424663664
score of 3_149_40i.jpeg is:
264.2374168321718
score of 4_227_40i.jpeg is:
13.028337640260176
score of 5_247_40i.jpeg is:
172.11866901174056
score of 5_246_40i.jpeg is:
39.69887361032759
score of 4_359_40i.jpeg is:
39.09395331370647
score of 4_58_40i.jpeg is:
-61.5815496156799
score of 2_499_40i.jpeg is:
172.12190642218457
score of 5_338_40i.jpeg is:
172.11947998366492
score of 0_260_40i.jpeg is:
-35.79759048754661
score of 2_231_40i.jpeg is:
-86.12596363724712
score of 5_64_40i.jpeg is:
6.633214013468532
score of 3_358_40i.jpeg is:
264.2374168321718
score of 5_498_40i.jpeg is:
-197.5577427898755
score of 0_368_40i.jpeg is:
172.10993808800555
score of 2_338_40i.jpeg is:
-30.169216909669885
score of 2_339_40i.jpeg is:
8.504773618121341
score of 5_117_40i.jpeg is:
-2.474094967714949
score of 0_229_40i.jpeg is:
-227.30039261597452
score of 4_10_40i.jpeg is:
153.41744363594233
