score of 0_17_40i.jpeg is:
10119.84822742656
score of 0_4_40i.jpeg is:
9967.27082590488
score of 0_11_40i.jpeg is:
9967.290113394001
score of 0_14_40i.jpeg is:
10230.132512290309
score of 0_20_40i.jpeg is:
10181.387931784318
score of 0_12_40i.jpeg is:
9967.290113394001
score of 0_19_40i.jpeg is:
10035.165323553352
score of 0_18_40i.jpeg is:
10034.040374613518
score of 0_7_40i.jpeg is:
9967.288987273301
